{
	"format_version": "1.8.0",
	"animations": {
		"animation.froakie.ground_idle": {
			"loop": true,
			"bones": {
				"arm_left": {
					"rotation": [62.63351, "69.9361+Math.cos((query.anim_time-0.3) * 90 * 2) * 3", 54.27769],
					"position": [0, "Math.cos((query.anim_time-0.1) * 90 * 2) * 0.1", 0]
				},
				"arm_left2": {
					"rotation": [0, 10, 0]
				},
				"leg_left": {
					"rotation": [-119.85791, -37.10567, 15.80757]
				},
				"leg_left2": {
					"rotation": [102.79362, 12.19908, 2.74715],
					"position": [0, 0.1, 0]
				},
				"foot_left": {
					"rotation": [2.5, 0, 0]
				},
				"finger_index_left": {
					"rotation": [0, 0, 10]
				},
				"wrist_left": {
					"rotation": [0, 0, -20]
				},
				"head": {
					"rotation": ["-25+Math.cos((query.anim_time-0.4) * 90 * 2) * -5", 0, 0]
				},
				"torso": {
					"rotation": ["15+Math.cos((query.anim_time-0.2) * 90 * 2) * 2", 0, 0],
					"position": [0, "-1+Math.cos((query.anim_time) * 90 * 2) * 0.2", 0]
				},
				"chest": {
					"rotation": ["7.5+Math.cos((query.anim_time-0.3) * 90 * 2) * 2", 0, 0]
				},
				"leg_right": {
					"rotation": [-118.93803, 29.14089, -15.06885]
				},
				"leg_right2": {
					"rotation": [102.79362, -12.19908, -2.74715],
					"position": [0, 0.1, 0]
				},
				"foot_right": {
					"rotation": [2.5, 0, 0]
				},
				"body": {
					"rotation": [7.5, 0, 0],
					"position": [0, -5.2, 0]
				},
				"arm_right": {
					"rotation": [62.63351, "-69.9361+Math.cos((query.anim_time-0.3) * 90 * 2) * -3", -54.27769],
					"position": [0, "Math.cos((query.anim_time-0.1) * 90 * 2) * 0.1", 0]
				},
				"arm_right2": {
					"rotation": [0, -10, 0]
				},
				"finger_index_right": {
					"rotation": [0, 0, -10]
				},
				"froakie": {
					"position": [0, 1, 0]
				},
				"eyelid_right": {
					"position": [0, 0, -0.125]
				},
				"pupil_eyelid_right": {
					"rotation": [0, 0, -5],
					"position": [0, 0.5, 0]
				},
				"eyelid_right2": {
					"position": [0, 0, 0.125]
				},
				"eyelid_left": {
					"position": [0, 0, -0.175]
				},
				"pupil_eyelid_left": {
					"rotation": [0, 0, 5],
					"position": [0, 0.5, 0]
				},
				"eyelid_left2": {
					"position": [0, 0, 0.05]
				},
				"wrist_right": {
					"rotation": [0, 0, 20]
				}
			}
		},
		"animation.froakie.ground_walk": {
			"loop": true,
			"animation_length": 1,
			"bones": {
				"body": {
					"position": {
						"0.0": [0, -4.5, -1.5],
						"0.2917": [0, -4.5, 4],
						"0.375": [0, 0.25, 0.5],
						"0.5": [0, 1.75, -3],
						"0.5833": [0, 1.62, -4.8],
						"0.6667": [0, 1, -5.5],
						"0.7917": [0, -4.5, -6],
						"0.875": [0, -4.5, -3.2],
						"1.0": [0, -4.5, -1.5]
					}
				},
				"torso": {
					"rotation": {
						"0.0": [37.5, 0, 0],
						"0.2917": [35, 0, 0],
						"0.5": [57.5, 0, 0],
						"0.625": [60, 0, 0],
						"0.7083": [52.5, 0, 0],
						"0.7917": [37.5, 0, 0]
					},
					"position": {
						"0.0": [0, 0, 0],
						"0.25": [0, 0, 0],
						"0.2917": [0, -1, 0],
						"0.5": [0, 0, 0],
						"0.7083": [0, 0, 0],
						"0.7917": [0, -0.5, -0.5],
						"0.8333": [0, -0.37, -0.325],
						"0.875": [0, 0, 0]
					}
				},
				"chest": {
					"rotation": {
						"0.0": [12.25, 0, 0],
						"0.125": [11.42, 0, 0],
						"0.25": [8.25, 0, 0],
						"0.375": [0, 0, 0],
						"0.5": [-2.5, 0, 0],
						"0.625": [0, 0, 0],
						"0.75": [8.25, 0, 0],
						"0.8333": [16.81, 0, 0],
						"0.9167": [13.17, 0, 0],
						"1.0": [12.25, 0, 0]
					}
				},
				"head": {
					"rotation": {
						"0.0": [-42.25, 0, 0],
						"0.2083": [-35.42, 0, 0],
						"0.2917": [-23.96, 0, 0],
						"0.3333": [-22.5, 0, 0],
						"0.375": [-27.28, 0, 0],
						"0.5": [-40, 0, 0],
						"0.625": [-49.28, 0, 0],
						"0.75": [-50, 0, 0],
						"0.8333": [-39.08, 0, 0],
						"1.0": [-42.25, 0, 0]
					},
					"position": [0, -0.25, -0.25]
				},
				"iris_right": {
					"position": [0, 0, 0.1]
				},
				"pupil_eyelid_right": {
					"rotation": [0, 0, -5],
					"position": [0, 0.5, -0.1]
				},
				"iris_left": {
					"position": [0, 0, 0.1]
				},
				"pupil_eyelid_left": {
					"rotation": [0, 0, 5],
					"position": [0, 0.5, -0.1]
				},
				"chest_bubble": {
					"rotation": [20, 0, 0]
				},
				"chest_bubble_front": {
					"rotation": [0, 0, 0]
				},
				"arm_right": {
					"rotation": {
						"0.0": [44.75386, -79.40859, -45.24614],
						"0.2083": [45.45381, -79.15486, -45.96935],
						"0.2917": [63.0391, -73.26807, -64.02788],
						"0.375": [-45.77975, -60.49512, 49.77617],
						"0.4583": [-57.07851, -54.69831, 57.60163],
						"0.5417": [-57.92309, -54.49403, 63.28185],
						"0.6667": [-50.21222, -59.96841, 59.88292],
						"0.7083": [-35.02181, -73.48167, 36.20945],
						"0.75": [-4.47962, -78.41915, -3.65371],
						"0.7917": [42.79716, -74.38474, -50.65749],
						"0.8333": [13.70644, -79.08775, -19.39516],
						"1.0": [44.75386, -79.40859, -45.24614]
					}
				},
				"arm_right2": {
					"rotation": {
						"0.0": [0, 0, 12.5],
						"0.2083": [0, 0, 11.43],
						"0.2917": [0, 0, 25],
						"0.3333": [0, 0, -11.83],
						"0.375": [0, 0, -8.58],
						"0.4583": [0, 0, 12],
						"0.5417": [0, 0, 19.58],
						"0.625": [0, 0, 25.48],
						"0.7083": [0, 0, 26.64],
						"0.8333": [0, 0, 22.5],
						"1.0": [0, 0, 12.5]
					}
				},
				"hand_right": {
					"rotation": {
						"0.0": [0, 0, 15],
						"0.2917": [0, 0, 10],
						"0.5": [0, 0, 52.5],
						"0.7917": [0, 0, 15]
					}
				},
				"arm_left": {
					"rotation": {
						"0.0": [44.75386, 79.40859, 45.24614],
						"0.2083": [45.45381, 79.15486, 45.96935],
						"0.2917": [63.0391, 73.26807, 64.02788],
						"0.375": [-45.77975, 60.49512, -49.77617],
						"0.4583": [-57.07851, 54.69831, -57.60163],
						"0.5417": [-57.92309, 54.49403, -63.28185],
						"0.6667": [-50.21222, 59.96841, -59.88292],
						"0.7083": [-35.02181, 73.48167, -36.20945],
						"0.75": [-4.47962, 78.41915, 3.65371],
						"0.7917": [42.79716, 74.38474, 50.65749],
						"0.8333": [13.70644, 79.08775, 19.39516],
						"1.0": [44.75386, 79.40859, 45.24614]
					}
				},
				"arm_left2": {
					"rotation": {
						"0.0": [0, 0, -12.5],
						"0.2083": [0, 0, -11.43],
						"0.2917": [0, 0, -25],
						"0.3333": [0, 0, 11.83],
						"0.375": [0, 0, 8.58],
						"0.4583": [0, 0, -12],
						"0.5417": [0, 0, -19.58],
						"0.625": [0, 0, -25.48],
						"0.7083": [0, 0, -26.64],
						"0.8333": [0, 0, -22.5],
						"1.0": [0, 0, -12.5]
					}
				},
				"hand_left": {
					"rotation": {
						"0.0": [0, 0, -15],
						"0.2917": [0, 0, -10],
						"0.5": [0, 0, -52.5],
						"0.7917": [0, 0, -15]
					}
				},
				"back_bubbles": {
					"rotation": [0, 0, 0]
				},
				"leg_right": {
					"rotation": {
						"0.0": [-120.5555, 30.68198, -1.74989],
						"0.25": [-118.0555, 30.68198, -1.74989],
						"0.375": [-18.15765, 15.4069, 3.64905],
						"0.5": [16.7402, 0.13182, 9.04799],
						"0.5417": [9.7402, 0.13182, 9.04799],
						"0.75": [-80.7598, 0.13182, 9.04799],
						"0.7917": [-102.39241, 5.22351, 7.24834],
						"1.0": [-120.5555, 30.68198, -1.74989]
					},
					"position": {
						"0.0": [0, 0, 0],
						"0.25": [0, 0, 0],
						"0.2917": [0, 0.83, 0],
						"0.375": [0, 1, 0],
						"0.5": [0, 0.5, 0],
						"0.75": [0, 0, 0],
						"0.7917": [0, -1, 0],
						"0.875": [0, 0, 0]
					}
				},
				"leg_right2": {
					"rotation": {
						"0.0": [120, 0, 0],
						"0.25": [112.5, 0, 0],
						"0.375": [40, 0, 0],
						"0.5": [22.5, 0, 0],
						"0.625": [88, 0, 0],
						"0.75": [127.5, 0, 0],
						"1.0": [120, 0, 0]
					}
				},
				"foot_right": {
					"rotation": {
						"0.0": [0, 0, 0],
						"0.25": [5, 0, 0],
						"0.5": [50, 0, 0],
						"0.75": [-17.5, 0, 0],
						"1.0": [0, 0, 0]
					}
				},
				"leg_left": {
					"rotation": {
						"0.0": [-120.5555, -30.68198, 1.74989],
						"0.25": [-118.0555, -30.68198, 1.74989],
						"0.375": [-18.15765, -15.4069, -3.64905],
						"0.5": [16.7402, -0.13182, -9.04799],
						"0.5417": [9.7402, -0.13182, -9.04799],
						"0.75": [-80.7598, -0.13182, -9.04799],
						"0.7917": [-102.39241, -5.22351, -7.24834],
						"1.0": [-120.5555, -30.68198, 1.74989]
					},
					"position": {
						"0.0": [0, 0, 0],
						"0.25": [0, 0, 0],
						"0.2917": [0, 0.83, 0],
						"0.375": [0, 1, 0],
						"0.5": [0, 0.5, 0],
						"0.75": [0, 0, 0],
						"0.7917": [0, -1, 0],
						"0.875": [0, 0, 0]
					}
				},
				"leg_left2": {
					"rotation": {
						"0.0": [120, 0, 0],
						"0.25": [112.5, 0, 0],
						"0.375": [40, 0, 0],
						"0.5": [22.5, 0, 0],
						"0.625": [88, 0, 0],
						"0.75": [127.5, 0, 0],
						"1.0": [120, 0, 0]
					}
				},
				"foot_left": {
					"rotation": {
						"0.0": [0, 0, 0],
						"0.25": [5, 0, 0],
						"0.5": [50, 0, 0],
						"0.75": [-17.5, 0, 0],
						"1.0": [0, 0, 0]
					}
				}
			}
		},
		"animation.froakie.water_idle": {
			"loop": true,
			"bones": {
				"body": {
					"rotation": [55, 0, 0],
					"position": [0, "-8+Math.cos((query.anim_time) * 90 * 2) * 0.2", -1]
				},
				"torso": {
					"rotation": [10, 0, 0]
				},
				"chest": {
					"rotation": ["-12.5+Math.cos((query.anim_time-0.4) * 90 * 2) * 2", 0, 0]
				},
				"head": {
					"rotation": ["-47.5+Math.cos((query.anim_time-0.5) * 90 * 2) * -3", 0, 0]
				},
				"iris_right": {
					"position": [0, 0, 0.2]
				},
				"pupil_eyelid_right": {
					"position": [0, 0.25, -0.125]
				},
				"iris_left": {
					"position": [0, 0, 0.2]
				},
				"pupil_eyelid_left": {
					"position": [0, 0.25, -0.125]
				},
				"arm_right": {
					"rotation": [-36.42853, "-21.093+Math.cos((query.anim_time-0.4) * 90 * 2) * 2", 4.60255]
				},
				"arm_right2": {
					"rotation": [0, -17.5, 0]
				},
				"arm_left": {
					"rotation": [-36.42853, "21.093+Math.cos((query.anim_time-0.4) * 90 * 2) * -2", -4.60255]
				},
				"arm_left2": {
					"rotation": [0, 17.5, 0]
				},
				"leg_right": {
					"rotation": [-47.11876, 69.99762, "4.9793+Math.cos((query.anim_time-0.2) * 90 * 2) * -3"]
				},
				"leg_right2": {
					"rotation": [40, 0, 0]
				},
				"leg_left": {
					"rotation": [-47.11876, -69.99762, "-4.9793+Math.cos((query.anim_time-0.2) * 90 * 2) * 3"]
				},
				"leg_left2": {
					"rotation": [40, 0, 0]
				}
			}
		},
		"animation.froakie.water_swim": {
			"loop": true,
			"animation_length": 1.5,
			"bones": {
				"body": {
					"rotation": [55, 0, 0],
					"position": {
						"0.0": [0, "-9+Math.cos((query.anim_time) * 90 * (2+2/3)) * 0.2", -1.5],
						"0.25": [0, "-9+Math.cos((query.anim_time) * 90 * (2+2/3)) * 0.2", 0.5],
						"0.5": [0, "-9+Math.cos((query.anim_time) * 90 * (2+2/3)) * 0.2", 3.5],
						"0.6667": [0, "-9+Math.cos((query.anim_time) * 90 * (2+2/3)) * 0.2", 5.17],
						"0.75": [0, "-9+Math.cos((query.anim_time) * 90 * (2+2/3)) * 0.2", 5.25],
						"0.7917": [0, "-9+Math.cos((query.anim_time) * 90 * (2+2/3)) * 0.2", 3.92],
						"1.0": [0, "-9+Math.cos((query.anim_time) * 90 * (2+2/3)) * 0.2", 1],
						"1.2083": [0, "-9+Math.cos((query.anim_time) * 90 * (2+2/3)) * 0.2", -1.25],
						"1.375": [0, "-9+Math.cos((query.anim_time) * 90 * (2+2/3)) * 0.2", -1.75],
						"1.5": [0, "-9+Math.cos((query.anim_time) * 90 * (2+2/3)) * 0.2", -1.5]
					}
				},
				"torso": {
					"rotation": ["10+Math.cos((query.anim_time+0.2) * 90 * (2+2/3)) * 5", 0, 0]
				},
				"chest": {
					"rotation": [-7.5, 0, 0]
				},
				"head": {
					"rotation": ["-50+Math.cos((query.anim_time+0.4) * 90 * (2+2/3)) * -5", 0, 0]
				},
				"iris_right": {
					"position": [0, 0, 0.2]
				},
				"pupil_eyelid_right": {
					"position": [0, 0.25, -0.125]
				},
				"iris_left": {
					"position": [0, 0, 0.2]
				},
				"pupil_eyelid_left": {
					"position": [0, 0.25, -0.125]
				},
				"arm_right": {
					"rotation": [3.04394, 5.74449, "-51.4002+Math.cos((query.anim_time+0.2) * 90 * (2+2/3)) * -5"]
				},
				"arm_right2": {
					"rotation": [0, -17.5, "10+Math.cos((query.anim_time) * 90 * (2+2/3)) * -10"]
				},
				"arm_left": {
					"rotation": [3.04394, -5.74449, "51.4002+Math.cos((query.anim_time+0.2) * 90 * (2+2/3)) * 5"]
				},
				"arm_left2": {
					"rotation": [0, 17.5, "-10+Math.cos((query.anim_time) * 90 * (2+2/3)) * 10"]
				},
				"leg_right": {
					"rotation": {
						"0.0": [-47.11876, 22.99762, 4.9793],
						"0.125": [-80.02317, 22.99762, 4.9793],
						"0.375": [-102.78052, 22.99762, 4.9793],
						"0.7083": [-116.61876, 22.99762, 4.9793],
						"0.75": [-110.11876, 22.99762, 4.9793],
						"0.875": [-47.61876, 22.99762, 4.9793],
						"1.0": [-14.54733, 22.99762, 4.9793],
						"1.1667": [0.38124, 22.99762, 4.9793],
						"1.3333": [-8.43126, 22.99762, 4.9793],
						"1.5": [-47.11876, 22.99762, 4.9793]
					}
				},
				"leg_right2": {
					"rotation": {
						"0.0": [40, 0, 0],
						"0.125": [72.5, 0, 0],
						"0.4167": [112.35, 0, 0],
						"0.7083": [120, 0, 0],
						"0.75": [113.61, 0, 0],
						"0.9167": [46.82, 0, 0],
						"1.2083": [29, 0, 0],
						"1.5": [40, 0, 0]
					}
				},
				"leg_left": {
					"rotation": {
						"0.0": [-47.11876, -22.99762, -4.9793],
						"0.125": [-80.02317, -22.99762, -4.9793],
						"0.375": [-102.78052, -22.99762, -4.9793],
						"0.7083": [-116.61876, -22.99762, -4.9793],
						"0.75": [-110.11876, -22.99762, -4.9793],
						"0.875": [-47.61876, -22.99762, -4.9793],
						"1.0": [-14.54733, -22.99762, -4.9793],
						"1.1667": [0.38124, -22.99762, -4.9793],
						"1.3333": [-8.43126, -22.99762, -4.9793],
						"1.5": [-47.11876, -22.99762, -4.9793]
					}
				},
				"leg_left2": {
					"rotation": {
						"0.0": [40, 0, 0],
						"0.125": [72.5, 0, 0],
						"0.4167": [112.35, 0, 0],
						"0.7083": [120, 0, 0],
						"0.75": [113.61, 0, 0],
						"0.9167": [46.82, 0, 0],
						"1.2083": [29, 0, 0],
						"1.5": [40, 0, 0]
					}
				},
				"hand_right": {
					"rotation": [0, 0, -40]
				},
				"hand_left": {
					"rotation": [0, 0, 40]
				},
				"foot_right": {
					"rotation": {
						"0.0": [45, 0, 0],
						"0.2083": [-3.46, 0, 0],
						"0.5417": [-22.5, 0, 0],
						"1.0833": [5, 0, 0],
						"1.5": [45, 0, 0]
					}
				},
				"foot_left": {
					"rotation": {
						"0.0": [45, 0, 0],
						"0.2083": [-3.46, 0, 0],
						"0.5417": [-22.5, 0, 0],
						"1.0833": [5, 0, 0],
						"1.5": [45, 0, 0]
					}
				}
			}
		},
		"animation.froakie.battle_idle": {
			"loop": true,
			"bones": {
				"body": {
					"position": [0, -4, 0]
				},
				"torso": {
					"rotation": ["34.9055+Math.cos((query.anim_time-0.3) * 90 * 2) * 3", 2.49762, -4.33287],
					"position": [0, "-0.5+Math.cos((query.anim_time) * 90 * 2) * 0.2", 0]
				},
				"chest": {
					"rotation": ["-12.4539+Math.cos((query.anim_time-0.5) * 90 * 2) * 2", 1.08089, 4.88206]
				},
				"head": {
					"rotation": ["-15+Math.cos((query.anim_time-0.5) * 90 * 2) * -5", 0, 0]
				},
				"eyelid_right2": {
					"position": [0, 0, -0.1]
				},
				"eyelid_left2": {
					"position": [0, 0, -0.15]
				},
				"arm_right": {
					"rotation": [75.2144, "-53.7788+Math.cos((query.anim_time-0.5) * 90 * 2) * -5", -75.70124],
					"position": [0, -0.5, "Math.cos((query.anim_time-0.5) * 90 * 2) * 0.2"]
				},
				"arm_right2": {
					"rotation": [4.11405, -22.13991, -0.80524]
				},
				"hand_right": {
					"rotation": [0, 0, 32.5]
				},
				"arm_left": {
					"rotation": [-4.50432, "-19.5064+Math.cos((query.anim_time-0.8) * 90 * 2) * 7", "13.2746+Math.cos((query.anim_time-0.7) * 90 * 2) * 2"]
				},
				"arm_left2": {
					"rotation": [0, "35+Math.cos((query.anim_time-0.9) * 90 * 2) * 7", 0]
				},
				"leg_right": {
					"rotation": [-95.27946, 39.63389, 12.13638]
				},
				"leg_right2": {
					"rotation": [102.5, 0, 0]
				},
				"foot_right": {
					"rotation": [0, 0, -5]
				},
				"leg_left": {
					"rotation": [-76.73021, -74.12482, -31.13382]
				},
				"leg_left2": {
					"rotation": [92.5, 0, 0]
				},
				"foot_left": {
					"rotation": [15, 0, 0]
				},
				"iris_right": {
					"position": [0, -0.3, 0]
				},
				"iris_left": {
					"position": [0, -0.3, 0]
				},
				"pupil_right": {
					"position": [0.1, 0, 0]
				},
				"pupil_left": {
					"position": [-0.1, 0, 0]
				}
			}
		},
		"animation.froakie.blink": {
			"animation_length": 0.16667,
			"bones": {
				"eyelid_left": {
					"position": {
						"0.0": [0, 0, -0.1],
						"0.125": [0, 0, -0.1],
						"0.1667": [-0.1, 0, 0]
					}
				},
				"eyelid_right": {
					"position": {
						"0.0": [0, 0, -0.1],
						"0.125": [0, 0, -0.1],
						"0.1667": [0.1, 0, 0]
					}
				},
				"iris_right": {
					"position": {
						"0.0": [0, 0, 0.1],
						"0.125": [0, 0, 0.1],
						"0.1667": [0, 0, 0]
					}
				},
				"iris_left": {
					"position": {
						"0.0": [0, 0, 0.1],
						"0.125": [0, 0, 0.1],
						"0.1667": [0, 0, 0]
					}
				}
			}
		},
		"animation.froakie.faint": {
			"loop": true,
			"animation_length": 3,
			"bones": {
				"body": {
					"rotation": {
						"0.0": [10, 0, 0],
						"0.375": [22.5, 0, 0],
						"0.7083": [29.75, 0, 0],
						"0.9167": [29.82, 0, 0],
						"1.1667": [22.75, 0, 0],
						"1.4583": [12.675, 0, 0],
						"1.5833": [-4.3, 0, 0],
						"1.6667": [-36.455, 0, 0],
						"1.8333": [-112.5, 0, 0],
						"1.875": [-116.25, 0, 0],
						"1.9583": [-121.25, 0, 0],
						"2.0833": [-113.5, 0, 0]
					},
					"position": {
						"0.0": [0, -4, 0],
						"0.125": [0, -5.55, 0.2],
						"0.2917": [0, -6, 1],
						"0.4167": [0, -5.15, 2.75],
						"0.5417": [0, -1.75, 10],
						"0.6667": [0, -0.58, 11.98],
						"0.8333": [0, -1.02, 13.45],
						"0.9167": [0, -4.67, 13.84],
						"1.0": [0, -5.11, 14.06],
						"1.1667": [0, -4.5, 14.5],
						"1.5": [0, -3.5, 15.25],
						"1.7083": [0, -4.25, 16.75],
						"1.8333": [0, -8.5, 18.25],
						"1.875": [0, -10, 18.25],
						"1.9167": [0, -9.5, 18.25],
						"1.9583": [0, -8.5, 18.25]
					}
				},
				"torso": {
					"rotation": {
						"0.0": [17.5, 0, 0],
						"0.3333": [15.55, 0, 0],
						"0.4583": [33.5, 0, 0],
						"0.5833": [29.06, 0, 0],
						"0.6667": [19, 0, 0],
						"0.8333": [14, 0, 0]
					}
				},
				"chest": {
					"rotation": {
						"0.0": [10, 0, 0],
						"0.2083": [27.5, 0, 0],
						"0.4583": [28.93, 0, 0],
						"0.7917": [25, 0, 0],
						"1.2083": [0, 0, 0],
						"1.5417": [10, 0, 0],
						"1.75": [27.5, 0, 0],
						"1.875": [15, 0, 0],
						"2.0": [19, 0, 0],
						"2.1667": [20.175, 0, 0]
					}
				},
				"head": {
					"rotation": {
						"0.0": [-27.5, 0, 0],
						"0.25": [-52.5, 0, 0],
						"0.5833": [-62.5, 0, 0],
						"0.875": [-51.8, 0, 0],
						"1.0417": [-16.5, 0, 0],
						"1.1667": [-12, 0, 0],
						"1.3333": [-17, 0, 0],
						"1.5": [-18.79, -2, 0],
						"1.7083": [-7, -7, 0],
						"1.875": [5.67, -33, 0],
						"1.9583": [-2.5, -38, 0],
						"2.0833": [3.25, -44, 0],
						"2.1667": [8.75, -46, 0],
						"2.2917": [11.5, -46, 0]
					}
				},
				"eyelid_right": {
					"position": {
						"0.4583": [0, 0, -0.15],
						"0.5": [0, 0, 0.05],
						"0.9583": [0, 0, 0.05],
						"1.0": [0, 0, -0.15]
					}
				},
				"eyelid_left": {
					"position": {
						"0.4583": [0, 0, -0.125],
						"0.5": [0, 0, -0.03],
						"0.9583": [0, 0, -0.03],
						"1.0": [0, 0, -0.125]
					}
				},
				"arm_right": {
					"rotation": {
						"0.0": [78.30408, -64.53645, -79.41322],
						"0.125": [44.01545, -79.49903, -44.2586],
						"0.2083": [44.89078, -82.93343, -45.10922],
						"0.3333": [-44.63281, -79.45771, 46.42037],
						"0.4167": [-76.53361, -48.81866, 76.53361],
						"0.625": [-72.6503, -31.24775, 66.03623],
						"0.9167": [-26.50889, -73.44738, 12.73145],
						"1.0833": [47.99776, -56.71856, -64.39367],
						"1.2917": [52.86816, -49.40843, -69.04685],
						"1.5": [50.98575, -58.34315, -67.9346],
						"1.75": [-9.05347, -56.09393, -28.89319],
						"1.9167": [-5.0476, -3.9105, -36.08148],
						"2.0833": [-5.24892, -16.36049, -34.94427],
						"2.2083": [-5.322, -12.84987, -34.70268],
						"2.3333": [-5.06749, -6.40077, -35.86021]
					}
				},
				"arm_right2": {
					"rotation": {
						"0.0": [0, 0, 0],
						"0.0833": [0, -10, 15],
						"0.2083": [0, 0, 37.5],
						"0.2917": [0, 0, 30],
						"0.375": [0, 0, 12.5],
						"0.625": [0, 0, 10],
						"0.9167": [0, 0, 12.5],
						"1.0833": [0, 0, 30],
						"1.2083": [0, -7.5, 19.06],
						"1.5": [0, -20, 7.5],
						"1.8333": [0, -30, 7.5],
						"1.9167": [0, 0, 7.5],
						"2.0417": [0, -12.5, 7.5],
						"2.125": [0, -15, 7.5],
						"2.25": [0, 2.5, 7.5]
					}
				},
				"hand_right": {
					"rotation": {
						"0.0": [0, 0, 0],
						"0.2083": [0, 0, 15],
						"2.125": [0, 0, 15],
						"2.4167": [35, 0, 15]
					}
				},
				"finger_index_right": {
					"rotation": {
						"1.875": [0, 0, 0],
						"2.2083": [-1.88975, 6.7809, -38.71695]
					}
				},
				"finger_middle_right": {
					"rotation": {
						"1.875": [0, 0, 0],
						"2.2083": [0, 0, -20]
					}
				},
				"finger_ring_right": {
					"rotation": {
						"1.875": [0, 0, 0],
						"2.2083": [0, 0, -30]
					}
				},
				"arm_left": {
					"rotation": {
						"0.0": [78.30408, 64.53645, 79.41322],
						"0.125": [44.01545, 79.49903, 44.2586],
						"0.2083": [44.89078, 82.93343, 45.10922],
						"0.3333": [-44.63281, 79.45771, -46.42037],
						"0.4167": [-76.53361, 48.81866, -76.53361],
						"0.625": [-72.6503, 31.24775, -66.03623],
						"0.9167": [-26.50889, 73.44738, -12.73145],
						"1.0833": [47.99776, 56.71856, 64.39367],
						"1.2917": [52.86816, 49.40843, 69.04685],
						"1.5": [50.98575, 58.34315, 67.9346],
						"1.75": [-9.05347, 56.09393, 28.89319],
						"1.9167": [-5.0476, 3.9105, 36.08148],
						"2.0833": [-5.24892, 16.36049, 34.94427],
						"2.2083": [-5.322, 12.84987, 34.70268],
						"2.3333": [-5.06749, 6.40077, 35.86021]
					}
				},
				"arm_left2": {
					"rotation": {
						"0.0": [0, 0, 0],
						"0.0833": [0, 10, -15],
						"0.2083": [0, 0, -37.5],
						"0.2917": [0, 0, -30],
						"0.375": [0, 0, -12.5],
						"0.625": [0, 0, -10],
						"0.9167": [0, 0, -12.5],
						"1.0833": [0, 0, -30],
						"1.2083": [0, 7.5, -19.06],
						"1.5": [0, 20, -7.5],
						"1.8333": [0, 30, -7.5],
						"1.9167": [0, 0, -7.5],
						"2.0417": [0, 12.5, -7.5],
						"2.125": [0, 15, -7.5],
						"2.25": [0, -2.5, -7.5]
					}
				},
				"hand_left": {
					"rotation": {
						"0.0": [0, 0, 0],
						"0.2083": [0, 0, -15],
						"2.125": [0, 0, -15],
						"2.4167": [35, 0, -15]
					}
				},
				"finger_index_left": {
					"rotation": {
						"1.875": [0, 0, 0],
						"2.2083": [-1.88975, -6.7809, 38.71695]
					}
				},
				"finger_middle_left": {
					"rotation": {
						"1.875": [0, 0, 0],
						"2.2083": [0, 0, 20]
					}
				},
				"finger_ring_left": {
					"rotation": {
						"1.875": [0, 0, 0],
						"2.2083": [0, 0, 30]
					}
				},
				"back_bubbles": {
					"rotation": {
						"1.6667": [0, 0, 0],
						"1.9583": [50, 0, 0]
					}
				},
				"leg_right": {
					"rotation": {
						"0.0": [-112.79638, 42.38108, -8.28443],
						"0.125": [-147.7638, 30.41366, -7.86506],
						"0.25": [-157.73121, 18.44625, -7.44569],
						"0.3333": [-147.20146, 14.7005, -4.01831],
						"0.4583": [-93.90684, 9.08189, 1.12275],
						"0.5833": [-75.61222, 3.46327, 6.26382],
						"0.75": [-105.61222, 3.46327, 6.26382],
						"0.9583": [-83.61222, 3.46327, 6.26382],
						"1.0833": [-76.11222, 3.46327, 6.26382],
						"1.2083": [-77.77888, 3.46327, 6.26382],
						"1.4583": [-58.61222, 3.46327, 6.26382],
						"1.7917": [-43.61222, 3.46327, 6.26382],
						"1.875": [-48.61222, 3.46327, 6.26382],
						"1.9167": [-33.61222, 3.46327, 6.26382],
						"1.9583": [1.88778, 3.46327, 6.26382],
						"2.0417": [0.13778, 3.46327, 6.26382],
						"2.1667": [-20.61222, 3.46327, 6.26382],
						"2.2917": [-26.11222, 3.46327, 6.26382]
					}
				},
				"leg_right2": {
					"rotation": {
						"0.0": [100, 0, 0],
						"0.125": [116.25, 0, 0],
						"0.25": [122.5, 0, 0],
						"0.4583": [20.63, 0, 0],
						"0.5833": [7.5, 0, 0],
						"0.7083": [24.17, 0, 0],
						"0.875": [107, 0, 0],
						"1.0": [115, 0, 0],
						"1.125": [107.83, 0, 0],
						"1.4583": [100.5, 0, 0],
						"1.7083": [132, 0, 0],
						"1.875": [41.5, 0, 0],
						"1.9167": [34, 0, 0],
						"2.0": [63, 0, 0],
						"2.125": [58.5, 0, 0],
						"2.2083": [67.5, 0, 0],
						"2.2917": [77.5, 0, 0],
						"2.4583": [83, 0, 0]
					}
				},
				"foot_right": {
					"rotation": {
						"0.25": [20, 0, 0],
						"0.5833": [0, 0, 0],
						"0.875": [-7.5, 0, 0],
						"1.0": [-42.5, 0, 0],
						"1.25": [-39, 0, 0],
						"1.4583": [-31, 0, 0],
						"1.7083": [-13.5, 0, 0],
						"1.8333": [21.5, 0, 0],
						"1.9583": [46.5, 0, 0],
						"2.1667": [34, 0, 0],
						"2.3333": [47.5, 0, 0]
					}
				},
				"leg_left": {
					"rotation": {
						"0.0": [-112.79638, -42.38108, 8.28443],
						"0.125": [-147.7638, -30.41366, 7.86506],
						"0.25": [-157.73121, -18.44625, 7.44569],
						"0.3333": [-147.20146, -14.7005, 4.01831],
						"0.4583": [-93.90684, -9.08189, -1.12275],
						"0.5833": [-75.61222, -3.46327, -6.26382],
						"0.75": [-105.61222, -3.46327, -6.26382],
						"0.9583": [-83.61222, -3.46327, -6.26382],
						"1.0833": [-76.11222, -3.46327, -6.26382],
						"1.2083": [-77.77888, -3.46327, -6.26382],
						"1.4583": [-58.61222, -3.46327, -6.26382],
						"1.75": [-43.61222, -3.46327, -6.26382],
						"1.8333": [-48.61222, -3.46327, -6.26382],
						"1.875": [-33.61222, -3.46327, -6.26382],
						"1.9167": [1.88778, -3.46327, -6.26382],
						"2.0": [0.13778, -3.46327, -6.26382],
						"2.125": [-20.61222, -3.46327, -6.26382],
						"2.25": [-26.11222, -3.46327, -6.26382]
					}
				},
				"leg_left2": {
					"rotation": {
						"0.0": [100, 0, 0],
						"0.125": [116.25, 0, 0],
						"0.25": [122.5, 0, 0],
						"0.4583": [20.63, 0, 0],
						"0.5833": [7.5, 0, 0],
						"0.7083": [24.17, 0, 0],
						"0.875": [107, 0, 0],
						"1.0": [115, 0, 0],
						"1.125": [107.83, 0, 0],
						"1.4583": [100.5, 0, 0],
						"1.7083": [132, 0, 0],
						"1.875": [40.5, 0, 0],
						"1.9167": [33, 0, 0],
						"2.0": [62, 0, 0],
						"2.0833": [56.5, 0, 0],
						"2.1667": [65.5, 0, 0],
						"2.25": [75.5, 0, 0],
						"2.4167": [81, 0, 0]
					}
				},
				"foot_left": {
					"rotation": {
						"0.25": [20, 0, 0],
						"0.5833": [0, 0, 0],
						"0.875": [-7.5, 0, 0],
						"1.0": [-42.5, 0, 0],
						"1.25": [-39, 0, 0],
						"1.4583": [-31, 0, 0],
						"1.7083": [-13.5, 0, 0],
						"1.8333": [21.5, 0, 0],
						"1.9583": [46.5, 0, 0],
						"2.1667": [34, 0, 0],
						"2.3333": [47.5, 0, 0]
					}
				}
			}
		},
		"animation.froakie.sleep": {
			"loop": true,
			"bones": {
				"body": {
					"rotation": [-20, 0, 0],
					"position": [0, -6.75, 0]
				},
				"torso": {
					"rotation": ["30+Math.cos((query.anim_time) * 90 * 1) * 2", 0, 0]
				},
				"chest": {
					"rotation": [15, 0, 0]
				},
				"head": {
					"rotation": ["Math.cos((query.anim_time-0.3) * 90 * 1) * 4", 0, 0]
				},
				"eyelid_right": {
					"position": [0, 0, -0.2]
				},
				"eyelid_left": {
					"position": [0, 0, -0.125]
				},
				"arm_right": {
					"rotation": [84.59842, "-62.3954+Math.cos((query.anim_time) * 90 * 1) * -2", -85.2103]
				},
				"arm_right2": {
					"rotation": [0, 0, 22.5]
				},
				"wrist_right": {
					"rotation": [0, 0, 17.5]
				},
				"arm_left": {
					"rotation": [84.59842, "62.3954+Math.cos((query.anim_time) * 90 * 1) * 2", 85.2103]
				},
				"arm_left2": {
					"rotation": [0, 0, -20]
				},
				"wrist_left": {
					"rotation": [0, 0, -17.5]
				},
				"leg_right": {
					"rotation": [-131.83574, 27.83165, -2.25974]
				},
				"leg_right2": {
					"rotation": [105, 0, 0]
				},
				"leg_left": {
					"rotation": [-131.83574, -27.83165, 2.25974]
				},
				"leg_left2": {
					"rotation": [107.5, 0, 0]
				},
				"foot_left": {
					"rotation": [27.5, 0, 0]
				}
			}
		},
		"animation.froakie.cry": {
			"loop": true,
			"animation_length": 1.16667,
			"bones": {
				"head": {
					"rotation": {
						"0.0": [0, 0, 0],
						"0.2083": [-12.5, 0, 0],
						"0.4583": [-14, 0, 0],
						"0.7083": [-14.18, 0, 0],
						"0.9167": [-12.5, 0, 0],
						"1.1667": [0, 0, 0]
					}
				},
				"mouth_open": {
					"position": {
						"0.0": [0, 0, 0],
						"0.0417": [0, 0, -0.125],
						"1.0": [0, 0, -0.125],
						"1.0417": [0, 0, 0]
					}
				}
			}
		}
	}
}