{
	"format_version": "1.8.0",
	"animations": {
		"animation.meowth.ground_idle": {
			"loop": true,
			"bones": {
				"foot_right": {
					"rotation": [0, 12.5, 0]
				},
				"foot_left": {
					"rotation": [0, -12.5, 0]
				},
				"foot_left_end": {
					"rotation": [0, 0, 0]
				},
				"tail1": {
					"rotation": [-12.5, 0, 0]
				},
				"arm_right": {
					"rotation": [25, 0, -52.5]
				},
				"forearm_right": {
					"rotation": [0, -30, 0]
				},
				"arm_left": {
					"rotation": [25, 0, 52.5]
				},
				"forearm_left": {
					"rotation": [0, 30, 0]
				},
				"claw_front_right": {
					"rotation": [0, -10, 0]
				},
				"claw_middle_right2": {
					"rotation": [0, 10, 0]
				},
				"claw_front_left": {
					"rotation": [0, 10, 0]
				},
				"claw_middle_left2": {
					"rotation": [0, -10, 0]
				}
			}
		},
		"animation.meowth.sleep": {
			"loop": true,
			"bones": {
				"body": {
					"rotation": [82.52822, 0.65182, 4.95744],
					"position": [0, -5, 0]
				},
				"head": {
					"rotation": [-40.86286, 1.48678, -13.80191]
				},
				"eyelids": {
					"position": [0, 0, -0.1]
				},
				"ear_right": {
					"rotation": [-26.78651, -11.06084, -22.52508]
				},
				"head_whisker_right": {
					"rotation": [15, 0, 0]
				},
				"whisker_top_right": {
					"rotation": [0, -57.5, 0]
				},
				"whisker_bottom_right": {
					"rotation": [0, -52.5, 0]
				},
				"leg_right": {
					"rotation": [-9.85108, 47.59191, 14.00194]
				},
				"foot_right": {
					"rotation": [57.98181, 30.03502, 15.40729]
				},
				"leg_left": {
					"rotation": [-7.5, 12.5, 0]
				},
				"foot_left": {
					"rotation": [85.04221, 16.00293, 23.69721]
				},
				"tail1": {
					"rotation": [-82.48127, -5.10466, 9.08112]
				},
				"eyelid_right": {
					"position": [0, 0, -0.1]
				},
				"eyelid_left": {
					"position": [0, 0, -0.1]
				}
			}
		},
		"animation.meowth.blink": {
			"animation_length": 0.1667,
			"bones": {
				"eyelid_right": {
					"position": {
						"0.0": [0, 0, -0.1],
						"0.125": [0, 0, -0.1],
						"0.1667": [0, 0, 0]
					}
				},
				"eyelid_left": {
					"position": {
						"0.0": [0, 0, -0.1],
						"0.125": [0, 0, -0.1],
						"0.1667": [0, 0, 0]
					}
				}
			}
		},
		"animation.meowth.render": {
			"loop": true,
			"bones": {
				"body": {
					"rotation": [0, 3, 0]
				},
				"head": {
					"rotation": [0, 6, 0]
				},
				"leg_right": {
					"rotation": [0, 0, 22.5]
				},
				"foot_right_end": {
					"rotation": [7.5, 0, 0]
				},
				"leg_left": {
					"rotation": [0, 0, 1]
				},
				"foot_left": {
					"rotation": [0, -2, 0]
				},
				"foot_left_end": {
					"rotation": [4, 0, 0]
				},
				"tail1": {
					"rotation": [-9, 40, 0]
				}
			}
		},
		"animation.meowth.cry": {
			"animation_length": 1.5,
			"bones": {
				"mouth": {
					"position": {
						"0.0": [0, 0, 0],
						"0.25": [0, -2, 0],
						"1.25": [0, -2, 0],
						"1.5": [0, 0, 0]
					}
				},
				"mouth2": {
					"position": {
						"0.0": [0, 0, 0],
						"0.25": [0, -5, 0],
						"1.25": [0, -5, 0],
						"1.5": [0, 0, 0]
					}
				},
				"jaw": {
					"position": {
						"0.0": [0, 0, 0],
						"0.25": [0, -3, 0],
						"1.25": [0, -3, 0],
						"1.5": [0, 0, 0]
					}
				},
				"head2": {
					"rotation": {
						"0.0": [0, 0, 0],
						"0.25": [-15, 0, 0],
						"1.25": [-15, 0, 0],
						"1.5": [0, 0, 0]
					}
				},
				"mouth_closed2": {
					"position": {
						"0.25": [0, 0, -0.1],
						"0.3333": [0, 0, 0],
						"1.1667": [0, 0, 0],
						"1.25": [0, 0, -0.1]
					}
				},
				"mouth_open2": {
					"position": {
						"0.0": [0, 0, 0.1],
						"0.25": [0, 0, 0],
						"1.25": [0, 0, 0],
						"1.5": [0, 0, 0.1]
					}
				},
				"head3": {
					"rotation": {
						"0.0": [0, 0, 0],
						"0.25": [-15, 0, 0],
						"1.25": [-15, 0, 0],
						"1.5": [0, 0, 0]
					}
				},
				"mouth_closed3": {
					"position": {
						"0.25": [0, 0, -0.1],
						"0.3333": [0, 0, 0],
						"1.1667": [0, 0, 0],
						"1.25": [0, 0, -0.1]
					}
				},
				"mouth_open3": {
					"position": {
						"0.0": [0, 0, 0.1],
						"0.25": [0, 0, 0],
						"1.25": [0, 0, 0],
						"1.5": [0, 0, 0.1]
					}
				},
				"neck": {
					"rotation": {
						"0.0": [0, 0, 0],
						"0.25": [10, 0, 0],
						"1.25": [10, 0, 0],
						"1.5": [0, 0, 0]
					}
				},
				"mouth_hair": {
					"rotation": {
						"0.0": [0, 0, 0],
						"0.25": [30, 0, 0],
						"1.25": [30, 0, 0],
						"1.5": [0, 0, 0]
					}
				},
				"mouth_open": {
					"position": {
						"0.0": [0, 0, 0],
						"0.25": {"pre": [0, 0, 0], "post": [0, 0, -0.1]},
						"1.25": {"pre": [0, 0, -0.1], "post": [0, 0, 0]}
					}
				},
				"body": {
					"rotation": [0, 0, 0]
				},
				"head": {
					"rotation": {
						"0.0": [0, 0, 0],
						"0.25": [-7.5, 0, 0],
						"1.25": [-7.5, 0, 0],
						"1.5": [0, 0, 0]
					}
				},
				"mouth_closed": {
					"position": {
						"0.1667": [0, 0, 0],
						"0.25": {"pre": [0, 0, 0], "post": [0, 0, 0.1]},
						"1.25": {"pre": [0, 0, 0.1], "post": [0, 0, 0]}
					}
				},
				"mouth_opened": {
					"position": {
						"0.0": [0, 0, 0],
						"0.25": {"pre": [0, 0, 0], "post": [0, 0, -0.1]},
						"1.25": {"pre": [0, 0, -0.1], "post": [0, 0, 0]}
					}
				}
			}
		}
	}
}