{
	"format_version": "1.8.0",
	"animations": {
		"animation.gurdurr.ground_idle": {
			"loop": true,
			"bones": {
				"chest": {
					"rotation": [0, 0, 0]
				},
				"shoulder_left": {
					"rotation": [0, 0, 2.5]
				},
				"arm_left": {
					"rotation": [17.5, 0, 0]
				},
				"arm_left_rotation": {
					"rotation": [0, 0, 40]
				},
				"arm_left2": {
					"rotation": [0, 20, 0]
				},
				"wrist_left": {
					"rotation": [1.57266, 17.26356, 17.90427]
				},
				"hand_left": {
					"rotation": [0, 0, 15]
				},
				"finger_back_left": {
					"rotation": [-3.81397, -11.91276, 17.89807]
				},
				"leg_left": {
					"rotation": [0, 0, -15]
				},
				"foot_left": {
					"rotation": [0, -25, 15]
				},
				"leg_right": {
					"rotation": [0, 0, 15]
				},
				"foot_right": {
					"rotation": [0, 25, -15]
				},
				"finger_back_left2": {
					"rotation": [0, 0, 42.5]
				},
				"finger_middle_left": {
					"rotation": [0, 0, 17.5]
				},
				"finger_middle_left2": {
					"rotation": [0, 0, 57.5]
				},
				"thumb_left": {
					"rotation": [0, 0, 22.5]
				},
				"thumb_left2": {
					"rotation": [0, 0, 70]
				},
				"construction_beam": {
					"rotation": [2.5, 0, -60],
					"position": [2, 0.5, 0]
				},
				"shoulder_right": {
					"rotation": [0, 0, 7.5]
				},
				"arm_right": {
					"rotation": [-167.5, 0, 0]
				},
				"arm_right_rotation": {
					"rotation": [0, 0, -40]
				},
				"arm_right2": {
					"rotation": [0, 0, -27.5]
				},
				"wrist_right": {
					"rotation": [0, 0, -7.5]
				},
				"hand_right": {
					"rotation": [0, 0, -30]
				},
				"finger_back_right": {
					"rotation": [-8.95891, 15.09492, -31.18939]
				},
				"finger_back_right2": {
					"rotation": [0, 0, -37.5]
				},
				"finger_middle_right": {
					"rotation": [0, 0, -32.5]
				},
				"finger_middle_right2": {
					"rotation": [0, 0, -40]
				},
				"thumb_right": {
					"rotation": [0, 0, -17.5]
				},
				"thumb_right2": {
					"rotation": [0, 0, -35]
				}
			}
		},
		"animation.gurdurr.blink": {
			"animation_length": 0.16667
		}
	}
}