{
	"credit": "Made with Blockbench",
	"texture_size": [64, 16],
	"textures": {
		"1": "egg"
	},
	"elements": [
		{
			"name": "egg1",
			"from": [5.5, 0, 5.5],
			"to": [10.5, 1, 10.5],
			"faces": {
				"north": {"uv": [12.25, 15, 13.5, 16], "texture": "#1"},
				"east": {"uv": [11, 15, 12.25, 16], "texture": "#1"},
				"south": {"uv": [14.75, 15, 16, 16], "texture": "#1"},
				"west": {"uv": [13.5, 15, 14.75, 16], "texture": "#1"},
				"up": {"uv": [13.5, 15, 12.25, 10], "texture": "#1"},
				"down": {"uv": [14.75, 10, 13.5, 15], "texture": "#1"}
			}
		},
		{
			"name": "egg2",
			"from": [5, 0.75, 5],
			"to": [11, 1.75, 11],
			"faces": {
				"north": {"uv": [11.5, 6, 13, 7], "texture": "#1"},
				"east": {"uv": [10, 6, 11.5, 7], "texture": "#1"},
				"south": {"uv": [14.5, 6, 16, 7], "texture": "#1"},
				"west": {"uv": [13, 6, 14.5, 7], "texture": "#1"},
				"up": {"uv": [13, 6, 11.5, 0], "texture": "#1"},
				"down": {"uv": [14.5, 0, 13, 6], "texture": "#1"}
			}
		},
		{
			"name": "egg3",
			"from": [4.5, 1.75, 4.5],
			"to": [11.5, 5.75, 11.5],
			"faces": {
				"north": {"uv": [1.75, 7, 3.5, 11], "texture": "#1"},
				"east": {"uv": [0, 7, 1.75, 11], "texture": "#1"},
				"south": {"uv": [5.25, 7, 7, 11], "texture": "#1"},
				"west": {"uv": [3.5, 7, 5.25, 11], "texture": "#1"},
				"up": {"uv": [3.5, 7, 1.75, 0], "texture": "#1"},
				"down": {"uv": [5.25, 0, 3.5, 7], "texture": "#1"}
			}
		},
		{
			"name": "egg4",
			"from": [5, 5.25, 5],
			"to": [11, 7.25, 11],
			"faces": {
				"north": {"uv": [7.25, 13, 8.75, 15], "texture": "#1"},
				"east": {"uv": [5.75, 13, 7.25, 15], "texture": "#1"},
				"south": {"uv": [10.25, 13, 11.75, 15], "texture": "#1"},
				"west": {"uv": [8.75, 13, 10.25, 15], "texture": "#1"},
				"up": {"uv": [8.75, 13, 7.25, 7], "texture": "#1"},
				"down": {"uv": [10.25, 7, 8.75, 13], "texture": "#1"}
			}
		},
		{
			"name": "egg5",
			"from": [5.5, 7.25, 5.5],
			"to": [10.5, 8.25, 10.5],
			"faces": {
				"north": {"uv": [6.5, 5, 7.75, 6], "texture": "#1"},
				"east": {"uv": [5.25, 5, 6.5, 6], "texture": "#1"},
				"south": {"uv": [9, 5, 10.25, 6], "texture": "#1"},
				"west": {"uv": [7.75, 5, 9, 6], "texture": "#1"},
				"up": {"uv": [7.75, 5, 6.5, 0], "texture": "#1"},
				"down": {"uv": [9, 0, 7.75, 5], "texture": "#1"}
			}
		},
		{
			"name": "egg6",
			"from": [6.5, 8, 6.5],
			"to": [9.5, 9, 9.5],
			"faces": {
				"north": {"uv": [3.25, 15, 4, 16], "texture": "#1"},
				"east": {"uv": [2.5, 15, 3.25, 16], "texture": "#1"},
				"south": {"uv": [4.75, 15, 5.5, 16], "texture": "#1"},
				"west": {"uv": [4, 15, 4.75, 16], "texture": "#1"},
				"up": {"uv": [4, 15, 3.25, 12], "texture": "#1"},
				"down": {"uv": [4.75, 12, 4, 15], "texture": "#1"}
			}
		}
	],
	"groups": [
		{
			"name": "egg",
			"origin": [0, 0, 0],
			"color": 0,
			"children": [0, 1, 2, 3, 4, 5]
		}
	]
}