{
	"format_version": "1.8.0",
	"animations": {
		"pose": {
			"loop": true,
			"bones": {
				"arm": {
					"rotation": [35.22465, -36.81662, -5.43393]
				},
				"arm2": {
					"rotation": [22.5, 0, 0]
				},
				"arm3": {
					"rotation": [35, 0, 0]
				},
				"arm4": {
					"rotation": [32.5, 0, 0]
				},
				"arm5": {
					"rotation": [35, 0, 0]
				},
				"hand": {
					"rotation": [-20, 0, 0]
				},
				"finger4": {
					"rotation": [57.5, 0, 0]
				},
				"finger5": {
					"rotation": [52.5, 0, 0]
				},
				"finger6": {
					"rotation": [62.5, 0, 0]
				},
				"finger": {
					"rotation": [87.5, 0, -7.5]
				},
				"finger2": {
					"rotation": [65, 0, 0]
				},
				"finger3": {
					"rotation": [32.5, 0, 0]
				},
				"finger7": {
					"rotation": [80, 0, 5]
				},
				"finger8": {
					"rotation": [75, 0, 0]
				},
				"finger9": {
					"rotation": [32.5, 0, 0]
				},
				"finger10": {
					"rotation": [87.5, 0, 17.5]
				},
				"finger11": {
					"rotation": [82.5, 0, 0]
				},
				"finger12": {
					"rotation": [7.5, 0, 0]
				},
				"sheath": {
					"rotation": [-180, 0, 90]
				},
				"sheath_arm": {
					"rotation": [35.22465, -36.81662, -5.43393]
				},
				"sheath_arm2": {
					"rotation": [22.5, 0, 0]
				},
				"sheath_arm3": {
					"rotation": [35, 0, 0]
				},
				"sheath_arm4": {
					"rotation": [32.5, 0, 0]
				},
				"sheath_arm5": {
					"rotation": [35, 0, 0]
				},
				"sheath_arm6": {
					"rotation": [-20, 0, 0]
				}
			}
		}
	}
}