{
	"format_version": "1.8.0",
	"animations": {
		"animation.corviknight.ground_idle": {
			"loop": true,
			"bones": {
				"hairstrand": {
					"rotation": [7.5, 0, 12.5]
				},
				"hairstrand2": {
					"rotation": [-17.5, 0, 0]
				},
				"head": {
					"rotation": ["(-5+math.cos(q.anim_time*90*variable.idlespeed/2)*1/2+ math.cos(q.anim_time*90*variable.idlespeed/2-30)*1)", 0, 0],
					"position": [0, "0-math.cos(q.anim_time*90*variable.idlespeed/2)*0.1", "-2-math.cos(q.anim_time*90*variable.idlespeed/2)*0.5"]
				},
				"beard": {
					"rotation": ["(-2.5+math.cos(q.anim_time*90*variable.idlespeed/2-90)*1/2+ math.cos(q.anim_time*90*variable.idlespeed/2-30-90)*1)", 0, 0]
				},
				"scruff": {
					"rotation": ["(25-math.cos(q.anim_time*90*variable.idlespeed/2-120)*1)", 0, 0]
				},
				"beard2": {
					"rotation": ["(12.5+math.cos(q.anim_time*90*variable.idlespeed/2-90-30)*1/2+ math.cos(q.anim_time*90*variable.idlespeed/2-30-90-30)*2/2)", 0, 0]
				},
				"scruff2": {
					"rotation": ["(25-math.cos(q.anim_time*90*variable.idlespeed/2-150)*1)", 0, 0]
				},
				"beard3": {
					"rotation": ["(5+math.cos(q.anim_time*90*variable.idlespeed/2-90-60)*2+ math.cos(q.anim_time*90*variable.idlespeed/2-30-90-60)*4)", 0, 0]
				},
				"tail": {
					"rotation": ["(45+math.cos(q.anim_time*90*variable.idlespeed/2-30)*4)", "(math.sin(q.anim_time*90*variable.walkspeed/4-30)*4)", 0]
				},
				"wing_right": {
					"rotation": [146.61575, 48.01894, 67.82319],
					"position": ["-((1.25))", "(-9-math.cos(q.anim_time*90*variable.idlespeed/2-30)*1/8)", "(-1+math.cos(q.anim_time*90*variable.idlespeed/2-30)*2/8)"]
				},
				"wing_right2": {
					"rotation": [0, -45, 0]
				},
				"wing_right3": {
					"rotation": [0, 30, 0]
				},
				"armor_right": {
					"rotation": [-35.94136, -59.69255, 39.55058],
					"position": ["(-2+math.cos(q.anim_time*90*variable.idlespeed/2)*0.2)", 1, 7]
				},
				"armor_right2": {
					"rotation": [0, 0, 32.5]
				},
				"scruff_left2": {
					"rotation": [0, 0, "(45+math.cos(q.anim_time*90*variable.idlespeed/2-150)*5)"]
				},
				"scruff_right2": {
					"rotation": [0, 0, "-((45+math.cos(q.anim_time*90*variable.idlespeed/2-150)*5))"]
				},
				"scruff_right": {
					"rotation": [0, 57.5, -20]
				},
				"leg_left": {
					"position": [0, 0, 0]
				},
				"wing_left": {
					"rotation": [146.61575, -48.01894, -67.82319],
					"position": ["(1.25)", "(-9-math.cos(q.anim_time*90*variable.idlespeed/2-30)*1/8)", "(-1+math.cos(q.anim_time*90*variable.idlespeed/2-30)*2/8)"]
				},
				"wing_left2": {
					"rotation": [0, 45, 0]
				},
				"wing_left3": {
					"rotation": [0, -30, 0]
				},
				"armor_left": {
					"rotation": [-35.94136, 59.69255, -39.55058],
					"position": ["-((-2+math.cos(q.anim_time*90*variable.idlespeed/2)*0.2))", 1, 7]
				},
				"armor_left2": {
					"rotation": [0, 0, -32.5]
				},
				"scruff_left": {
					"rotation": [0, -57.5, 20]
				},
				"wing_closed_left2": {
					"rotation": ["(-2+math.cos(q.anim_time*90*variable.idlespeed-30)*1)", 45, "(1+math.cos(q.anim_time*90*variable.idlespeed-30)*1)"]
				},
				"wing_closed_left3": {
					"rotation": [1, "(-40.5+math.cos(q.anim_time*90*variable.idlespeed-60)*1)", 0]
				},
				"torso": {
					"rotation": ["(1-math.cos(q.anim_time*90*variable.idlespeed/2)*1/2)", 0, 0]
				},
				"chestplate": {
					"position": [0, "(1-math.cos(q.anim_time*90*variable.idlespeed/2)*1/8)", "(1+math.cos(q.anim_time*90*variable.idlespeed/2)*2/8)"]
				},
				"neck": {
					"rotation": ["(1-math.cos(q.anim_time*90*variable.idlespeed/2-30)*1)", 0, 0]
				},
				"wing_closed_right2": {
					"rotation": ["(-2+math.cos(q.anim_time*90*variable.idlespeed-30)*1)", -45, "-((1+math.cos(q.anim_time*90*variable.idlespeed-30)*1))"]
				},
				"wing_closed_right3": {
					"rotation": [1, "-((-40.5+math.cos(q.anim_time*90*variable.idlespeed-60)*1))", 0]
				},
				"tail_left": {
					"rotation": ["(1/2+math.cos(q.anim_time*90*variable.idlespeed-60)*1)", 0, 0]
				},
				"tail_right": {
					"rotation": ["(1/2+math.cos(q.anim_time*90*variable.idlespeed-60)*1)", 0, 0]
				},
				"tail_middle": {
					"rotation": ["(1+math.cos(q.anim_time*90*variable.idlespeed-30)*1.2)", 0, 0]
				},
				"tail_left2": {
					"rotation": ["(1/4+math.cos(q.anim_time*90*variable.idlespeed-90)*0.6)", 0, 0]
				},
				"tail_right2": {
					"rotation": ["(1/4+math.cos(q.anim_time*90*variable.idlespeed-90)*0.6)", 0, 0]
				}
			}
		},
		"animation.corviknight.ground_walk": {
			"loop": true,
			"animation_length": 2,
			"bones": {
				"hairstrand": {
					"rotation": [7.5, 0, 12.5]
				},
				"hairstrand2": {
					"rotation": [-17.5, 0, 0]
				},
				"head": {
					"rotation": [
						"(-5-(math.cos(q.anim_time*90*variable.walkspeed*2-30-30))-(math.cos(q.anim_time*90*variable.walkspeed*2-20-30)*10-math.clamp(math.cos(q.anim_time*90*variable.walkspeed*2-20-20-30),-1,0)*8))/3",
						0,
						0
					]
				},
				"beard": {
					"rotation": ["-7+math.clamp(math.cos(q.anim_time*90*variable.walkspeed*2+15+0)*2,-2,0.5)", 0, 0]
				},
				"scruff": {
					"rotation": [25, 0, 0]
				},
				"beard2": {
					"rotation": [
						"-6+(-6+math.clamp(math.cos(q.anim_time*90*variable.walkspeed*2+15+0)*5,-5,0)+math.cos(q.anim_time*90*variable.walkspeed*2+45-90)*10)/3",
						0,
						0
					],
					"position": {
						"0.0": [0, "-1+math.cos(q.anim_time*90*variable.walkspeed*2+60)/4", 0],
						"0.375": [0, "-1+math.cos(q.anim_time*90*variable.walkspeed*2+60)/3", 0],
						"0.4583": [0, "-0.5+math.cos(q.anim_time*90*variable.walkspeed*2+60)/2+math.cos(q.anim_time*90*variable.walkspeed*10-40)/2", 0],
						"0.8333": [0, "-1+math.cos(q.anim_time*90*variable.walkspeed*2+60)/4+math.cos(q.anim_time*90*variable.walkspeed*2+40)/8", 0],
						"1.0": [0, "-1+math.cos(q.anim_time*90*variable.walkspeed*2+60)/4", 0],
						"1.375": [0, "-1+math.cos(q.anim_time*90*variable.walkspeed*2+60)/3", 0],
						"1.4583": [0, "-0.5+math.cos(q.anim_time*90*variable.walkspeed*2+60)/2+math.cos(q.anim_time*90*variable.walkspeed*10-40)/2", 0],
						"1.8333": [0, "-1+math.cos(q.anim_time*90*variable.walkspeed*2+60)/4+math.cos(q.anim_time*90*variable.walkspeed*2+40)/8", 0],
						"2.0": [0, "-1+math.cos(q.anim_time*90*variable.walkspeed*2+60)/4", 0]
					}
				},
				"scruff2": {
					"rotation": [27.5, 0, 0]
				},
				"beard3": {
					"rotation": {
						"0.0": ["5+math.cos(q.anim_time*90*variable.walkspeed*2+15+0-90)*20", 0, 0],
						"0.375": ["5+math.cos(q.anim_time*90*variable.walkspeed*2+15+0-90)*20", 0, 0],
						"0.4583": ["10+math.cos(q.anim_time*90*variable.walkspeed*2+15+0-90)*20-(math.cos(q.anim_time*90*variable.walkspeed*10+15+90)*20)/2", 0, 0],
						"1.0": ["5+math.cos(q.anim_time*90*variable.walkspeed*2+15+0-90)*20-(math.cos(q.anim_time*90*variable.walkspeed*2+15+0-90)*20)/5", 0, 0],
						"1.0417": ["5+math.cos(q.anim_time*90*variable.walkspeed*2+15+0-90)*20", 0, 0],
						"1.375": ["5+math.cos(q.anim_time*90*variable.walkspeed*2+15+0-90)*20", 0, 0],
						"1.4583": ["10+math.cos(q.anim_time*90*variable.walkspeed*2+15+0-90)*20-(math.cos(q.anim_time*90*variable.walkspeed*10+15+90)*20)/2", 0, 0],
						"1.9583": ["5+math.cos(q.anim_time*90*variable.walkspeed*2+15+0-90)*20-(math.cos(q.anim_time*90*variable.walkspeed*2+15+0-90)*20)/5", 0, 0],
						"2.0": ["5+math.cos(q.anim_time*90*variable.walkspeed*2+15+0-90)*20", 0, 0]
					}
				},
				"tail": {
					"rotation": [
						"20-math.cos(q.anim_time*90*variable.walkspeed*2+60)*10",
						"math.cos(q.anim_time*90*variable.walkspeed-30)*4",
						"-math.cos(q.anim_time*90*variable.walkspeed+90)*5"
					]
				},
				"wing_right": {
					"rotation": ["(144+math.cos(q.anim_time*90*variable.walkspeed*2-30)*1)", 48.01894, 67.82319],
					"position": {
						"0.0": [-1.25, -9, -1],
						"0.2917": [-1.25, -9, -1],
						"0.5": [
							-1.25,
							"(-9+math.cos(q.anim_time*90*variable.walkspeed*2+60)/2 +math.cos(q.anim_time*90*variable.walkspeed*10-40)/8)",
							"(-1-math.cos(q.anim_time*90*variable.walkspeed*2+60)/2 -math.cos(q.anim_time*90*variable.walkspeed*10-40)/8)"
						],
						"0.875": [-1.25, -9, -1],
						"0.9583": [-1.25, -9, -1],
						"1.25": [-1.25, -9, -1],
						"1.4583": [
							-1.25,
							"(-9+math.cos(q.anim_time*90*variable.walkspeed*2+60)/2 +math.cos(q.anim_time*90*variable.walkspeed*10-40)/2)",
							"(-1-math.cos(q.anim_time*90*variable.walkspeed*2+60)/2 -math.cos(q.anim_time*90*variable.walkspeed*10-40)/2)"
						],
						"1.875": [-1.25, -9, -1],
						"1.9583": [-1.25, -9, -1]
					}
				},
				"wing_right2": {
					"rotation": ["(-2+math.cos(q.anim_time*90*variable.walkspeed*2-30)*2)", -45, "-((1+math.cos(q.anim_time*90*variable.walkspeed*2-30)*2))"]
				},
				"wing_right3": {
					"rotation": {
						"0.0": [0, "-((-40.5+math.cos(q.anim_time*90*variable.walkspeed*2+15+30-90)*4))", 0],
						"0.375": [0, "-(-40.5+math.cos(q.anim_time*90*variable.walkspeed*2+15+30-90)*4)", 0],
						"0.4583": [0, "-(-40.5+math.cos(q.anim_time*90*variable.walkspeed*2+15+30-90)*2-(math.cos(q.anim_time*90*variable.walkspeed*10+15+90)*2)/2)", 0],
						"0.9583": [0, "-((-40.5+math.cos(q.anim_time*90*variable.walkspeed*2+15+30-90)*4-(math.cos(q.anim_time*90*variable.walkspeed*2+15+30-90)*2)/5))", 0],
						"1.0": [0, "-((-40.5+math.cos(q.anim_time*90*variable.walkspeed*2+15+30-90)*4))", 0],
						"1.375": [0, "-(-40.5+math.cos(q.anim_time*90*variable.walkspeed*2+15+30-90)*4)", 0],
						"1.4583": [0, "-(-40.5+math.cos(q.anim_time*90*variable.walkspeed*2+15+30-90)*2-(math.cos(q.anim_time*90*variable.walkspeed*10+15+90)*2)/2)", 0],
						"1.9583": [0, "-((-40.5+math.cos(q.anim_time*90*variable.walkspeed*2+15+30-90)*4-(math.cos(q.anim_time*90*variable.walkspeed*2+15+30-90)*2)/5))", 0],
						"2.0": [0, "-((-40.5+math.cos(q.anim_time*90*variable.walkspeed*2+15+30-90)*4))", 0]
					}
				},
				"armor_right": {
					"rotation": [-35.94136, -59.69255, 39.55058],
					"position": [-2, 1, 7]
				},
				"armor_right2": {
					"rotation": [0, 0, 32.5]
				},
				"scruff_left2": {
					"rotation": [0, -22.5, 22.5]
				},
				"scruff_right2": {
					"rotation": [0, 22.5, -22.5]
				},
				"scruff_right": {
					"rotation": [0, 57.5, -20]
				},
				"leg_left": {
					"rotation": [
						"-0.2886+(-30+math.sin(q.anim_time*90*variable.walkspeed+40+180)*15+math.clamp(math.sin(q.anim_time*90*variable.walkspeed+180),0,1)*15)/2",
						"-3.8332+math.cos(q.anim_time*90*variable.walkspeed+40-90+180)*5",
						3.22393
					],
					"position": [
						0,
						"0.5+(math.clamp(math.sin(q.anim_time*90*variable.walkspeed+60+180),-0.5,1)+math.clamp(math.sin(q.anim_time*90*variable.walkspeed-90+180),0,1)*4)",
						"(math.cos(q.anim_time*90*variable.walkspeed-60+180)*2)"
					]
				},
				"wing_left": {
					"rotation": ["(144+math.cos(q.anim_time*90*variable.walkspeed*2-30)*1)", -48.01894, -67.82319],
					"position": {
						"0.0": [1.25, -9, -1],
						"0.2917": [1.25, -9, -1],
						"0.5": [
							1.25,
							"(-9+math.cos(q.anim_time*90*variable.walkspeed*2+60)/2 +math.cos(q.anim_time*90*variable.walkspeed*10-40)/2)",
							"(-1-math.cos(q.anim_time*90*variable.walkspeed*2+60)/2 -math.cos(q.anim_time*90*variable.walkspeed*10-40)/2)"
						],
						"0.875": [1.25, -9, -1],
						"0.9583": [1.25, -9, -1],
						"1.25": [1.25, -9, -1],
						"1.4583": [
							1.25,
							"(-9+math.cos(q.anim_time*90*variable.walkspeed*2+60)/2 +math.cos(q.anim_time*90*variable.walkspeed*10-40)/8)",
							"(-1-math.cos(q.anim_time*90*variable.walkspeed*2+60)/2 -math.cos(q.anim_time*90*variable.walkspeed*10-40)/8)"
						],
						"1.875": [1.25, -9, -1],
						"1.9583": [1.25, -9, -1]
					}
				},
				"wing_left2": {
					"rotation": ["(-2+math.cos(q.anim_time*90*variable.walkspeed*2-30)*2)", 45, "(1+math.cos(q.anim_time*90*variable.walkspeed*2-30)*2)"]
				},
				"wing_left3": {
					"rotation": {
						"0.0": [0, "(-40.5+math.cos(q.anim_time*90*variable.walkspeed*2+15+30-90)*4)", 0],
						"0.375": [0, "(-40.5+math.cos(q.anim_time*90*variable.walkspeed*2+15+30-90)*4)", 0],
						"0.4583": [0, "(-40.5+math.cos(q.anim_time*90*variable.walkspeed*2+15+30-90)*2-(math.cos(q.anim_time*90*variable.walkspeed*10+15+90)*2)/2)", 0],
						"0.9583": [0, "(-40.5+math.cos(q.anim_time*90*variable.walkspeed*2+15+30-90)*4-(math.cos(q.anim_time*90*variable.walkspeed*2+15+30-90)*2)/5)", 0],
						"1.0": [0, "(-40.5+math.cos(q.anim_time*90*variable.walkspeed*2+15+30-90)*4)", 0],
						"1.375": [0, "(-40.5+math.cos(q.anim_time*90*variable.walkspeed*2+15+30-90)*4)", 0],
						"1.4583": [0, "(-40.5+math.cos(q.anim_time*90*variable.walkspeed*2+15+30-90)*2-(math.cos(q.anim_time*90*variable.walkspeed*10+15+90)*2)/2)", 0],
						"1.9583": [0, "(-40.5+math.cos(q.anim_time*90*variable.walkspeed*2+15+30-90)*4-(math.cos(q.anim_time*90*variable.walkspeed*2+15+30-90)*2)/5)", 0],
						"2.0": [0, "(-40.5+math.cos(q.anim_time*90*variable.walkspeed*2+15+30-90)*4)", 0]
					}
				},
				"armor_left": {
					"rotation": [-35.94136, 59.69255, -39.55058],
					"position": [2, 1, 7]
				},
				"armor_left2": {
					"rotation": [0, 0, -32.5]
				},
				"scruff_left": {
					"rotation": [0, -57.5, 20]
				},
				"body": {
					"position": {
						"0.0": [0, 2, "1+math.cos(q.anim_time*90*variable.walkspeed*2+120)*1"],
						"0.3333": [0, 2, "1+math.cos(q.anim_time*90*variable.walkspeed*2+120)*1"],
						"0.375": [0, 2, "1+math.cos(q.anim_time*90*variable.walkspeed*2+120)*1"],
						"0.4583": [0, 3.2, "1+math.cos(q.anim_time*90*variable.walkspeed*2+120)*1"],
						"0.5": [0, 3.7, "1+math.cos(q.anim_time*90*variable.walkspeed*2+120)*1"],
						"0.5833": [0, 3.15, "1+math.cos(q.anim_time*90*variable.walkspeed*2+120)*2"],
						"0.6667": [0, 2.4, "2+math.cos(q.anim_time*90*variable.walkspeed*2+120)*2"],
						"1.3333": [0, 2, "1+math.cos(q.anim_time*90*variable.walkspeed*2+120)*1"],
						"1.375": [0, 2, "1+math.cos(q.anim_time*90*variable.walkspeed*2+120)*1"],
						"1.4583": [0, 3.2, "1+math.cos(q.anim_time*90*variable.walkspeed*2+120)*1"],
						"1.5": [0, 3.7, "1+math.cos(q.anim_time*90*variable.walkspeed*2+120)*1"],
						"1.5833": [0, 3.15, "1+math.cos(q.anim_time*90*variable.walkspeed*2+120)*2"],
						"1.6667": [0, 2.4, "2+math.cos(q.anim_time*90*variable.walkspeed*2+120)*2"]
					}
				},
				"torso": {
					"rotation": ["7.5+3*math.cos(q.anim_time*90*variable.walkspeed*2-30)", "2*math.cos(q.anim_time*90*variable.walkspeed*1-80)", 0],
					"position": {
						"0.0": [0, "math.cos(q.anim_time*90*variable.walkspeed*2+60)", 0],
						"0.4167": [0, "math.cos(q.anim_time*90*variable.walkspeed*2+60)", 0],
						"0.4583": [0, "0.5+math.cos(q.anim_time*90*variable.walkspeed*2+60) +math.cos(q.anim_time*90*variable.walkspeed*10-40)", 0],
						"0.75": [0, "math.cos(q.anim_time*90*variable.walkspeed*2+60)+math.cos(q.anim_time*90*variable.walkspeed*2+40)/4", 0],
						"0.9167": [0, "math.cos(q.anim_time*90*variable.walkspeed*2+60)", 0],
						"1.4167": [0, "math.cos(q.anim_time*90*variable.walkspeed*2+60)", 0],
						"1.4583": [0, "0.5+math.cos(q.anim_time*90*variable.walkspeed*2+60) +math.cos(q.anim_time*90*variable.walkspeed*10-40)", 0],
						"1.75": [0, "math.cos(q.anim_time*90*variable.walkspeed*2+60)+math.cos(q.anim_time*90*variable.walkspeed*2+40)/4", 0],
						"1.9167": [0, "math.cos(q.anim_time*90*variable.walkspeed*2+60)", 0]
					}
				},
				"leg_right": {
					"rotation": [
						"0.052+(-30+math.sin(q.anim_time*90*variable.walkspeed+40+0)*15+math.clamp(math.sin(q.anim_time*90*variable.walkspeed+0),0,1)*15)/2",
						"3.4592-math.cos(q.anim_time*90*variable.walkspeed+40-90+0)*5",
						-2.00962
					],
					"position": [
						0,
						"0.5+(math.clamp(math.sin(q.anim_time*90*variable.walkspeed+60+0),-0.5,1)+math.clamp(math.sin(q.anim_time*90*variable.walkspeed-90+0),0,1)*4)",
						"(math.cos(q.anim_time*90*variable.walkspeed-60+0)*2)"
					]
				},
				"leg_right2": {
					"rotation": [
						"(10+math.sin(q.anim_time*90*variable.walkspeed*2-90-180+60+180)*5-math.sin(q.anim_time*90*variable.walkspeed-180+90+0)*30-math.sin(q.anim_time*90*variable.walkspeed-90-180+90+0)*10+math.clamp(math.sin(q.anim_time*90*variable.walkspeed*2+30+90+180),0,1)*20)",
						"-(math.clamp(math.cos(q.anim_time*90*variable.walkspeed-20+0),-1,0)+math.cos(q.anim_time*90*variable.walkspeed-20+0)/2)*10",
						0
					]
				},
				"foot_right": {
					"rotation": {
						"0.0": {
							"post": [-21.5, 0, 0],
							"lerp_mode": "catmullrom"
						},
						"0.1667": {
							"post": [-2.37, 0, 0],
							"lerp_mode": "catmullrom"
						},
						"0.5": {
							"post": [-21.5, 0, 0],
							"lerp_mode": "catmullrom"
						},
						"0.7083": {
							"post": [9.47, 0, 0],
							"lerp_mode": "catmullrom"
						},
						"1.0": {
							"post": [18.11, -11.53, -6.88],
							"lerp_mode": "catmullrom"
						},
						"1.0833": {
							"post": [18.70304, -12.90851, -7.70583],
							"lerp_mode": "catmullrom"
						},
						"1.375": {
							"post": [12.5, 0, 0],
							"lerp_mode": "catmullrom"
						},
						"1.5417": {
							"post": [0.67, 0, 0],
							"lerp_mode": "catmullrom"
						},
						"1.625": {
							"post": [6, 0, 0],
							"lerp_mode": "catmullrom"
						},
						"1.7083": {
							"post": [-1.5, 0, 0],
							"lerp_mode": "catmullrom"
						},
						"1.7917": {
							"post": [-11.5, 0, 0],
							"lerp_mode": "catmullrom"
						},
						"1.9167": [-21.5, 0, 0]
					},
					"position": [0, "math.clamp(math.cos(q.anim_time*90*variable.walkspeed-130),0,1)", 0]
				},
				"leg_left2": {
					"rotation": [
						"(10+math.sin(q.anim_time*90*variable.walkspeed*2-90-180+60+180)*5-math.sin(q.anim_time*90*variable.walkspeed-180+90+180)*30-math.sin(q.anim_time*90*variable.walkspeed-90-180+90+180)*10+math.clamp(math.sin(q.anim_time*90*variable.walkspeed*2+30+90+180),0,1)*20)",
						"(math.clamp(math.cos(q.anim_time*90*variable.walkspeed-20+180),-1,0)+math.cos(q.anim_time*90*variable.walkspeed-20+180)/2)*10",
						0
					]
				},
				"foot_left": {
					"rotation": {
						"0.0": {
							"post": [18.11, 11.53, 6.88],
							"lerp_mode": "catmullrom"
						},
						"0.0833": {
							"post": [18.70304, 12.90851, 7.70583],
							"lerp_mode": "catmullrom"
						},
						"0.375": {
							"post": [12.5, 0, 0],
							"lerp_mode": "catmullrom"
						},
						"0.5417": {
							"post": [0.67, 0, 0],
							"lerp_mode": "catmullrom"
						},
						"0.625": {
							"post": [6, 0, 0],
							"lerp_mode": "catmullrom"
						},
						"0.7083": {
							"post": [-1.5, 0, 0],
							"lerp_mode": "catmullrom"
						},
						"0.7917": {
							"post": [-11.5, 0, 0],
							"lerp_mode": "catmullrom"
						},
						"0.9167": {
							"post": [-21.5, 0, 0],
							"lerp_mode": "catmullrom"
						},
						"1.0": {
							"post": [-21.5, 0, 0],
							"lerp_mode": "catmullrom"
						},
						"1.1667": {
							"post": [-2.37, 0, 0],
							"lerp_mode": "catmullrom"
						},
						"1.5": {
							"post": [-21.5, 0, 0],
							"lerp_mode": "catmullrom"
						},
						"1.7083": {
							"post": [9.47, 0, 0],
							"lerp_mode": "catmullrom"
						},
						"2.0": {
							"post": [18.11, 11.53, 6.88],
							"lerp_mode": "catmullrom"
						}
					},
					"position": [0, "math.clamp(math.cos(q.anim_time*90*variable.walkspeed-130+180),0,1)", 0]
				},
				"chestplate": {
					"rotation": ["-12+math.cos(q.anim_time*90*variable.walkspeed*2-30)*3", 0, 0]
				},
				"neck": {
					"rotation": ["(4+math.cos(q.anim_time*90*variable.walkspeed*2-30)*10-math.clamp(math.cos(q.anim_time*90*variable.walkspeed*2-20-30),-1,0 )*4)/3", 0, 0],
					"position": [0, -1, -0.5]
				},
				"tail_left": {
					"rotation": {
						"0.0": [
							"3-math.cos(q.anim_time*90*variable.walkspeed*2+60-80)*2-math.cos(q.anim_time*90*variable.walkspeed-40)*1",
							"1-math.cos(q.anim_time*90*variable.walkspeed-40-180)*1",
							0
						],
						"0.375": [
							"3-math.cos(q.anim_time*90*variable.walkspeed*2+60-80)*2-math.cos(q.anim_time*90*variable.walkspeed-40)*1",
							"1-math.cos(q.anim_time*90*variable.walkspeed-40-180)*1",
							0
						],
						"0.4583": [
							"7-math.cos(q.anim_time*90*variable.walkspeed*2+60-80)*2-math.cos(q.anim_time*90*variable.walkspeed-40)*1+(math.cos(q.anim_time*90*variable.walkspeed*10.75+15+90)*20)/5",
							"1-math.cos(q.anim_time*90*variable.walkspeed-40-180)*1",
							0
						],
						"1.0": [
							"3-math.cos(q.anim_time*90*variable.walkspeed*2+60-80)*2-math.cos(q.anim_time*90*variable.walkspeed-40)*1+(math.cos(q.anim_time*90*variable.walkspeed*2+15+0-90)*20)/20",
							"1-math.cos(q.anim_time*90*variable.walkspeed-40-180)*1",
							0
						],
						"1.0417": [
							"3-math.cos(q.anim_time*90*variable.walkspeed*2+60-80)*2-math.cos(q.anim_time*90*variable.walkspeed-40)*1",
							"1-math.cos(q.anim_time*90*variable.walkspeed-40-180)*1",
							0
						],
						"1.375": [
							"3-math.cos(q.anim_time*90*variable.walkspeed*2+60-80)*2-math.cos(q.anim_time*90*variable.walkspeed-40)*1",
							"1-math.cos(q.anim_time*90*variable.walkspeed-40-180)*1",
							0
						],
						"1.4583": [
							"7-math.cos(q.anim_time*90*variable.walkspeed*2+60-80)*2-math.cos(q.anim_time*90*variable.walkspeed-40)*1+(math.cos(q.anim_time*90*variable.walkspeed*10.75+15+90)*20)/5",
							"1-math.cos(q.anim_time*90*variable.walkspeed-40-180)*1",
							0
						],
						"1.9583": [
							"3-math.cos(q.anim_time*90*variable.walkspeed*2+60-80)*2-math.cos(q.anim_time*90*variable.walkspeed-40)*1+(math.cos(q.anim_time*90*variable.walkspeed*2+15+0-90)*20)/20",
							"1-math.cos(q.anim_time*90*variable.walkspeed-40-180)*1",
							0
						],
						"2.0": [
							"3-math.cos(q.anim_time*90*variable.walkspeed*2+60-80)*2-math.cos(q.anim_time*90*variable.walkspeed-40)*1",
							"1-math.cos(q.anim_time*90*variable.walkspeed-40-180)*1",
							0
						]
					}
				},
				"tail_right": {
					"rotation": {
						"0.0": [
							"3-math.cos(q.anim_time*90*variable.walkspeed*2+60-80)*2+math.cos(q.anim_time*90*variable.walkspeed-40)*1",
							"-1-math.cos(q.anim_time*90*variable.walkspeed-40-180)*1",
							0
						],
						"0.375": [
							"3-math.cos(q.anim_time*90*variable.walkspeed*2+60-80)*2+math.cos(q.anim_time*90*variable.walkspeed-40)*1",
							"-1-math.cos(q.anim_time*90*variable.walkspeed-40-180)*1",
							0
						],
						"0.4583": [
							"7-math.cos(q.anim_time*90*variable.walkspeed*2+60-80)*2+math.cos(q.anim_time*90*variable.walkspeed-40)*1+(math.cos(q.anim_time*90*variable.walkspeed*10.75+15+90)*20)/5",
							"-1-math.cos(q.anim_time*90*variable.walkspeed-40-180)*1",
							0
						],
						"1.0": [
							"3-math.cos(q.anim_time*90*variable.walkspeed*2+60-80)*2+math.cos(q.anim_time*90*variable.walkspeed-40)*1+(math.cos(q.anim_time*90*variable.walkspeed*2+15+0-90)*20)/20",
							"-1-math.cos(q.anim_time*90*variable.walkspeed-40-180)*1",
							0
						],
						"1.0417": [
							"3-math.cos(q.anim_time*90*variable.walkspeed*2+60-80)*2+math.cos(q.anim_time*90*variable.walkspeed-40)*1",
							"-1-math.cos(q.anim_time*90*variable.walkspeed-40-180)*1",
							0
						],
						"1.375": [
							"3-math.cos(q.anim_time*90*variable.walkspeed*2+60-80)*2+math.cos(q.anim_time*90*variable.walkspeed-40)*1",
							"-1-math.cos(q.anim_time*90*variable.walkspeed-40-180)*1",
							0
						],
						"1.4583": [
							"7-math.cos(q.anim_time*90*variable.walkspeed*2+60-80)*2+math.cos(q.anim_time*90*variable.walkspeed-40)*1+(math.cos(q.anim_time*90*variable.walkspeed*10.75+15+90)*20)/5",
							"-1-math.cos(q.anim_time*90*variable.walkspeed-40-180)*1",
							0
						],
						"1.9583": [
							"3-math.cos(q.anim_time*90*variable.walkspeed*2+60-80)*2+math.cos(q.anim_time*90*variable.walkspeed-40)*1+(math.cos(q.anim_time*90*variable.walkspeed*2+15+0-90)*20)/20",
							"-1-math.cos(q.anim_time*90*variable.walkspeed-40-180)*1",
							0
						],
						"2.0": [
							"3-math.cos(q.anim_time*90*variable.walkspeed*2+60-80)*2+math.cos(q.anim_time*90*variable.walkspeed-40)*1",
							"-1-math.cos(q.anim_time*90*variable.walkspeed-40-180)*1",
							0
						]
					}
				},
				"tail_middle": {
					"rotation": {
						"0.0": ["5-math.cos(q.anim_time*90*variable.walkspeed*2+60-90)*3", 0, 0],
						"0.375": ["5-math.cos(q.anim_time*90*variable.walkspeed*2+60-90)*3", "-1-math.cos(q.anim_time*90*variable.walkspeed-40-180)*1", 0],
						"0.4583": [
							"11-math.cos(q.anim_time*90*variable.walkspeed*2+60-90)*3+(math.cos(q.anim_time*90*variable.walkspeed*10+15+90)*20)/5",
							"-1-math.cos(q.anim_time*90*variable.walkspeed-40-180)*1",
							0
						],
						"1.0": [
							"5-math.cos(q.anim_time*90*variable.walkspeed*2+60-90)*3+(math.cos(q.anim_time*90*variable.walkspeed*2+15+0-90)*20)/20",
							"-1-math.cos(q.anim_time*90*variable.walkspeed-40-180)*1",
							0
						],
						"1.0417": ["5-math.cos(q.anim_time*90*variable.walkspeed*2+60-90)*3", "-1-math.cos(q.anim_time*90*variable.walkspeed-40-180)*1", 0],
						"1.375": ["5-math.cos(q.anim_time*90*variable.walkspeed*2+60-90)*3", "-1-math.cos(q.anim_time*90*variable.walkspeed-40-180)*1", 0],
						"1.4583": [
							"11-math.cos(q.anim_time*90*variable.walkspeed*2+60-90)*3+(math.cos(q.anim_time*90*variable.walkspeed*10+15+90)*20)/5",
							"-1-math.cos(q.anim_time*90*variable.walkspeed-40-180)*1",
							0
						],
						"1.9583": [
							"5-math.cos(q.anim_time*90*variable.walkspeed*2+60-90)*3+(math.cos(q.anim_time*90*variable.walkspeed*2+15+0-90)*20)/20",
							"-1-math.cos(q.anim_time*90*variable.walkspeed-40-180)*1",
							0
						],
						"2.0": ["5-math.cos(q.anim_time*90*variable.walkspeed*2+60-90)*3", "-1-math.cos(q.anim_time*90*variable.walkspeed-40-180)*1", 0]
					}
				},
				"tail_left2": {
					"rotation": {
						"0.0": [
							"1-math.cos(q.anim_time*90*variable.walkspeed*2+60-70)*1-math.cos(q.anim_time*90*variable.walkspeed-50)*2",
							"2-math.cos(q.anim_time*90*variable.walkspeed-50-180)*2",
							0
						],
						"0.375": [
							"1-math.cos(q.anim_time*90*variable.walkspeed*2+60-70)*1-math.cos(q.anim_time*90*variable.walkspeed-50)*2",
							"2-math.cos(q.anim_time*90*variable.walkspeed-50-180)*2",
							0
						],
						"0.4583": [
							"3-math.cos(q.anim_time*90*variable.walkspeed*2+60-70)*1-math.cos(q.anim_time*90*variable.walkspeed-50)*2+(math.cos(q.anim_time*90*variable.walkspeed*10.5+15+90)*20)/5",
							"2-math.cos(q.anim_time*90*variable.walkspeed-50-180)*2",
							0
						],
						"1.0": [
							"1-math.cos(q.anim_time*90*variable.walkspeed*2+60-70)*1-math.cos(q.anim_time*90*variable.walkspeed-50)*2+(math.cos(q.anim_time*90*variable.walkspeed*2+15+0-90)*20)/20",
							"2-math.cos(q.anim_time*90*variable.walkspeed-50-180)*2",
							0
						],
						"1.0417": [
							"1-math.cos(q.anim_time*90*variable.walkspeed*2+60-70)*1-math.cos(q.anim_time*90*variable.walkspeed-50)*2",
							"2-math.cos(q.anim_time*90*variable.walkspeed-50-180)*2",
							0
						],
						"1.375": [
							"1-math.cos(q.anim_time*90*variable.walkspeed*2+60-70)*1-math.cos(q.anim_time*90*variable.walkspeed-50)*2",
							"2-math.cos(q.anim_time*90*variable.walkspeed-50-180)*2",
							0
						],
						"1.4583": [
							"3-math.cos(q.anim_time*90*variable.walkspeed*2+60-70)*1-math.cos(q.anim_time*90*variable.walkspeed-50)*2+(math.cos(q.anim_time*90*variable.walkspeed*10.5+15+90)*20)/5",
							"2-math.cos(q.anim_time*90*variable.walkspeed-50-180)*2",
							0
						],
						"1.9583": [
							"1-math.cos(q.anim_time*90*variable.walkspeed*2+60-70)*1-math.cos(q.anim_time*90*variable.walkspeed-50)*2+(math.cos(q.anim_time*90*variable.walkspeed*2+15+0-90)*20)/20",
							"2-math.cos(q.anim_time*90*variable.walkspeed-50-180)*2",
							0
						],
						"2.0": [
							"1-math.cos(q.anim_time*90*variable.walkspeed*2+60-70)*1-math.cos(q.anim_time*90*variable.walkspeed-50)*2",
							"2-math.cos(q.anim_time*90*variable.walkspeed-50-180)*2",
							0
						]
					}
				},
				"tail_right2": {
					"rotation": {
						"0.0": [
							"1-math.cos(q.anim_time*90*variable.walkspeed*2+60-70)*1+math.cos(q.anim_time*90*variable.walkspeed-50)*2",
							"-2-math.cos(q.anim_time*90*variable.walkspeed-50-180)*2",
							0
						],
						"0.375": [
							"1-math.cos(q.anim_time*90*variable.walkspeed*2+60-70)*1+math.cos(q.anim_time*90*variable.walkspeed-50)*2",
							"-2-math.cos(q.anim_time*90*variable.walkspeed-50-180)*2",
							0
						],
						"0.4583": [
							"3-math.cos(q.anim_time*90*variable.walkspeed*2+60-70)*1+math.cos(q.anim_time*90*variable.walkspeed-50)*2+(math.cos(q.anim_time*90*variable.walkspeed*10.4+15+90)*20)/5",
							"-2-math.cos(q.anim_time*90*variable.walkspeed-50-180)*2",
							0
						],
						"1.0": [
							"1-math.cos(q.anim_time*90*variable.walkspeed*2+60-70)*1+math.cos(q.anim_time*90*variable.walkspeed-50)*2+(math.cos(q.anim_time*90*variable.walkspeed*2+15+0-90)*20)/20",
							"-2-math.cos(q.anim_time*90*variable.walkspeed-50-180)*2",
							0
						],
						"1.0417": [
							"1-math.cos(q.anim_time*90*variable.walkspeed*2+60-70)*1+math.cos(q.anim_time*90*variable.walkspeed-50)*2",
							"-2-math.cos(q.anim_time*90*variable.walkspeed-50-180)*2",
							0
						],
						"1.375": [
							"1-math.cos(q.anim_time*90*variable.walkspeed*2+60-70)*1+math.cos(q.anim_time*90*variable.walkspeed-50)*2",
							"-2-math.cos(q.anim_time*90*variable.walkspeed-50-180)*2",
							0
						],
						"1.4583": [
							"3-math.cos(q.anim_time*90*variable.walkspeed*2+60-70)*1+math.cos(q.anim_time*90*variable.walkspeed-50)*2+(math.cos(q.anim_time*90*variable.walkspeed*10.5+15+90)*20)/5",
							"-2-math.cos(q.anim_time*90*variable.walkspeed-50-180)*2",
							0
						],
						"1.9583": [
							"1-math.cos(q.anim_time*90*variable.walkspeed*2+60-70)*1+math.cos(q.anim_time*90*variable.walkspeed-50)*2+(math.cos(q.anim_time*90*variable.walkspeed*2+15+0-90)*20)/20",
							"-2-math.cos(q.anim_time*90*variable.walkspeed-50-180)*2",
							0
						],
						"2.0": [
							"1-math.cos(q.anim_time*90*variable.walkspeed*2+60-70)*1+math.cos(q.anim_time*90*variable.walkspeed-50)*2",
							"-2-math.cos(q.anim_time*90*variable.walkspeed-50-180)*2",
							0
						]
					}
				},
				"hair_middle": {
					"rotation": {
						"0.0": ["1+math.cos(q.anim_time*90*variable.walkspeed*2+15+30-90)*4", 0, 0],
						"0.375": ["1+math.cos(q.anim_time*90*variable.walkspeed*2+15+30-90)*4", 0, 0],
						"0.4583": ["6+math.cos(q.anim_time*90*variable.walkspeed*2+15+30-90)*4-(math.cos(q.anim_time*90*variable.walkspeed*10+15+90)*4)/2", 0, 0],
						"1.0": ["1+math.cos(q.anim_time*90*variable.walkspeed*2+15+30-90)*4-(math.cos(q.anim_time*90*variable.walkspeed*2+15+30-90)*4)/5", 0, 0],
						"1.0417": ["1+math.cos(q.anim_time*90*variable.walkspeed*2+15+30-90)*4", 0, 0],
						"1.375": ["1+math.cos(q.anim_time*90*variable.walkspeed*2+15+30-90)*4", 0, 0],
						"1.4583": ["6+math.cos(q.anim_time*90*variable.walkspeed*2+15+30-90)*4-(math.cos(q.anim_time*90*variable.walkspeed*10+15+90)*4)/2", 0, 0],
						"1.9583": ["1+math.cos(q.anim_time*90*variable.walkspeed*2+15+30-90)*4-(math.cos(q.anim_time*90*variable.walkspeed*2+15+30-90)*4)/5", 0, 0],
						"2.0": ["1+math.cos(q.anim_time*90*variable.walkspeed*2+15+30-90)*4", 0, 0]
					}
				},
				"hair_left": {
					"rotation": {
						"0.0": ["math.cos(q.anim_time*90*variable.walkspeed*2+15+30-90)*2", 0, 0],
						"0.375": ["math.cos(q.anim_time*90*variable.walkspeed*2+15+30-90)*2", 0, 0],
						"0.4583": ["5+math.cos(q.anim_time*90*variable.walkspeed*2+15+30-90)*2-(math.cos(q.anim_time*90*variable.walkspeed*10+15+90)*2)/2", 0, 0],
						"1.0": ["math.cos(q.anim_time*90*variable.walkspeed*2+15+30-90)*2-(math.cos(q.anim_time*90*variable.walkspeed*2+15+30-90)*2)/5", 0, 0],
						"1.0417": ["math.cos(q.anim_time*90*variable.walkspeed*2+15+30-90)*2", 0, 0],
						"1.375": ["math.cos(q.anim_time*90*variable.walkspeed*2+15+30-90)*2", 0, 0],
						"1.4583": ["5+math.cos(q.anim_time*90*variable.walkspeed*2+15+30-90)*2-(math.cos(q.anim_time*90*variable.walkspeed*10+15+90)*2)/2", 0, 0],
						"1.9583": ["math.cos(q.anim_time*90*variable.walkspeed*2+15+30-90)*2-(math.cos(q.anim_time*90*variable.walkspeed*2+15+30-90)*2)/5", 0, 0],
						"2.0": ["math.cos(q.anim_time*90*variable.walkspeed*2+15+30-90)*2", 0, 0]
					}
				},
				"hair_right": {
					"rotation": {
						"0.0": ["math.cos(q.anim_time*90*variable.walkspeed*2+15+30-90)*2", 0, 0],
						"0.375": ["math.cos(q.anim_time*90*variable.walkspeed*2+15+30-90)*2", 0, 0],
						"0.4583": ["5+math.cos(q.anim_time*90*variable.walkspeed*2+15+30-90)*2-(math.cos(q.anim_time*90*variable.walkspeed*10+15+90)*2)/2", 0, 0],
						"1.0": ["math.cos(q.anim_time*90*variable.walkspeed*2+15+30-90)*2-(math.cos(q.anim_time*90*variable.walkspeed*2+15+30-90)*2)/5", 0, 0],
						"1.0417": ["math.cos(q.anim_time*90*variable.walkspeed*2+15+30-90)*2", 0, 0],
						"1.375": ["math.cos(q.anim_time*90*variable.walkspeed*2+15+30-90)*2", 0, 0],
						"1.4583": ["5+math.cos(q.anim_time*90*variable.walkspeed*2+15+30-90)*2-(math.cos(q.anim_time*90*variable.walkspeed*10+15+90)*2)/2", 0, 0],
						"1.9583": ["math.cos(q.anim_time*90*variable.walkspeed*2+15+30-90)*2-(math.cos(q.anim_time*90*variable.walkspeed*2+15+30-90)*2)/5", 0, 0],
						"2.0": ["math.cos(q.anim_time*90*variable.walkspeed*2+15+30-90)*2", 0, 0]
					}
				},
				"toe_right4": {
					"rotation": [
						"(math.clamp((math.clamp(math.cos(q.anim_time*90*variable.walkspeed),-1,0)*20)+(math.clamp(math.cos(q.anim_time*90*variable.walkspeed+90),-1,0)*20), -20, 0))+(math.clamp(math.cos(q.anim_time*90*variable.walkspeed+90),-1,0)*20)",
						0,
						0
					]
				},
				"claw_right4": {
					"rotation": [
						"(math.clamp((math.clamp(math.cos(q.anim_time*90*variable.walkspeed+15),-1,0)*50)-(math.clamp(math.cos(q.anim_time*90*variable.walkspeed+90),-1,0)*20), -40, 0))",
						0,
						0
					]
				},
				"toe_right3": {
					"rotation": {
						"0.0": [
							0,
							"(-math.clamp((math.clamp(math.cos(q.anim_time*90*variable.walkspeed-50),-1,0)*50)+(math.clamp(math.cos(q.anim_time*90*variable.walkspeed+30),-1,0)*30)-(math.clamp(math.cos(q.anim_time*90*variable.walkspeed+30),-1,0)*20), -30, 0)*0.75)",
							"(-math.clamp((math.clamp(math.cos(q.anim_time*90*variable.walkspeed-50),-1,0)*50)+(math.clamp(math.cos(q.anim_time*90*variable.walkspeed+30),-1,0)*30)-(math.clamp(math.cos(q.anim_time*90*variable.walkspeed+30),-1,0)*20), -30, 0)*0.25)"
						],
						"0.2083": [
							"-22.5+(-math.clamp((math.clamp(math.cos(q.anim_time*90*variable.walkspeed+20),-1,0)*40)-(math.clamp(math.cos(q.anim_time*90*variable.walkspeed+190),-1,0)*20), -30, 0))",
							"0+(-math.clamp((math.clamp(math.cos(q.anim_time*90*variable.walkspeed-50),-1,0)*50)+(math.clamp(math.cos(q.anim_time*90*variable.walkspeed+30),-1,0)*30)-(math.clamp(math.cos(q.anim_time*90*variable.walkspeed+30),-1,0)*20), -30, 0)*0.75)",
							"0+(-math.clamp((math.clamp(math.cos(q.anim_time*90*variable.walkspeed-50),-1,0)*50)+(math.clamp(math.cos(q.anim_time*90*variable.walkspeed+30),-1,0)*30)-(math.clamp(math.cos(q.anim_time*90*variable.walkspeed+30),-1,0)*20), -30, 0)*0.25)"
						],
						"0.4167": [
							"(-math.clamp((math.clamp(math.cos(q.anim_time*90*variable.walkspeed+20),-1,0)*40)-(math.clamp(math.cos(q.anim_time*90*variable.walkspeed+190),-1,0)*20), -30, 0))",
							"(-math.clamp((math.clamp(math.cos(q.anim_time*90*variable.walkspeed-50),-1,0)*50)+(math.clamp(math.cos(q.anim_time*90*variable.walkspeed+30),-1,0)*30)-(math.clamp(math.cos(q.anim_time*90*variable.walkspeed+30),-1,0)*20), -30, 0)*0.75)",
							"(-math.clamp((math.clamp(math.cos(q.anim_time*90*variable.walkspeed-50),-1,0)*50)+(math.clamp(math.cos(q.anim_time*90*variable.walkspeed+30),-1,0)*30)-(math.clamp(math.cos(q.anim_time*90*variable.walkspeed+30),-1,0)*20), -30, 0)*0.25)"
						]
					}
				},
				"claw_right3": {
					"rotation": [
						"(-math.clamp((math.clamp(math.cos(q.anim_time*90*variable.walkspeed+15),-1,0)*30)-(math.clamp(math.cos(q.anim_time*90*variable.walkspeed+10),-1,0)*20), -40, 0))",
						0,
						0
					]
				},
				"toe_right2": {
					"rotation": {
						"0.0": [
							"(-math.clamp((math.clamp(math.cos(q.anim_time*90*variable.walkspeed+20),-1,0)*40)-(math.clamp(math.cos(q.anim_time*90*variable.walkspeed+190),-1,0)*20), -30, 0))",
							0,
							0
						],
						"0.2083": [
							"-22.5+(-math.clamp((math.clamp(math.cos(q.anim_time*90*variable.walkspeed+20),-1,0)*40)-(math.clamp(math.cos(q.anim_time*90*variable.walkspeed+190),-1,0)*20), -30, 0))",
							0,
							0
						],
						"0.4167": [
							"(-math.clamp((math.clamp(math.cos(q.anim_time*90*variable.walkspeed+20),-1,0)*40)-(math.clamp(math.cos(q.anim_time*90*variable.walkspeed+190),-1,0)*20), -30, 0))",
							0,
							0
						]
					}
				},
				"claw_right2": {
					"rotation": [
						"(-math.clamp((math.clamp(math.cos(q.anim_time*90*variable.walkspeed+25),-1,0)*30)-(math.clamp(math.cos(q.anim_time*90*variable.walkspeed+100),-1,0)*20), -40, 0))",
						0,
						0
					]
				},
				"toe_right": {
					"rotation": {
						"0.0": [
							"(-math.clamp((math.clamp(math.cos(q.anim_time*90*variable.walkspeed+20),-1,0)*40)-(math.clamp(math.cos(q.anim_time*90*variable.walkspeed+190),-1,0)*20), -30, 0))",
							"(math.clamp((math.clamp(math.cos(q.anim_time*90*variable.walkspeed-50),-1,0)*50)+(math.clamp(math.cos(q.anim_time*90*variable.walkspeed+30),-1,0)*30)-(math.clamp(math.cos(q.anim_time*90*variable.walkspeed+30),-1,0)*20), -30, 0)*0.75)",
							"(math.clamp((math.clamp(math.cos(q.anim_time*90*variable.walkspeed-50),-1,0)*50)+(math.clamp(math.cos(q.anim_time*90*variable.walkspeed+30),-1,0)*30)-(math.clamp(math.cos(q.anim_time*90*variable.walkspeed+30),-1,0)*20), -30, 0)*0.25)"
						],
						"0.2083": [
							"-22.5+(-math.clamp((math.clamp(math.cos(q.anim_time*90*variable.walkspeed+20),-1,0)*40)-(math.clamp(math.cos(q.anim_time*90*variable.walkspeed+190),-1,0)*20), -30, 0))",
							"0+(math.clamp((math.clamp(math.cos(q.anim_time*90*variable.walkspeed-50),-1,0)*50)+(math.clamp(math.cos(q.anim_time*90*variable.walkspeed+30),-1,0)*30)-(math.clamp(math.cos(q.anim_time*90*variable.walkspeed+30),-1,0)*20), -30, 0)*0.75)",
							"0+(math.clamp((math.clamp(math.cos(q.anim_time*90*variable.walkspeed-50),-1,0)*50)+(math.clamp(math.cos(q.anim_time*90*variable.walkspeed+30),-1,0)*30)-(math.clamp(math.cos(q.anim_time*90*variable.walkspeed+30),-1,0)*20), -30, 0)*0.25)"
						],
						"0.4167": [
							"(-math.clamp((math.clamp(math.cos(q.anim_time*90*variable.walkspeed+20),-1,0)*40)-(math.clamp(math.cos(q.anim_time*90*variable.walkspeed+190),-1,0)*20), -30, 0))",
							"(math.clamp((math.clamp(math.cos(q.anim_time*90*variable.walkspeed-50),-1,0)*50)+(math.clamp(math.cos(q.anim_time*90*variable.walkspeed+30),-1,0)*30)-(math.clamp(math.cos(q.anim_time*90*variable.walkspeed+30),-1,0)*20), -30, 0)*0.75)",
							"(math.clamp((math.clamp(math.cos(q.anim_time*90*variable.walkspeed-50),-1,0)*50)+(math.clamp(math.cos(q.anim_time*90*variable.walkspeed+30),-1,0)*30)-(math.clamp(math.cos(q.anim_time*90*variable.walkspeed+30),-1,0)*20), -30, 0)*0.25)"
						]
					}
				},
				"claw_right": {
					"rotation": [
						"(-math.clamp((math.clamp(math.cos(q.anim_time*90*variable.walkspeed+15),-1,0)*30)-(math.clamp(math.cos(q.anim_time*90*variable.walkspeed+10),-1,0)*20), -40, 0))",
						0,
						0
					]
				},
				"toe_left4": {
					"rotation": [
						"(math.clamp((math.clamp(math.cos(q.anim_time*90*variable.walkspeed+180),-1,0)*20)+(math.clamp(math.cos(q.anim_time*90*variable.walkspeed+90+180),-1,0)*20), -20, 0))+(math.clamp(math.cos(q.anim_time*90*variable.walkspeed+90+180),-1,0)*20)",
						0,
						0
					]
				},
				"claw_left4": {
					"rotation": [
						"(math.clamp((math.clamp(math.cos(q.anim_time*90*variable.walkspeed+15+180),-1,0)*50)-(math.clamp(math.cos(q.anim_time*90*variable.walkspeed+90+180),-1,0)*20), -40, 0))",
						0,
						0
					]
				},
				"toe_left3": {
					"rotation": {
						"1.0": [
							"(-math.clamp((math.clamp(math.cos(q.anim_time*90*variable.walkspeed+20+180),-1,0)*40)-(math.clamp(math.cos(q.anim_time*90*variable.walkspeed+190+180),-1,0)*20), -30, 0))",
							"-((-math.clamp((math.clamp(math.cos(q.anim_time*90*variable.walkspeed-50+180),-1,0)*50)+(math.clamp(math.cos(q.anim_time*90*variable.walkspeed+30+180),-1,0)*30)-(math.clamp(math.cos(q.anim_time*90*variable.walkspeed+30+180),-1,0)*20), -30, 0)*0.75))",
							"-((-math.clamp((math.clamp(math.cos(q.anim_time*90*variable.walkspeed-50+180),-1,0)*50)+(math.clamp(math.cos(q.anim_time*90*variable.walkspeed+30+180),-1,0)*30)-(math.clamp(math.cos(q.anim_time*90*variable.walkspeed+30+180),-1,0)*20), -30, 0)*0.25))"
						],
						"1.2083": [
							"-22.5+(-math.clamp((math.clamp(math.cos(q.anim_time*90*variable.walkspeed+20+180),-1,0)*40)-(math.clamp(math.cos(q.anim_time*90*variable.walkspeed+190+180),-1,0)*20), -30, 0))",
							"0+(-math.clamp((math.clamp(math.cos(q.anim_time*90*variable.walkspeed-50+180),-1,0)*50)+(math.clamp(math.cos(q.anim_time*90*variable.walkspeed+30+180),-1,0)*30)-(math.clamp(math.cos(q.anim_time*90*variable.walkspeed+30+180),-1,0)*20), -30, 0)*0.75)",
							"0+(-math.clamp((math.clamp(math.cos(q.anim_time*90*variable.walkspeed-50+180),-1,0)*50)+(math.clamp(math.cos(q.anim_time*90*variable.walkspeed+30+180),-1,0)*30)-(math.clamp(math.cos(q.anim_time*90*variable.walkspeed+30+180),-1,0)*20), -30, 0)*0.25)"
						],
						"1.4167": [
							"(-math.clamp((math.clamp(math.cos(q.anim_time*90*variable.walkspeed+20+180),-1,0)*40)-(math.clamp(math.cos(q.anim_time*90*variable.walkspeed+190+180),-1,0)*20), -30, 0))",
							"-((-math.clamp((math.clamp(math.cos(q.anim_time*90*variable.walkspeed-50+180),-1,0)*50)+(math.clamp(math.cos(q.anim_time*90*variable.walkspeed+30+180),-1,0)*30)-(math.clamp(math.cos(q.anim_time*90*variable.walkspeed+30+180),-1,0)*20), -30, 0)*0.75))",
							"-((-math.clamp((math.clamp(math.cos(q.anim_time*90*variable.walkspeed-50+180),-1,0)*50)+(math.clamp(math.cos(q.anim_time*90*variable.walkspeed+30+180),-1,0)*30)-(math.clamp(math.cos(q.anim_time*90*variable.walkspeed+30+180),-1,0)*20), -30, 0)*0.25))"
						]
					}
				},
				"claw_left3": {
					"rotation": [
						"(-math.clamp((math.clamp(math.cos(q.anim_time*90*variable.walkspeed+15+180),-1,0)*30)-(math.clamp(math.cos(q.anim_time*90*variable.walkspeed+10+180),-1,0)*20), -40, 0))",
						0,
						0
					]
				},
				"toe_left2": {
					"rotation": {
						"1.0": [
							"(-math.clamp((math.clamp(math.cos(q.anim_time*90*variable.walkspeed+20+180),-1,0)*40)-(math.clamp(math.cos(q.anim_time*90*variable.walkspeed+190+180),-1,0)*20), -30, 0))",
							0,
							0
						],
						"1.2083": [
							"-22.5+(-math.clamp((math.clamp(math.cos(q.anim_time*90*variable.walkspeed+20+180),-1,0)*40)-(math.clamp(math.cos(q.anim_time*90*variable.walkspeed+190+180),-1,0)*20), -30, 0))",
							0,
							0
						],
						"1.4167": [
							"(-math.clamp((math.clamp(math.cos(q.anim_time*90*variable.walkspeed+20+180),-1,0)*40)-(math.clamp(math.cos(q.anim_time*90*variable.walkspeed+190+180),-1,0)*20), -30, 0))",
							0,
							0
						]
					}
				},
				"claw_left2": {
					"rotation": [
						"(-math.clamp((math.clamp(math.cos(q.anim_time*90*variable.walkspeed+25+180),-1,0)*30)-(math.clamp(math.cos(q.anim_time*90*variable.walkspeed+100+180),-1,0)*20), -40, 0))",
						0,
						0
					]
				},
				"toe_left": {
					"rotation": {
						"1.0": [
							"(-math.clamp((math.clamp(math.cos(q.anim_time*90*variable.walkspeed+20+180),-1,0)*40)-(math.clamp(math.cos(q.anim_time*90*variable.walkspeed+190+180),-1,0)*20), -30, 0))",
							"-((math.clamp((math.clamp(math.cos(q.anim_time*90*variable.walkspeed-50+180),-1,0)*50)+(math.clamp(math.cos(q.anim_time*90*variable.walkspeed+30+180),-1,0)*30)-(math.clamp(math.cos(q.anim_time*90*variable.walkspeed+30+180),-1,0)*20), -30, 0)*0.75))",
							"-((math.clamp((math.clamp(math.cos(q.anim_time*90*variable.walkspeed-50+180),-1,0)*50)+(math.clamp(math.cos(q.anim_time*90*variable.walkspeed+30+180),-1,0)*30)-(math.clamp(math.cos(q.anim_time*90*variable.walkspeed+30+180),-1,0)*20), -30, 0)*0.25))"
						],
						"1.2083": [
							"-22.5+(-math.clamp((math.clamp(math.cos(q.anim_time*90*variable.walkspeed+20+180),-1,0)*40)-(math.clamp(math.cos(q.anim_time*90*variable.walkspeed+190+180),-1,0)*20), -30, 0))",
							"0+(math.clamp((math.clamp(math.cos(q.anim_time*90*variable.walkspeed-50+180),-1,0)*50)+(math.clamp(math.cos(q.anim_time*90*variable.walkspeed+30+180),-1,0)*30)-(math.clamp(math.cos(q.anim_time*90*variable.walkspeed+30+180),-1,0)*20), -30, 0)*0.75)",
							"0+(math.clamp((math.clamp(math.cos(q.anim_time*90*variable.walkspeed-50+180),-1,0)*50)+(math.clamp(math.cos(q.anim_time*90*variable.walkspeed+30+180),-1,0)*30)-(math.clamp(math.cos(q.anim_time*90*variable.walkspeed+30+180),-1,0)*20), -30, 0)*0.25)"
						],
						"1.4167": [
							"(-math.clamp((math.clamp(math.cos(q.anim_time*90*variable.walkspeed+20+180),-1,0)*40)-(math.clamp(math.cos(q.anim_time*90*variable.walkspeed+190+180),-1,0)*20), -30, 0))",
							"-((math.clamp((math.clamp(math.cos(q.anim_time*90*variable.walkspeed-50+180),-1,0)*50)+(math.clamp(math.cos(q.anim_time*90*variable.walkspeed+30+180),-1,0)*30)-(math.clamp(math.cos(q.anim_time*90*variable.walkspeed+30+180),-1,0)*20), -30, 0)*0.75))",
							"-((math.clamp((math.clamp(math.cos(q.anim_time*90*variable.walkspeed-50+180),-1,0)*50)+(math.clamp(math.cos(q.anim_time*90*variable.walkspeed+30+180),-1,0)*30)-(math.clamp(math.cos(q.anim_time*90*variable.walkspeed+30+180),-1,0)*20), -30, 0)*0.25))"
						]
					}
				},
				"claw_left": {
					"rotation": [
						"(-math.clamp((math.clamp(math.cos(q.anim_time*90*variable.walkspeed+15+180),-1,0)*30)-(math.clamp(math.cos(q.anim_time*90*variable.walkspeed+10+180),-1,0)*20), -40, 0))",
						0,
						0
					]
				},
				"wing_closed_right2": {
					"rotation": ["(-2+math.cos(q.anim_time*90*variable.walkspeed*2-30)*2)", -45, "-((1+math.cos(q.anim_time*90*variable.walkspeed*2-30)*2))"]
				},
				"wing_closed_right3": {
					"rotation": {
						"0.0": [1, "-((-40.5+math.cos(q.anim_time*90*variable.walkspeed*2+15+30-90)*4))", 0],
						"0.375": [1, "-((-40.5+math.cos(q.anim_time*90*variable.walkspeed*2+15+30-90)*4))", 0],
						"0.4583": [1, "-((-40.5+math.cos(q.anim_time*90*variable.walkspeed*2+15+30-90)*2-(math.cos(q.anim_time*90*variable.walkspeed*10+15+90)*2)/2))", 0],
						"0.9583": [1, "-((-40.5+math.cos(q.anim_time*90*variable.walkspeed*2+15+30-90)*4-(math.cos(q.anim_time*90*variable.walkspeed*2+15+30-90)*2)/5))", 0],
						"1.0": [1, "-((-40.5+math.cos(q.anim_time*90*variable.walkspeed*2+15+30-90)*4))", 0],
						"1.375": [1, "-((-40.5+math.cos(q.anim_time*90*variable.walkspeed*2+15+30-90)*4))", 0],
						"1.4583": [1, "-((-40.5+math.cos(q.anim_time*90*variable.walkspeed*2+15+30-90)*2-(math.cos(q.anim_time*90*variable.walkspeed*10+15+90)*2)/2))", 0],
						"1.9583": [1, "-((-40.5+math.cos(q.anim_time*90*variable.walkspeed*2+15+30-90)*4-(math.cos(q.anim_time*90*variable.walkspeed*2+15+30-90)*2)/5))", 0],
						"2.0": [1, "-((-40.5+math.cos(q.anim_time*90*variable.walkspeed*2+15+30-90)*4))", 0]
					}
				},
				"wing_closed_left2": {
					"rotation": ["(-2+math.cos(q.anim_time*90*variable.walkspeed*2-30)*2)", 45, "(1+math.cos(q.anim_time*90*variable.walkspeed*2-30)*2)"]
				},
				"wing_closed_left3": {
					"rotation": {
						"0.0": [1, "(-40.5+math.cos(q.anim_time*90*variable.walkspeed*2+15+30-90)*4)", 0],
						"0.375": [1, "(-40.5+math.cos(q.anim_time*90*variable.walkspeed*2+15+30-90)*4)", 0],
						"0.4583": [1, "(-40.5+math.cos(q.anim_time*90*variable.walkspeed*2+15+30-90)*2-(math.cos(q.anim_time*90*variable.walkspeed*10+15+90)*2)/2)", 0],
						"0.9583": [1, "(-40.5+math.cos(q.anim_time*90*variable.walkspeed*2+15+30-90)*4-(math.cos(q.anim_time*90*variable.walkspeed*2+15+30-90)*2)/5)", 0],
						"1.0": [1, "(-40.5+math.cos(q.anim_time*90*variable.walkspeed*2+15+30-90)*4)", 0],
						"1.375": [1, "(-40.5+math.cos(q.anim_time*90*variable.walkspeed*2+15+30-90)*4)", 0],
						"1.4583": [1, "(-40.5+math.cos(q.anim_time*90*variable.walkspeed*2+15+30-90)*2-(math.cos(q.anim_time*90*variable.walkspeed*10+15+90)*2)/2)", 0],
						"1.9583": [1, "(-40.5+math.cos(q.anim_time*90*variable.walkspeed*2+15+30-90)*4-(math.cos(q.anim_time*90*variable.walkspeed*2+15+30-90)*2)/5)", 0],
						"2.0": [1, "(-40.5+math.cos(q.anim_time*90*variable.walkspeed*2+15+30-90)*4)", 0]
					}
				}
			}
		},
		"animation.corviknight.blink": {
			"animation_length": 0.1667,
			"bones": {
				"eyelid_right": {
					"position": {
						"0.0": [-0.1, 0, 0],
						"0.125": [-0.1, 0, 0],
						"0.1667": [0, 0, 0]
					}
				},
				"eyelid_left": {
					"position": {
						"0.0": [0.1, 0, 0],
						"0.125": [0.1, 0, 0],
						"0.1667": [0, 0, 0]
					}
				}
			}
		},
		"animation.corviknight.air_idle": {
			"loop": true,
			"animation_length": 4,
			"bones": {
				"wing_left": {
					"rotation": [8, -8, "(15+math.sin(q.anim_time*90*variable.afspeed +math.sin(q.anim_time*variable.afspeed*90+60)*30)*49)"]
				},
				"wing_left3": {
					"rotation": [0, -25, 0]
				},
				"tail": {
					"rotation": ["5+(math.sin(q.anim_time*90*variable.afspeed-180-60+math.sin(q.anim_time*90*variable.afspeed+60-60)*30))*30", 0, 0]
				},
				"wing_left2": {
					"rotation": [0, 10, 0]
				},
				"leg_right": {
					"rotation": ["-23-math.sin(q.anim_time*90*variable.afspeed-180-30)*15", 0, "10+math.cos(q.anim_time*90*variable.afspeed-180-30+80)*5"],
					"position": [0, 0.5, 0.5]
				},
				"foot_right": {
					"rotation": ["-25+math.sin(q.anim_time*90*variable.afspeed-90+40)*10", 0, -5]
				},
				"claw_back_right": {
					"rotation": [-45, 0, 0]
				},
				"toe_inner_right": {
					"rotation": [30, 0, 0]
				},
				"toe_outer_right": {
					"rotation": [30, 0, 0]
				},
				"claw_outer_right": {
					"rotation": [45, 0, 0]
				},
				"leg_left": {
					"rotation": ["-26-math.sin(q.anim_time*90*variable.afspeed-180-30)*15", 0, "-10-math.cos(q.anim_time*90*variable.afspeed-180-30)*5"],
					"position": [0, 0.5, 0.5]
				},
				"foot_left": {
					"rotation": ["-25+math.sin(q.anim_time*90*variable.afspeed-90)*10", 0, 5]
				},
				"toe_back_left": {
					"rotation": [-45, 0, 0]
				},
				"toe_inner_left": {
					"rotation": [30, 0, 0]
				},
				"toe_outer_left": {
					"rotation": [30, 0, 0]
				},
				"body": {
					"rotation": ["2+math.sin(q.anim_time*90*variable.afspeed-180)*5", 0, 0],
					"position": [0, "math.sin(q.anim_time*90*variable.afspeed-45)*5", "math.cos(q.anim_time*90*variable.afspeed-45)*2 "]
				},
				"wing_right": {
					"rotation": [8, 8, "-((15+math.sin(q.anim_time*90*variable.afspeed +math.sin(q.anim_time*variable.afspeed*90+60)*30)*49))"]
				},
				"wing_right3": {
					"rotation": [0, 25, 0]
				},
				"toe_back_right": {
					"rotation": [-45, 0, 0]
				},
				"claw_inner_right": {
					"rotation": [45, 0, 0]
				},
				"claw_back_left": {
					"rotation": [-45, 0, 0]
				},
				"claw_inner_left": {
					"rotation": [45, 0, 0]
				},
				"claw_outer_left": {
					"rotation": [45, 0, 0]
				},
				"wing_right2": {
					"rotation": [0, -10, 0]
				},
				"neck": {
					"rotation": ["30+math.sin(q.anim_time*90*variable.afspeed-180-30)*8", 0, 0]
				},
				"head": {
					"rotation": ["-25 -math.sin(q.anim_time*90*variable.afspeed-180)*5-math.sin(q.anim_time*90*variable.afspeed-180-30)*8", 0, 0],
					"position": [
						0,
						"2+math.clamp(math.sin(q.anim_time*90*variable.afspeed-180)*1,0,1)+math.sin(q.anim_time*90*variable.afspeed-180)*1",
						"-2+math.sin(q.anim_time*90*variable.afspeed-180)*1"
					]
				},
				"wing_open_right2": {
					"rotation": [0, 0, "-((math.sin(q.anim_time*90*variable.afspeed-30 +math.sin(q.anim_time*variable.afspeed*90+60-30)*20)*40))"]
				},
				"wing_open_right3": {
					"rotation": [
						0,
						0,
						"-((math.sin(q.anim_time*90*variable.afspeed-60 +math.sin(q.anim_time*variable.afspeed*90+60-60)*10)*30)-10+math.clamp(math.sin(q.anim_time*90*variable.afspeed-140)*1+math.sin(q.anim_time*90*variable.afspeed*10-140)*1.5,0.8, 15)*5)"
					]
				},
				"armor_right": {
					"rotation": [
						0,
						"-((8-(math.sin(q.anim_time*90*variable.afspeed)+math.sin(q.anim_time*90*variable.afspeed*3)/10)*5))",
						"-((-(20+math.sin(q.anim_time*90*variable.afspeed +math.sin(q.anim_time*variable.afspeed*90-0)*30)*20))/2)"
					],
					"position": [2, 0, 0]
				},
				"armor_right2": {
					"rotation": [
						0,
						0,
						"-((-math.clamp(math.sin(q.anim_time*90*variable.afspeed),-1,-0.5)*30-((15+math.sin(q.anim_time*90*variable.afspeed +math.sin(q.anim_time*variable.afspeed*90+60)*30)*48))/3))"
					]
				},
				"armor_left": {
					"rotation": [
						0,
						"(8-(math.sin(q.anim_time*90*variable.afspeed)+math.sin(q.anim_time*90*variable.afspeed*3)/10)*5)",
						"(-(20+math.sin(q.anim_time*90*variable.afspeed +math.sin(q.anim_time*variable.afspeed*90-0)*30)*20))/2"
					],
					"position": [-2, 0, 0]
				},
				"armor_left2": {
					"rotation": [
						0,
						0,
						"(-math.clamp(math.sin(q.anim_time*90*variable.afspeed),-1,-0.5)*30-((15+math.sin(q.anim_time*90*variable.afspeed +math.sin(q.anim_time*variable.afspeed*90+60)*30)*48))/3)"
					]
				},
				"wing_open_left2": {
					"rotation": [0, 0, "(math.sin(q.anim_time*90*variable.afspeed-30 +math.sin(q.anim_time*variable.afspeed*90+60-30)*20)*40)"]
				},
				"wing_open_left3": {
					"rotation": [
						0,
						0,
						"(math.sin(q.anim_time*90*variable.afspeed-60 +math.sin(q.anim_time*variable.afspeed*90+60-60)*10)*30)-10+math.clamp(math.sin(q.anim_time*90*variable.afspeed-140)*1+math.sin(q.anim_time*90*variable.afspeed*10-140)*1.5,0.8, 15)*5"
					]
				},
				"beard": {
					"rotation": ["15+math.sin(q.anim_time*90*variable.afspeed-180+30)*5+math.sin(q.anim_time*90*variable.afspeed-180-30+30)*8", 0, 0]
				},
				"scruff_left": {
					"rotation": [0, "math.cos(q.anim_time*90*variable.afspeed-60-0)*25+math.cos(q.anim_time*90*1*20+180-0)*1", 0]
				},
				"scruff_right": {
					"rotation": [0, "-(math.cos(q.anim_time*90*variable.afspeed-60-0)*25+math.cos(q.anim_time*90*1*20+180-0)*1)", 0]
				},
				"scruff": {
					"rotation": [5, "math.cos(q.anim_time*90*1*20+180)*2", 0]
				},
				"beard2": {
					"rotation": ["-20+math.sin(q.anim_time*90*variable.afspeed-180)*5+math.sin(q.anim_time*90*variable.afspeed-180-30)*8", 0, 0]
				},
				"scruff2": {
					"rotation": [10, "math.cos(q.anim_time*90*1*20+180-30)*2", 0]
				},
				"beard3": {
					"rotation": ["-10+math.cos(q.anim_time*90*variable.afspeed-30)*25+math.cos(q.anim_time*90*1*20+180)*1", 0, 0]
				},
				"scruff_left2": {
					"rotation": [0, "math.cos(q.anim_time*90*variable.afspeed-60-30)*25+math.cos(q.anim_time*90*1*20+180-30)*1", 0]
				},
				"scruff_right2": {
					"rotation": [0, "-(math.cos(q.anim_time*90*variable.afspeed-60-30)*25+math.cos(q.anim_time*90*1*20+180-30)*1)", 0]
				},
				"tail_left": {
					"rotation": [
						"5+math.sin(q.anim_time*90*variable.afspeed-180-60)*10+math.clamp(math.sin(q.anim_time*90*variable.afspeed-180-0)*10+math.sin(q.anim_time*90*variable.afspeed*10-180-0)*2,5,15)/2+math.clamp(math.sin(q.anim_time*90*variable.afspeed-180-0)*10+math.sin(q.anim_time*90*variable.afspeed*10-180-0)*2,-15,-10)/4",
						"1+math.sin(q.anim_time*90*variable.afspeed-180-30)*2",
						0
					]
				},
				"tail_right": {
					"rotation": [
						"5+math.sin(q.anim_time*90*variable.afspeed-180-60)*10+math.clamp(math.sin(q.anim_time*90*variable.afspeed-180-0)*10+math.sin(q.anim_time*90*variable.afspeed*10-180-0)*2,5,15)/2+math.clamp(math.sin(q.anim_time*90*variable.afspeed-180-0)*10+math.sin(q.anim_time*90*variable.afspeed*10-180-0)*2,-15,-10)/4",
						"-1-math.sin(q.anim_time*90*variable.afspeed-180-30)*2",
						0
					]
				},
				"tail_middle": {
					"rotation": [
						"10+math.sin(q.anim_time*90*variable.afspeed-180-60)*10+math.clamp(math.sin(q.anim_time*90*variable.afspeed-180-0)*10+math.sin(q.anim_time*90*variable.afspeed*10-180-0)*1,5, 15)/2+math.clamp(math.sin(q.anim_time*90*variable.afspeed-180-0)*10+math.sin(q.anim_time*90*variable.afspeed*10-180-0)*1,-15,-10)/4",
						0,
						0
					]
				},
				"tail_left2": {
					"rotation": [
						"math.sin(q.anim_time*90*variable.afspeed-180-60)*10+math.clamp(math.sin(q.anim_time*90*variable.afspeed-180-0)*10+math.sin(q.anim_time*90*variable.afspeed*10-180-0)*3,5,15)/2+math.clamp(math.sin(q.anim_time*90*variable.afspeed-180-0)*10+math.sin(q.anim_time*90*variable.afspeed*10-180-0)*3,-15,-10)/4",
						"2+math.sin(q.anim_time*90*variable.afspeed-180-0)*4",
						0
					]
				},
				"tail_right2": {
					"rotation": [
						"math.sin(q.anim_time*90*variable.afspeed-180-60)*10+math.clamp(math.sin(q.anim_time*90*variable.afspeed-180-0)*10+math.sin(q.anim_time*90*variable.afspeed*10-180-0)*3,5,15)/2+math.clamp(math.sin(q.anim_time*90*variable.afspeed-180-0)*10+math.sin(q.anim_time*90*variable.afspeed*10-180-0)*3,-15,-10)/4",
						"-2-math.sin(q.anim_time*90*variable.afspeed-180-0)*4",
						0
					]
				},
				"leg_right2": {
					"rotation": ["-2.5+math.sin(q.anim_time*90*variable.afspeed-60+40)*10", -2.61758, 0.24109]
				},
				"toe_right4": {
					"rotation": ["-45+math.cos(q.anim_time*90*variable.afspeed-180-30)*10", 0, 0]
				},
				"claw_right4": {
					"rotation": ["-30+math.cos(q.anim_time*90*variable.afspeed-180-30)*20", 0, 0]
				},
				"toe_right3": {
					"rotation": ["25-math.cos(q.anim_time*90*variable.afspeed-180-30+10)*20", 0, 0]
				},
				"claw_right3": {
					"rotation": ["30-math.cos(q.anim_time*90*variable.afspeed-180-30)*20", 0, 0]
				},
				"toe_right2": {
					"rotation": ["20-math.cos(q.anim_time*90*variable.afspeed-180-30-10+10)*25", 0, 0]
				},
				"claw_right2": {
					"rotation": ["30-math.cos(q.anim_time*90*variable.afspeed-180-30)*20", 0, 0]
				},
				"toe_right": {
					"rotation": ["25-math.cos(q.anim_time*90*variable.afspeed-180-30+10)*20", 0, 0]
				},
				"claw_right": {
					"rotation": ["30-math.cos(q.anim_time*90*variable.afspeed-180-30)*20", 0, 0]
				},
				"leg_left2": {
					"rotation": ["-7.5+math.sin(q.anim_time*90*variable.afspeed-60)*10", 2.61758, -0.24109]
				},
				"toe_left4": {
					"rotation": ["-45+math.cos(q.anim_time*90*variable.afspeed-180-30-20)*10", 0, 0]
				},
				"claw_left4": {
					"rotation": ["-30+math.cos(q.anim_time*90*variable.afspeed-180-30-10)*20", 0, 0]
				},
				"toe_left3": {
					"rotation": ["25-math.cos(q.anim_time*90*variable.afspeed-180-30-10)*20", 0, 0]
				},
				"claw_left3": {
					"rotation": ["30-math.cos(q.anim_time*90*variable.afspeed-180-30-10)*20", 0, 0]
				},
				"toe_left2": {
					"rotation": ["20-math.cos(q.anim_time*90*variable.afspeed-180-30-10)*25", 0, 0]
				},
				"claw_left2": {
					"rotation": ["30-math.cos(q.anim_time*90*variable.afspeed-180-30-10)*20", 0, 0]
				},
				"toe_left": {
					"rotation": ["25-math.cos(q.anim_time*90*variable.afspeed-180-30)*20", 0, 0]
				},
				"claw_left": {
					"rotation": ["30-math.cos(q.anim_time*90*variable.afspeed-180-30-10)*20", 0, 0]
				}
			}
		},
		"animation.corviknight.air_fly": {
			"loop": true,
			"animation_length": 10,
			"bones": {
				"wing_left": {
					"rotation": {
						"0.0": [
							"(0-math.cos(q.anim_time*90*variable.afspeed-60)*15/2+math.cos(q.anim_time*90*variable.afspeed*3-180))/20+math.cos(q.anim_time*90*1*20)*0.5",
							"-((5-math.sin(q.anim_time*90*variable.afspeed-30)*5+math.sin(q.anim_time*90*variable.afspeed*3+90)/5)/20)",
							"-((-5+math.sin(q.anim_time*90*variable.afspeed)*20) )/20"
						],
						"6.0": [
							"(0-math.cos(q.anim_time*90*variable.afspeed-60)*15/2+math.cos(q.anim_time*90*variable.afspeed*3-180))/8+math.cos(q.anim_time*90*1*20)*0.5",
							"-((5-math.sin(q.anim_time*90*variable.afspeed-30)*5+math.sin(q.anim_time*90*variable.afspeed*3+90)/5)/8)",
							"-((-5+math.sin(q.anim_time*90*variable.afspeed)*20) )/8"
						],
						"7.0417": [
							"(0-math.cos(q.anim_time*90*variable.afspeed-60)*15/2+math.cos(q.anim_time*90*variable.afspeed*3-180))",
							"-((5-math.sin(q.anim_time*90*variable.afspeed-30)*5+math.sin(q.anim_time*90*variable.afspeed*3+90)/5))",
							"-((-5+math.sin(q.anim_time*90*variable.afspeed)*20) )"
						],
						"8.0": [
							"(0-math.cos(q.anim_time*90*variable.afspeed-60)*15/2+math.cos(q.anim_time*90*variable.afspeed*3-180))",
							"-((5-math.sin(q.anim_time*90*variable.afspeed-30)*5+math.sin(q.anim_time*90*variable.afspeed*3+90)/5))",
							"-((-5+math.sin(q.anim_time*90*variable.afspeed)*20) )"
						],
						"10.0": [
							"(0-math.cos(q.anim_time*90*variable.afspeed-60)*15/2+math.cos(q.anim_time*90*variable.afspeed*3-180))/20+math.cos(q.anim_time*90*1*20)*0.5",
							"-((5-math.sin(q.anim_time*90*variable.afspeed-30)*5+math.sin(q.anim_time*90*variable.afspeed*3+90)/5)/20)",
							"-((-5+math.sin(q.anim_time*90*variable.afspeed)*20) )/20"
						]
					},
					"position": {
						"0.0": [0, "(math.clamp(math.cos(q.anim_time*90*variable.afspeed+60)*2,0,2)+math.cos(q.anim_time*90*variable.afspeed+30)*1)/20 ", 2],
						"6.0": [0, "(math.clamp(math.cos(q.anim_time*90*variable.afspeed+60)*2,0,2)+math.cos(q.anim_time*90*variable.afspeed+30)*1)/20 ", 2],
						"7.0417": [0, "(math.clamp(math.cos(q.anim_time*90*variable.afspeed+60)*2,0,2)+math.cos(q.anim_time*90*variable.afspeed+30)*1) ", 2],
						"8.0": [0, "(math.clamp(math.cos(q.anim_time*90*variable.afspeed+60)*2,0,2)+math.cos(q.anim_time*90*variable.afspeed+30)*1) ", 2],
						"10.0": [0, "(math.clamp(math.cos(q.anim_time*90*variable.afspeed+60)*2,0,2)+math.cos(q.anim_time*90*variable.afspeed+30)*1)/20 ", 2]
					}
				},
				"torso": {
					"rotation": [22.5, 0, 0]
				},
				"tail": {
					"rotation": {
						"0.0": ["10+math.cos(q.anim_time*90*variable.afspeed-180)*1", "-math.sin(q.anim_time*90*variable.afspeed*8+60)*0.2", 0],
						"5.0": ["10+math.cos(q.anim_time*90*variable.afspeed-180)*1", "-math.sin(q.anim_time*90*variable.afspeed*8+60)*0.2", 0],
						"6.0": ["10+math.cos(q.anim_time*90*variable.afspeed-180)*1", "-math.sin(q.anim_time*90*variable.afspeed*8+60)*0.2", 0],
						"6.875": ["20+math.cos(q.anim_time*90*variable.afspeed-180)*5", "-math.sin(q.anim_time*90*variable.afspeed*8+60)*0.2", 0],
						"7.9583": ["-10+math.cos(q.anim_time*90*variable.afspeed/2-180)*10", "-math.sin(q.anim_time*90*variable.afspeed*8+60)*0.2", 0],
						"8.25": ["-10+math.cos(q.anim_time*90*variable.afspeed/2-180)*10", "-math.sin(q.anim_time*90*variable.afspeed*8+60)*0.2", 0],
						"9.0": ["0+math.cos(q.anim_time*90*variable.afspeed/2-180)*10", "-math.sin(q.anim_time*90*variable.afspeed*8+60)*0.2", 0],
						"9.7083": ["10+math.cos(q.anim_time*90*variable.afspeed-180)*1", "-math.sin(q.anim_time*90*variable.afspeed*8+60)*0.2", 0]
					}
				},
				"leg_right": {
					"rotation": ["(-5+math.cos(q.anim_time*90*variable.afspeed-180-30-20)*2)", 0, 0],
					"position": [0, 1.1, 2]
				},
				"leg_right2": {
					"rotation": {
						"0.0": ["(-55+math.cos(q.anim_time*90*variable.afspeed-180-60-20)*2)", 0, 0],
						"6.2083": ["(-55+math.cos(q.anim_time*90*variable.afspeed-180-60-20)*2)", 0, 0],
						"7.4583": ["(-25+math.cos(q.anim_time*90*variable.afspeed-180-60-20)*10)", 0, 0],
						"9.4583": ["(-55+math.cos(q.anim_time*90*variable.afspeed-180-60-20)*2)", 0, 0]
					},
					"position": {
						"0.0": [0, -2.2, 2],
						"6.2083": [0, -2.2, 2],
						"6.7917": [0, -1.77, 2.47],
						"7.2083": [0, -0.6, 2.8],
						"7.7083": [0, -0.83, 2.59],
						"8.2083": [0, -1.73, 2.38],
						"9.0833": [0, -2.2, 2]
					}
				},
				"foot_right": {
					"rotation": {
						"0.0": ["(10-math.cos(q.anim_time*90*variable.afspeed-180-90-40)*4)", 0, 0],
						"6.2083": ["(10-math.cos(q.anim_time*90*variable.afspeed-180-90-40)*4)", 0, 0],
						"7.9583": ["(-10+math.cos(q.anim_time*90*variable.afspeed-180-60-20)*30)", 0, 0],
						"9.9583": ["(10-math.cos(q.anim_time*90*variable.afspeed-180-90-40)*4)", 0, 0]
					}
				},
				"leg_left": {
					"rotation": ["(-5+math.cos(q.anim_time*90*variable.afspeed-180-30)*2)", 0, 0],
					"position": [0, 1.1, 2]
				},
				"leg_left2": {
					"rotation": {
						"0.0": ["(-55+math.cos(q.anim_time*90*variable.afspeed-180-60)*2)", 0, 0],
						"6.0": ["(-55+math.cos(q.anim_time*90*variable.afspeed-180-60)*2)", 0, 0],
						"7.0": ["(-25+math.cos(q.anim_time*90*variable.afspeed-180-60)*10)", 0, 0],
						"9.0": ["(-55+math.cos(q.anim_time*90*variable.afspeed-180-60)*2)", 0, 0]
					},
					"position": {
						"0.0": [0, -2.2, 2],
						"6.0": [0, -2.2, 2],
						"6.5833": [0, -1.77, 2.47],
						"7.0": [0, -0.6, 2.8],
						"7.5": [0, -0.83, 2.59],
						"8.0": [0, -1.73, 2.38],
						"8.875": [0, -2.2, 2]
					}
				},
				"foot_left": {
					"rotation": {
						"0.0": ["(10-math.cos(q.anim_time*90*variable.afspeed-180-90)*4)", 0, 0],
						"6.0": ["(10-math.cos(q.anim_time*90*variable.afspeed-180-90)*4)", 0, 0],
						"7.5": ["(-10+math.cos(q.anim_time*90*variable.afspeed-180-60)*30)", 0, 0],
						"9.5": ["(10-math.cos(q.anim_time*90*variable.afspeed-180-90)*4)", 0, 0]
					}
				},
				"body": {
					"rotation": {
						"0.0": ["25+math.cos(q.anim_time*90*variable.afspeed-180)*1", 0, 0],
						"5.0": ["30+math.cos(q.anim_time*90*variable.afspeed-180)*1", 0, 0],
						"6.0": ["30+math.cos(q.anim_time*90*variable.afspeed-180)*1", 0, 0],
						"7.0": ["30+math.cos(q.anim_time*90*variable.afspeed-180)*5", 0, 0],
						"7.9583": ["30+math.cos(q.anim_time*90*variable.afspeed/2-180)*10", 0, 0],
						"9.0": ["20+math.cos(q.anim_time*90*variable.afspeed/2-180)*10", 0, 0],
						"9.4583": ["20+math.cos(q.anim_time*90*variable.afspeed/2-180)*5", 0, 0],
						"10.0": ["25+math.cos(q.anim_time*90*variable.afspeed-180)*1", 0, 0]
					},
					"position": {
						"0.0": [0, "2+math.cos(q.anim_time*90*variable.afspeed-0)*3/8", "math.sin(q.anim_time*90*variable.afspeed-20)*1/20"],
						"5.0": [0, "2+math.cos(q.anim_time*90*variable.afspeed-0)*3/8", "math.sin(q.anim_time*90*variable.afspeed-20)*1/20"],
						"6.25": [0, "2+math.cos(q.anim_time*90*variable.afspeed-0)*3/8", "math.sin(q.anim_time*90*variable.afspeed-20)*1/20"],
						"7.0": [0, "math.cos(q.anim_time*90*variable.afspeed/2-20)*8+4", "math.sin(q.anim_time*90*variable.afspeed-60)*2"],
						"7.9583": [0, "math.cos(q.anim_time*90*variable.afspeed/2-0)*12", "math.sin(q.anim_time*90*variable.afspeed-80)*2"],
						"8.375": [0, "8+math.cos(q.anim_time*90*variable.afspeed-0)*3/8", "math.sin(q.anim_time*90*variable.afspeed-100)*2"],
						"9.0": [0, "5+math.cos(q.anim_time*90*variable.afspeed-0)*3/8", "math.sin(q.anim_time*90*variable.afspeed-180)*1"],
						"9.125": [0, "4.5+math.cos(q.anim_time*90*variable.afspeed-0)*3/8", "math.sin(q.anim_time*90*variable.afspeed-20)*1/20"],
						"10.0": [0, "2+math.cos(q.anim_time*90*variable.afspeed-0)*3/8", "math.sin(q.anim_time*90*variable.afspeed-20)*1/20"]
					}
				},
				"head": {
					"rotation": {
						"0.0": ["-(65+math.cos(q.anim_time*90*variable.afspeed-180)*2)", 0, 0],
						"5.0": ["-(80+math.cos(q.anim_time*90*variable.afspeed-180)*2)", 0, 0],
						"6.0": ["-(80+math.cos(q.anim_time*90*variable.afspeed-180)*0)", 0, 0],
						"7.0": ["-(80+math.cos(q.anim_time*90*variable.afspeed-180)*0)", 0, 0],
						"7.9583": ["-(80+math.cos(q.anim_time*90*variable.afspeed/2-180)*0)", 0, 0],
						"9.0417": ["-(65+math.cos(q.anim_time*90*variable.afspeed-180)*2)", 0, 0]
					},
					"position": {
						"0.0": {
							"post": [0, 2.7, 0.75],
							"lerp_mode": "catmullrom"
						},
						"5.0": {
							"post": [0, 2.7, 0.75],
							"lerp_mode": "catmullrom"
						},
						"6.0417": [0, 2.7, 0.5],
						"6.3333": [0, 2.7, 0.58],
						"7.0": {
							"pre": [0, 3.5, 2.75],
							"post": [0, 3.5, 2.75],
							"lerp_mode": "catmullrom"
						},
						"8.0": {
							"post": [0, 3, 1],
							"lerp_mode": "catmullrom"
						},
						"9.0": {
							"post": [0, 2.7, 0.75],
							"lerp_mode": "catmullrom"
						},
						"9.9583": [0, 2.7, 0.75]
					}
				},
				"wing_right": {
					"rotation": {
						"0.0": [
							"(0-math.cos(q.anim_time*90*variable.afspeed-60)*15/2+math.cos(q.anim_time*90*variable.afspeed*3-180))/20+math.cos(q.anim_time*90*1*20)*0.5",
							"((5-math.sin(q.anim_time*90*variable.afspeed-30)*5+math.sin(q.anim_time*90*variable.afspeed*3+90)/5)/20)",
							"((-5+math.sin(q.anim_time*90*variable.afspeed)*20) )/20"
						],
						"6.0": [
							"(0-math.cos(q.anim_time*90*variable.afspeed-60)*15/2+math.cos(q.anim_time*90*variable.afspeed*3-180))/8+math.cos(q.anim_time*90*1*20)*0.5",
							"((5-math.sin(q.anim_time*90*variable.afspeed-30)*5+math.sin(q.anim_time*90*variable.afspeed*3+90)/5)/8)",
							"((-5+math.sin(q.anim_time*90*variable.afspeed)*20) )/8"
						],
						"7.0417": [
							"(0-math.cos(q.anim_time*90*variable.afspeed-60)*15/2+math.cos(q.anim_time*90*variable.afspeed*3-180))",
							"((5-math.sin(q.anim_time*90*variable.afspeed-30)*5+math.sin(q.anim_time*90*variable.afspeed*3+90)/5))",
							"((-5+math.sin(q.anim_time*90*variable.afspeed)*20) )"
						],
						"8.0": [
							"(0-math.cos(q.anim_time*90*variable.afspeed-60)*15/2+math.cos(q.anim_time*90*variable.afspeed*3-180))",
							"((5-math.sin(q.anim_time*90*variable.afspeed-30)*5+math.sin(q.anim_time*90*variable.afspeed*3+90)/5))",
							"((-5+math.sin(q.anim_time*90*variable.afspeed)*20) )"
						],
						"10.0": [
							"(0-math.cos(q.anim_time*90*variable.afspeed-60)*15/2+math.cos(q.anim_time*90*variable.afspeed*3-180))/20+math.cos(q.anim_time*90*1*20)*0.5",
							"((5-math.sin(q.anim_time*90*variable.afspeed-30)*5+math.sin(q.anim_time*90*variable.afspeed*3+90)/5)/20)",
							"((-5+math.sin(q.anim_time*90*variable.afspeed)*20) )/20"
						]
					},
					"position": {
						"0.0": [0, "(math.clamp(math.cos(q.anim_time*90*variable.afspeed+60)*2,0,2)+math.cos(q.anim_time*90*variable.afspeed+30)*1)/20 ", 2],
						"6.0": [0, "(math.clamp(math.cos(q.anim_time*90*variable.afspeed+60)*2,0,2)+math.cos(q.anim_time*90*variable.afspeed+30)*1)/20 ", 2],
						"7.0417": [0, "(math.clamp(math.cos(q.anim_time*90*variable.afspeed+60)*2,0,2)+math.cos(q.anim_time*90*variable.afspeed+30)*1) ", 2],
						"8.0": [0, "(math.clamp(math.cos(q.anim_time*90*variable.afspeed+60)*2,0,2)+math.cos(q.anim_time*90*variable.afspeed+30)*1) ", 2],
						"9.9583": [0, "(math.clamp(math.cos(q.anim_time*90*variable.afspeed+60)*2,0,2)+math.cos(q.anim_time*90*variable.afspeed+30)*1)/20 ", 2],
						"10.0": [0, "(math.clamp(math.cos(q.anim_time*90*variable.afspeed+60)*2,0,2)+math.cos(q.anim_time*90*variable.afspeed+30)*1)/20 ", 2]
					}
				},
				"neck": {
					"rotation": {
						"0.0": ["25+math.cos(q.anim_time*90*variable.afspeed-180)*1", 0, 0],
						"5.0": ["30+math.cos(q.anim_time*90*variable.afspeed-180)*1", 0, 0],
						"6.0": ["30-math.cos(q.anim_time*90*variable.afspeed-180)*1", 0, 0],
						"7.0": ["30-math.cos(q.anim_time*90*variable.afspeed-180)*5", 0, 0],
						"7.9583": ["30-math.cos(q.anim_time*90*variable.afspeed/2-180)*10", 0, 0],
						"9.0": ["25+math.cos(q.anim_time*90*variable.afspeed-180)*1", 0, 0]
					},
					"position": [0, -0.5, 0]
				},
				"beard": {
					"rotation": {
						"0.0": ["35+math.cos(q.anim_time*90*1*20)*0.3", 0, 0],
						"5.75": ["35+math.cos(q.anim_time*90*1*20)*0.3", 0, 0],
						"6.0": ["25+math.cos(q.anim_time*90*variable.afspeed)*10", 0, 0],
						"9.0": ["35+math.cos(q.anim_time*90*1*20)*0.3", 0, 0]
					}
				},
				"beard2": {
					"rotation": {
						"0.0": ["32.5+math.cos(q.anim_time*90*1*20+90)*1", 0, 0],
						"5.75": ["12.5+math.cos(q.anim_time*90*1*20+90)*1", 0, 0],
						"6.3333": ["3.5+math.cos(q.anim_time*90*variable.afspeed-30)*6", 0, 0],
						"9.3333": ["32.5+math.cos(q.anim_time*90*1*20+90)*1", 0, 0]
					}
				},
				"beard3": {
					"rotation": {
						"0.0": ["32.5+math.cos(q.anim_time*90*1*20+180)*5", 0, 0],
						"5.75": ["32.5+math.cos(q.anim_time*90*1*20+180)*5", 0, 0],
						"6.75": ["-10+math.cos(q.anim_time*90*variable.afspeed-60)*20+math.cos(q.anim_time*90*1*20+180)*1", 0, 0],
						"9.75": ["32.5+math.cos(q.anim_time*90*1*20+180)*5", 0, 0]
					}
				},
				"armor_right": {
					"rotation": {
						"0.0": [
							"-(1-math.cos(q.anim_time*90*variable.afspeed-60)*15/4+math.cos(q.anim_time*90*variable.afspeed*3-180)/2)/20-math.cos(q.anim_time*90*1*20)*0.5",
							"-((math.clamp(5-math.sin(q.anim_time*90*variable.afspeed-30)*5+math.sin(q.anim_time*90*variable.afspeed*3+90)/5,3,20)+math.sin(q.anim_time*90*variable.afspeed-30)*7)/20)",
							"-(math.clamp(-5+math.sin(q.anim_time*90*variable.afspeed)*10,-20,3)*0.75/20)"
						],
						"6.0": [
							"-(1-math.cos(q.anim_time*90*variable.afspeed-60)*15/4+math.cos(q.anim_time*90*variable.afspeed*3-180)/2)/8-math.cos(q.anim_time*90*1*20)*0.5",
							"-((math.clamp(5-math.sin(q.anim_time*90*variable.afspeed-30)*5+math.sin(q.anim_time*90*variable.afspeed*3+90)/5,3,20)+math.sin(q.anim_time*90*variable.afspeed-30)*7)/8)",
							"-(math.clamp(-5+math.sin(q.anim_time*90*variable.afspeed)*10,-20,3)*0.75/8)"
						],
						"7.0417": [
							"-(1-math.cos(q.anim_time*90*variable.afspeed-60)*15/4+math.cos(q.anim_time*90*variable.afspeed*3-180)/2)",
							"-((math.clamp(5-math.sin(q.anim_time*90*variable.afspeed-30)*5+math.sin(q.anim_time*90*variable.afspeed*3+90)/5,3,20)+math.sin(q.anim_time*90*variable.afspeed-30)*7))",
							"-(math.clamp(-5+math.sin(q.anim_time*90*variable.afspeed)*10,-20,3)*0.75)"
						],
						"8.0": [
							"-(1-math.cos(q.anim_time*90*variable.afspeed-60)*15/4+math.cos(q.anim_time*90*variable.afspeed*3-180)/2)",
							"-((math.clamp(5-math.sin(q.anim_time*90*variable.afspeed-30)*5+math.sin(q.anim_time*90*variable.afspeed*3+90)/5,3,20)+math.sin(q.anim_time*90*variable.afspeed-30)*7))",
							"-(math.clamp(-5+math.sin(q.anim_time*90*variable.afspeed)*10,-20,3)*0.75)"
						],
						"9.9583": [
							"-(1-math.cos(q.anim_time*90*variable.afspeed-60)*15/4+math.cos(q.anim_time*90*variable.afspeed*3-180)/2)/8-math.cos(q.anim_time*90*1*20)*0.5",
							"-((math.clamp(5-math.sin(q.anim_time*90*variable.afspeed-30)*5+math.sin(q.anim_time*90*variable.afspeed*3+90)/5,3,20)+math.sin(q.anim_time*90*variable.afspeed-30)*7)/8)",
							"-(math.clamp(-5+math.sin(q.anim_time*90*variable.afspeed)*10,-20,3)*0.75/8)"
						],
						"10.0": [
							"-(1-math.cos(q.anim_time*90*variable.afspeed-60)*15/4+math.cos(q.anim_time*90*variable.afspeed*3-180)/2)/8",
							"-((math.clamp(5-math.sin(q.anim_time*90*variable.afspeed-30)*5+math.sin(q.anim_time*90*variable.afspeed*3+90)/5,3,20)+math.sin(q.anim_time*90*variable.afspeed-30)*7)/8)",
							"-(math.clamp(-5+math.sin(q.anim_time*90*variable.afspeed)*10,-20,3)*0.75/8)"
						]
					},
					"position": {
						"0.0": [2, "0.4+math.clamp(math.sin(q.anim_time*90*variable.afspeed-60)*3,-2,3)/5/20", 2],
						"6.0": [2, "0.4+math.clamp(math.sin(q.anim_time*90*variable.afspeed-60)*3,-2,3)/5/20", 2],
						"7.0417": [2, "0.4+math.clamp(math.sin(q.anim_time*90*variable.afspeed-60)*3,-2,3)/5", 2],
						"8.0": [2, "0.4+math.clamp(math.sin(q.anim_time*90*variable.afspeed-60)*3,-2,3)/5", 2],
						"9.9583": [2, "0.4+math.clamp(math.sin(q.anim_time*90*variable.afspeed-60)*3,-2,3)/5/20", 2],
						"10.0": [2, "0.4+math.clamp(math.sin(q.anim_time*90*variable.afspeed-60)*3,-2,3)/5/20", 2]
					}
				},
				"armor_right2": {
					"rotation": {
						"0.0": [0, 0, "-((5+math.sin(q.anim_time*90*variable.afspeed)*10)/8)"],
						"6.0": [0, 0, "-((5+math.sin(q.anim_time*90*variable.afspeed)*10)/8)"],
						"7.0417": [0, 0, "-((5+math.sin(q.anim_time*90*variable.afspeed)*10))"],
						"8.0": [0, 0, "-((5+math.sin(q.anim_time*90*variable.afspeed)*10))"],
						"9.9583": [0, 0, "-((5+math.sin(q.anim_time*90*variable.afspeed)*10)/8)"],
						"10.0": [0, 0, "-((5+math.sin(q.anim_time*90*variable.afspeed)*10)/8)"]
					}
				},
				"armor_left": {
					"rotation": {
						"0.0": [
							"-(1-math.cos(q.anim_time*90*variable.afspeed-60)*15/4+math.cos(q.anim_time*90*variable.afspeed*3-180)/2)/20-math.cos(q.anim_time*90*1*20)*0.5",
							"(math.clamp(5-math.sin(q.anim_time*90*variable.afspeed-30)*5+math.sin(q.anim_time*90*variable.afspeed*3+90)/5,3,20)+math.sin(q.anim_time*90*variable.afspeed-30)*7)/20",
							"math.clamp(-5+math.sin(q.anim_time*90*variable.afspeed)*10,-20,3)*0.75/20"
						],
						"6.0": [
							"-(1-math.cos(q.anim_time*90*variable.afspeed-60)*15/4+math.cos(q.anim_time*90*variable.afspeed*3-180)/2)/8-math.cos(q.anim_time*90*1*20)*0.4",
							"(math.clamp(5-math.sin(q.anim_time*90*variable.afspeed-30)*5+math.sin(q.anim_time*90*variable.afspeed*3+90)/5,3,20)+math.sin(q.anim_time*90*variable.afspeed-30)*7)/8",
							"math.clamp(-5+math.sin(q.anim_time*90*variable.afspeed)*10,-20,3)*0.75/8"
						],
						"7.0417": [
							"-(1-math.cos(q.anim_time*90*variable.afspeed-60)*15/4+math.cos(q.anim_time*90*variable.afspeed*3-180)/2)",
							"(math.clamp(5-math.sin(q.anim_time*90*variable.afspeed-30)*5+math.sin(q.anim_time*90*variable.afspeed*3+90)/5,3,20)+math.sin(q.anim_time*90*variable.afspeed-30)*7)",
							"math.clamp(-5+math.sin(q.anim_time*90*variable.afspeed)*10,-20,3)*0.75"
						],
						"8.0": [
							"-(1-math.cos(q.anim_time*90*variable.afspeed-60)*15/4+math.cos(q.anim_time*90*variable.afspeed*3-180)/2)",
							"(math.clamp(5-math.sin(q.anim_time*90*variable.afspeed-30)*5+math.sin(q.anim_time*90*variable.afspeed*3+90)/5,3,20)+math.sin(q.anim_time*90*variable.afspeed-30)*7)",
							"math.clamp(-5+math.sin(q.anim_time*90*variable.afspeed)*10,-20,3)*0.75"
						],
						"10.0": [
							"-(1-math.cos(q.anim_time*90*variable.afspeed-60)*15/4+math.cos(q.anim_time*90*variable.afspeed*3-180)/2)/8",
							"(math.clamp(5-math.sin(q.anim_time*90*variable.afspeed-30)*5+math.sin(q.anim_time*90*variable.afspeed*3+90)/5,3,20)+math.sin(q.anim_time*90*variable.afspeed-30)*7)/8",
							"math.clamp(-5+math.sin(q.anim_time*90*variable.afspeed)*10,-20,3)*0.75/8"
						]
					},
					"position": {
						"0.0": [-2, "0.4+math.clamp(math.sin(q.anim_time*90*variable.afspeed-60)*3,-2,3)/5/20", 2],
						"6.0": [-2, "0.4+math.clamp(math.sin(q.anim_time*90*variable.afspeed-60)*3,-2,3)/5/20", 2],
						"7.0417": [-2, "0.4+math.clamp(math.sin(q.anim_time*90*variable.afspeed-60)*3,-2,3)/5", 2],
						"8.0": [-2, "0.4+math.clamp(math.sin(q.anim_time*90*variable.afspeed-60)*3,-2,3)/5", 2],
						"10.0": [-2, "0.4+math.clamp(math.sin(q.anim_time*90*variable.afspeed-60)*3,-2,3)/5/20", 2]
					}
				},
				"armor_left2": {
					"rotation": {
						"0.0": [0, 0, "(5+math.sin(q.anim_time*90*variable.afspeed)*10)/8"],
						"6.0": [0, 0, "(5+math.sin(q.anim_time*90*variable.afspeed)*10)/8"],
						"7.0417": [0, 0, "(5+math.sin(q.anim_time*90*variable.afspeed)*10)"],
						"8.0": [0, 0, "(5+math.sin(q.anim_time*90*variable.afspeed)*10)"],
						"10.0": [0, 0, "(5+math.sin(q.anim_time*90*variable.afspeed)*10)/8"]
					}
				},
				"toe_right4": {
					"rotation": ["(-65+math.cos(q.anim_time*90*variable.afspeed-180-120-10-40)*6)", 0, 0]
				},
				"claw_right4": {
					"rotation": [-70, 0, 0]
				},
				"toe_right3": {
					"rotation": ["(45-math.cos(q.anim_time*90*variable.afspeed-180-120-40)*6)", 0, 0]
				},
				"claw_right3": {
					"rotation": [37.5, 0, 0]
				},
				"toe_right2": {
					"rotation": ["(35-math.cos(q.anim_time*90*variable.afspeed-180-120-10-40)*6)", 0, 0]
				},
				"claw_right2": {
					"rotation": [77.5, 0, 0]
				},
				"toe_right": {
					"rotation": ["(35-math.cos(q.anim_time*90*variable.afspeed-180-120-20-40)*6)", 0, 0]
				},
				"claw_right": {
					"rotation": [27.5, 0, 0]
				},
				"toe_left4": {
					"rotation": ["(-65+math.cos(q.anim_time*90*variable.afspeed-180-120-10)*6)", 0, 0]
				},
				"claw_left4": {
					"rotation": [-70, 0, 0]
				},
				"toe_left3": {
					"rotation": ["(45-math.cos(q.anim_time*90*variable.afspeed-180-120)*6)", 0, 0]
				},
				"claw_left3": {
					"rotation": [37.5, 0, 0]
				},
				"toe_left2": {
					"rotation": ["(35-math.cos(q.anim_time*90*variable.afspeed-180-120-10)*6)", 0, 0]
				},
				"claw_left2": {
					"rotation": [77.5, 0, 0]
				},
				"toe_left": {
					"rotation": ["(35-math.cos(q.anim_time*90*variable.afspeed-180-120-20)*6)", 0, 0]
				},
				"claw_left": {
					"rotation": [27.5, 0, 0]
				},
				"scruff_left": {
					"rotation": [0, "-5+math.cos(q.anim_time*90*1*20+30)*1", "1+math.cos(q.anim_time*90*1*20+30)*1"]
				},
				"scruff_right": {
					"rotation": [0, "5-math.cos(q.anim_time*90*1*20+30)*1", "-1-math.cos(q.anim_time*90*1*20+30)*1"]
				},
				"scruff": {
					"rotation": ["5+math.cos(q.anim_time*90*1*20+30)*1", "math.cos(q.anim_time*90*1*20+30)*5", 0]
				},
				"scruff2": {
					"rotation": ["5+math.cos(q.anim_time*90*1*20+80)*2", "math.cos(q.anim_time*90*1*20+60)*6", 0]
				},
				"scruff_left2": {
					"rotation": [0, "-10+math.cos(q.anim_time*90*1*20+60)*2", "2+math.cos(q.anim_time*90*1*20+90)*2"]
				},
				"scruff_right2": {
					"rotation": [0, "10-math.cos(q.anim_time*90*1*20+60)*2", "-2-math.cos(q.anim_time*90*1*20+90)*2"]
				},
				"hair_middle": {
					"rotation": ["-1+math.cos(q.anim_time*90*1+math.random(0,2)*20+30)*1", 0, "math.cos(q.anim_time*90*1*20)*math.random(-1,1)"]
				},
				"hair_left": {
					"rotation": ["-1+math.cos(q.anim_time*90*1+math.random(0,2)*20+30)*1", 0, "-1-math.cos(q.anim_time*90*1*20+30)*1"]
				},
				"hair_right": {
					"rotation": ["-1+math.cos(q.anim_time*90*1+math.random(0,2)*20+30)*1", 0, "1+math.cos(q.anim_time*90*1*20+30)*1"]
				},
				"wing_open_right2": {
					"rotation": {
						"0.0": [0, -1, "(30+(math.sin(q.anim_time*90*variable.afspeed-30)*30-math.clamp(math.sin(q.anim_time*90*variable.afspeed-30)*20,0,30)))*2/8"],
						"6.0": [0, -1, "(30+(math.sin(q.anim_time*90*variable.afspeed-30)*30-math.clamp(math.sin(q.anim_time*90*variable.afspeed-30)*20,0,30)))*2/20"],
						"7.0417": [0, -1, "((math.sin(q.anim_time*90*variable.afspeed-30)*30-math.clamp(math.sin(q.anim_time*90*variable.afspeed-30)*20,0,30)))*2"],
						"8.0": [0, -1, "((math.sin(q.anim_time*90*variable.afspeed-30)*30-math.clamp(math.sin(q.anim_time*90*variable.afspeed-30)*20,0,30)))*2"],
						"9.9583": [0, -1, "(30+(math.sin(q.anim_time*90*variable.afspeed-30)*30-math.clamp(math.sin(q.anim_time*90*variable.afspeed-30)*20,0,30)))*2/8"]
					}
				},
				"wing_open_right3": {
					"rotation": {
						"0.0": [
							0,
							"(((5+math.sin(q.anim_time*90*variable.afspeed+60)*5))/8)",
							"((30+(math.sin(q.anim_time*90*variable.afspeed-60)*30-math.clamp(math.sin(q.anim_time*90*variable.afspeed-60)*20,0,30)))*2/8+math.cos(q.anim_time*90*1*20)*1)"
						],
						"6.0": [
							0,
							"(((5+math.sin(q.anim_time*90*variable.afspeed+60)*5))/20)",
							"((30+(math.sin(q.anim_time*90*variable.afspeed-60)*30-math.clamp(math.sin(q.anim_time*90*variable.afspeed-60)*20,0,30)))*2/20+math.cos(q.anim_time*90*1*20)*1)"
						],
						"7.0417": [
							0,
							"(((2+math.sin(q.anim_time*90*variable.afspeed+60)*1)))",
							"(((math.sin(q.anim_time*90*variable.afspeed-60)*30-math.clamp(math.sin(q.anim_time*90*variable.afspeed-60)*20,0,30)))*2)"
						],
						"8.0": [
							0,
							"(((2 +math.sin(q.anim_time*90*variable.afspeed+60)*1)))",
							"(((math.sin(q.anim_time*90*variable.afspeed-60)*30-math.clamp(math.sin(q.anim_time*90*variable.afspeed-60)*20,0,30)))*2)"
						],
						"9.9583": [
							0,
							"(((5+math.sin(q.anim_time*90*variable.afspeed+60)*5))/8)",
							"((30+(math.sin(q.anim_time*90*variable.afspeed-60)*30-math.clamp(math.sin(q.anim_time*90*variable.afspeed-60)*20,0,30)))*2/8+math.cos(q.anim_time*90*1*20)*1)"
						]
					}
				},
				"wing_open_left2": {
					"rotation": {
						"0.0": [0, 1, "-((30+(math.sin(q.anim_time*90*variable.afspeed-30)*30-math.clamp(math.sin(q.anim_time*90*variable.afspeed-30)*20,0,30)))*2/8)"],
						"6.0": [0, 1, "-((30+(math.sin(q.anim_time*90*variable.afspeed-30)*30-math.clamp(math.sin(q.anim_time*90*variable.afspeed-30)*20,0,30)))*2/20)"],
						"7.0417": [0, 1, "-(((math.sin(q.anim_time*90*variable.afspeed-30)*30-math.clamp(math.sin(q.anim_time*90*variable.afspeed-30)*20,0,30)))*2)"],
						"8.0": [0, 1, "-(((math.sin(q.anim_time*90*variable.afspeed-30)*30-math.clamp(math.sin(q.anim_time*90*variable.afspeed-30)*20,0,30)))*2)"],
						"9.9583": [0, 1, "-((30+(math.sin(q.anim_time*90*variable.afspeed-30)*30-math.clamp(math.sin(q.anim_time*90*variable.afspeed-30)*20,0,30)))*2/8)"]
					}
				},
				"wing_open_left3": {
					"rotation": {
						"0.0": [
							0,
							"-(((5+math.sin(q.anim_time*90*variable.afspeed+60)*5))/8)",
							"-((30+(math.sin(q.anim_time*90*variable.afspeed-60)*30-math.clamp(math.sin(q.anim_time*90*variable.afspeed-60)*20,0,30)))*2/8+math.cos(q.anim_time*90*1*20)*1)"
						],
						"6.0": [
							0,
							"-(((5+math.sin(q.anim_time*90*variable.afspeed+60)*5))/20)",
							"-((30+(math.sin(q.anim_time*90*variable.afspeed-60)*30-math.clamp(math.sin(q.anim_time*90*variable.afspeed-60)*20,0,30)))*2/20+math.cos(q.anim_time*90*1*20)*1)"
						],
						"7.0417": [
							0,
							"-(((2+math.sin(q.anim_time*90*variable.afspeed+60)*1)))",
							"-(((math.sin(q.anim_time*90*variable.afspeed-60)*30-math.clamp(math.sin(q.anim_time*90*variable.afspeed-60)*20,0,30)))*2)"
						],
						"8.0": [
							0,
							"-(((2 +math.sin(q.anim_time*90*variable.afspeed+60)*1)))",
							"-(((math.sin(q.anim_time*90*variable.afspeed-60)*30-math.clamp(math.sin(q.anim_time*90*variable.afspeed-60)*20,0,30)))*2)"
						],
						"9.9583": [
							0,
							"-(((5+math.sin(q.anim_time*90*variable.afspeed+60)*5))/8)",
							"-((30+(math.sin(q.anim_time*90*variable.afspeed-60)*30-math.clamp(math.sin(q.anim_time*90*variable.afspeed-60)*20,0,30)))*2/8+math.cos(q.anim_time*90*1*20)*1)"
						]
					}
				},
				"tail_left": {
					"rotation": ["1+math.cos(q.anim_time*90*1*10+math.random(0,2)*40+30)*1", 0, 0]
				},
				"tail_right": {
					"rotation": ["1+math.cos(q.anim_time*90*1*10+math.random(0,2)*40+30)*1", 0, 0]
				},
				"tail_middle": {
					"rotation": ["2+math.cos(q.anim_time*90*1*10+math.random(0,2)*20+30)*1", 0, 0]
				},
				"tail_left2": {
					"rotation": ["math.cos(q.anim_time*90*1*10+math.random(0,2)*50+30)*1", "math.sin(q.anim_time*90*variable.afspeed*8+60)*0.2", 0]
				},
				"tail_right2": {
					"rotation": ["math.cos(q.anim_time*90*1*10+math.random(0,2)*50+30)*1", "-math.sin(q.anim_time*90*variable.afspeed*8+60)*0.2", 0]
				},
				"chestplate": {
					"rotation": [-12.5, 0, 0],
					"position": [0, 1, -2]
				}
			}
		},
		"animation.corviknight.cry": {
			"animation_length": 3,
			"bones": {
				"neck": {
					"rotation": {
						"0.0833": [0, 0, 0],
						"0.3333": [32.5, 0, 0],
						"0.4167": [35, 0, 0],
						"0.625": [35, "math.sin(q.anim_time*90*20)*0.5", 0],
						"0.875": [35, "math.sin(q.anim_time*90*20)*2", 0],
						"1.2917": [35, "math.sin(q.anim_time*90*20)*0.5", 0],
						"1.3333": [35, 0, 0],
						"1.5833": {
							"pre": [32.5, 0, 0],
							"post": [32.5, 0, 0],
							"lerp_mode": "catmullrom"
						},
						"2.3333": {
							"post": [9, 0, 0],
							"lerp_mode": "catmullrom"
						},
						"2.8333": {
							"post": [0, 0, 0],
							"lerp_mode": "catmullrom"
						}
					},
					"scale": {
						"0.4167": {
							"pre": [1, 1, 1],
							"post": [1, 1, 1],
							"lerp_mode": "catmullrom"
						},
						"0.5417": {
							"post": [0.9, 1, 1],
							"lerp_mode": "catmullrom"
						},
						"1.5": {
							"post": [0.9, 1, 1],
							"lerp_mode": "catmullrom"
						},
						"1.75": [1, 1, 1]
					}
				},
				"head": {
					"rotation": {
						"0.0833": {
							"pre": [0, 0, 0],
							"post": [0, 0, 0],
							"lerp_mode": "catmullrom"
						},
						"0.2083": {
							"post": [-2.31, 0, 0],
							"lerp_mode": "catmullrom"
						},
						"0.3333": [-7.29, 0, 0],
						"0.4167": [-13, 0, 0],
						"0.625": [-38, "-math.sin(q.anim_time*90*20)*0.5", 0],
						"0.9167": [-46, "-math.sin(q.anim_time*90*20)*2", 0],
						"1.2917": [-43.52, 0, 0],
						"1.7917": {
							"pre": [-38.26, 0, 0],
							"post": [-38.26, 0, 0],
							"lerp_mode": "catmullrom"
						},
						"2.8333": {
							"post": [0, 0, 0],
							"lerp_mode": "catmullrom"
						}
					},
					"position": {
						"0.0833": {
							"pre": [0, 0, 0],
							"post": [0, 0, 0],
							"lerp_mode": "catmullrom"
						},
						"0.2917": {
							"post": [0, 0.5, 0.5],
							"lerp_mode": "catmullrom"
						},
						"0.4583": {
							"post": [0, 1.23, 2.03],
							"lerp_mode": "catmullrom"
						},
						"0.5833": {
							"post": [0, 2.25, 3.25],
							"lerp_mode": "catmullrom"
						},
						"0.8333": {
							"post": [0, 2.5, 4.75],
							"lerp_mode": "catmullrom"
						},
						"1.3333": {
							"post": [0, 0.67, 2.91],
							"lerp_mode": "catmullrom"
						},
						"1.7917": {
							"post": [0, 0.12, 2.48],
							"lerp_mode": "catmullrom"
						},
						"2.5417": {
							"post": [0, 0, 0],
							"lerp_mode": "catmullrom"
						}
					},
					"scale": {
						"0.4167": {
							"pre": [1, 1, 1],
							"post": [1, 1, 1],
							"lerp_mode": "catmullrom"
						},
						"0.5417": {
							"post": [1.1, 1, 1],
							"lerp_mode": "catmullrom"
						},
						"1.5": {
							"post": [1.1, 1, 1],
							"lerp_mode": "catmullrom"
						},
						"1.75": [1, 1, 1]
					}
				},
				"beard": {
					"rotation": {
						"0.0833": [0, 0, 0],
						"0.3333": [2.5, 0, 0],
						"0.4583": [15, 0, 0],
						"0.625": [9.44, 0, "-math.sin(q.anim_time*90*20-30)*0.5"],
						"0.8333": ["8+math.sin(q.anim_time*90*40)*1", 0, "-math.sin(q.anim_time*90*20-30)*2"],
						"1.3333": ["10+math.sin(q.anim_time*90*20)*0", 0, 0],
						"1.5833": [14.06, 0, 0],
						"2.1667": [0, 0, 0]
					}
				},
				"beard2": {
					"rotation": {
						"0.0833": {
							"pre": [0, 0, 0],
							"post": [0, 0, 0],
							"lerp_mode": "catmullrom"
						},
						"0.3333": {
							"post": [-27.5, 0, 0],
							"lerp_mode": "catmullrom"
						},
						"0.4583": [-30, 0, 0],
						"0.625": [1.15, 0, 0],
						"0.8333": ["5+math.sin(q.anim_time*90*40-30)*1", 0, "-math.sin(q.anim_time*90*20-60)*10"],
						"1.3333": ["-10+math.sin(q.anim_time*90*20-30)*5", 0, "-math.sin(q.anim_time*90*10-60)*1"],
						"1.5833": [2.5, 0, 0],
						"2.25": [-2.88, 0, 0],
						"2.7917": [0, 0, 0]
					}
				},
				"beard3": {
					"rotation": {
						"0.0833": {
							"pre": [0, 0, 0],
							"post": [0, 0, 0],
							"lerp_mode": "catmullrom"
						},
						"0.3333": {
							"post": [-20.75, 0, 0],
							"lerp_mode": "catmullrom"
						},
						"0.4583": [-5, 0, 0],
						"0.625": [34.72, 0, 0],
						"0.8333": ["0+math.sin(q.anim_time*90*40-60)*5", "math.sin(q.anim_time*90*20-90)*20", 0],
						"1.3333": ["-30+math.sin(q.anim_time*90*30-60)*5", "math.sin(q.anim_time*90*10-60)*5", 0],
						"1.5833": ["-27+math.sin(q.anim_time*90*20-60)*10", 0, 0],
						"1.7083": [-10.53, 0, 0],
						"1.75": {
							"pre": [-0.85, 0, 0],
							"post": [-0.85, 0, 0],
							"lerp_mode": "catmullrom"
						},
						"2.25": {
							"post": [-7.92, 0, 0],
							"lerp_mode": "catmullrom"
						},
						"2.4167": {
							"post": [-7.63, 0, 0],
							"lerp_mode": "catmullrom"
						},
						"2.5417": {
							"post": [0, 0, 0],
							"lerp_mode": "catmullrom"
						}
					}
				},
				"jaw": {
					"rotation": {
						"0.0833": [0, 0, 0],
						"0.3333": [5, 0, 0],
						"0.5833": [12.5, 0, 0],
						"0.6667": [36.5, 0, 0],
						"1.5833": [42, 0, 0],
						"2.0": [7.5, 0, 0],
						"2.1667": [0, 0, 0]
					}
				},
				"scruff": {
					"rotation": {
						"0.5833": [0, 0, 0],
						"0.6667": [22.5, 0, 0],
						"0.8333": [30, 0, 0],
						"1.4167": [32.5, 0, 0],
						"1.5833": [32.5, 0, 0],
						"1.8333": [23, 0, 0],
						"2.0": [0, 0, 0]
					}
				},
				"torso": {
					"rotation": {
						"0.0": {
							"post": [0, 0, 0],
							"lerp_mode": "catmullrom"
						},
						"0.4167": {
							"post": [-2, 0, 0],
							"lerp_mode": "catmullrom"
						},
						"1.0": {
							"post": [4, 0, 0],
							"lerp_mode": "catmullrom"
						},
						"1.75": {
							"post": [-2, 0, 0],
							"lerp_mode": "catmullrom"
						},
						"2.9583": {
							"post": [0, 0, 0],
							"lerp_mode": "catmullrom"
						}
					}
				}
			},
			"sound_effects": {
				"0.5": {
					"effect": "pokemon.corviknight.cry"
				}
			}
		},
		"animation.corviknight.sleep": {
			"loop": true,
			"bones": {
				"body": {
					"position": [0, -15, 0]
				},
				"torso": {
					"rotation": [30, 0, 0],
					"position": [0, 4, 0]
				},
				"neck": {
					"rotation": [-30, 0, 0],
					"position": [0, 1, 0]
				},
				"head": {
					"position": [0, 0, -3]
				},
				"eyelid_right": {
					"position": [-0.25, 0, 0]
				},
				"eyelid_left": {
					"position": [0.25, 0, 0]
				},
				"beard": {
					"rotation": [22.5, 0, 0]
				},
				"scruff_left": {
					"rotation": [0, 10, 0]
				},
				"scruff_right": {
					"rotation": [0, -10, 0]
				},
				"beard2": {
					"rotation": [-17.5, 0, 0]
				},
				"beard3": {
					"rotation": [-17.5, 0, 0]
				},
				"scruff_left2": {
					"rotation": [0, 62.5, 0]
				},
				"scruff_right2": {
					"rotation": [0, -62.5, 0]
				},
				"wing_right": {
					"rotation": [111.32288, 62.81801, 43.49432],
					"position": [-1.25, -9.10825, -0.78349]
				},
				"wing_closed_right2": {
					"rotation": [-1.13397, -45, -1.86603]
				},
				"wing_closed_right3": {
					"rotation": [1, 40, 0]
				},
				"armor_right": {
					"rotation": [-35.94136, -59.69255, 39.55058],
					"position": [-1.8, 1, 7]
				},
				"wing_left": {
					"rotation": [111.32288, -62.81801, -43.49432],
					"position": [1.25, -9.10825, -0.78349]
				},
				"armor_left": {
					"rotation": [-35.94136, 59.69255, -39.55058],
					"position": [1.8, 1, 7]
				},
				"wing_closed_left2": {
					"rotation": [-1.13397, 45, 1.86603]
				},
				"wing_closed_left3": {
					"rotation": [1, -40, 0]
				},
				"tail": {
					"rotation": [7.5, 0, 0]
				},
				"tail_left": {
					"rotation": [-25, 0, 0]
				},
				"tail_right": {
					"rotation": [-25, 0, 0]
				},
				"tail_middle": {
					"rotation": [-22.5, 0, 0]
				},
				"tail_left2": {
					"rotation": [-27.5, 0, 0]
				},
				"tail_right2": {
					"rotation": [-27.5, 0, 0]
				},
				"leg_right2": {
					"rotation": [-80, 0, 0],
					"position": [0, -5, 1]
				},
				"foot_right": {
					"rotation": [17.5, 0, 0],
					"position": [0, 0, -1]
				},
				"toe_right4": {
					"rotation": [-82.5, 0, 0]
				},
				"claw_right4": {
					"rotation": [-60, 0, 0]
				},
				"toe_right3": {
					"rotation": [80, 0, 0]
				},
				"toe_right2": {
					"rotation": [77.5, 0, 0]
				},
				"claw_right2": {
					"rotation": [7.5, 0, 0]
				},
				"toe_right": {
					"rotation": [70, 0, 0]
				},
				"claw_right": {
					"rotation": [12.5, 0, 0]
				},
				"leg_left2": {
					"rotation": [-80, 0, 0],
					"position": [0, -5, 1]
				},
				"foot_left": {
					"rotation": [17.5, 0, 0],
					"position": [0, 0, -1]
				},
				"toe_left4": {
					"rotation": [-82.5, 0, 0]
				},
				"claw_left4": {
					"rotation": [-60, 0, 0]
				},
				"toe_left3": {
					"rotation": [80, 0, 0]
				},
				"toe_left2": {
					"rotation": [77.5, 0, 0]
				},
				"claw_left2": {
					"rotation": [7.5, 0, 0]
				},
				"toe_left": {
					"rotation": [70, 0, 0]
				},
				"claw_left": {
					"rotation": [12.5, 0, 0]
				}
			}
		}
	}
}