{
	"format_version": "1.8.0",
	"animations": {
		"animation.galvantula.idle": {
			"loop": true,
			"bones": {
				"leg_right": {
					"rotation": [0, -25, 0],
					"position": [0, 0, 0]
				},
				"leg_right2": {
					"rotation": [0, 25, 0],
					"position": [0, 0, 0]
				},
				"leg_left": {
					"rotation": [0, 25, 0],
					"position": [0, 0, 0]
				},
				"leg_left2": {
					"rotation": [0, -20, 0],
					"position": [0, 0, 0]
				}
			}
		},
		"animation.galvantula.call": {
			"animation_length": 1.5,
			"bones": {
				"torso": {
					"rotation": {
						"0.0": [0, 0, 0],
						"0.25": [-5, 0, 0],
						"1.25": [-5, 0, 0],
						"1.5": [0, 0, 0]
					}
				},
				"arm_left": {
					"rotation": {
						"0.0": [0, 0, 0],
						"0.25": [0, -5, 0],
						"1.25": [0, -5, 0],
						"1.5": [0, 0, 0]
					}
				},
				"forearm_left": {
					"rotation": {
						"0.0": [0, 0, 0],
						"0.25": [7.5, 0, 0],
						"1.25": [7.5, 0, 0],
						"1.5": [0, 0, 0]
					}
				},
				"forearm_fuzz_left": {
					"rotation": {
						"0.0": [0, 0, 0],
						"0.25": [0, 0, 0],
						"0.3333": [10, 0, 0],
						"0.4167": [0, 0, 0],
						"0.5": [10, 0, 0],
						"0.5833": [0, 0, 0],
						"0.6667": [10, 0, 0],
						"0.75": [0, 0, 0],
						"0.8333": [10, 0, 0],
						"0.9167": [0, 0, 0],
						"1.0": [10, 0, 0],
						"1.0833": [0, 0, 0],
						"1.1667": [10, 0, 0],
						"1.25": [0, 0, 0],
						"1.5": [0, 0, 0]
					}
				},
				"arm_right": {
					"rotation": {
						"0.0": [0, 0, 0],
						"0.25": [0, 5, 0],
						"1.25": [0, 5, 0],
						"1.5": [0, 0, 0]
					}
				},
				"forearm_right": {
					"rotation": {
						"0.0": [0, 0, 0],
						"0.25": [7.5, 0, 0],
						"1.25": [7.5, 0, 0],
						"1.5": [0, 0, 0]
					}
				},
				"forearm_fuzz_right": {
					"rotation": {
						"0.0": [0, 0, 0],
						"0.25": [0, 0, 0],
						"0.3333": [10, 0, 0],
						"0.4167": [0, 0, 0],
						"0.5": [10, 0, 0],
						"0.5833": [0, 0, 0],
						"0.6667": [10, 0, 0],
						"0.75": [0, 0, 0],
						"0.8333": [10, 0, 0],
						"0.9167": [0, 0, 0],
						"1.0": [10, 0, 0],
						"1.0833": [0, 0, 0],
						"1.1667": [10, 0, 0],
						"1.25": [0, 0, 0],
						"1.5": [0, 0, 0]
					}
				}
			}
		},
		"animation.galvantula.blink1": {
			"animation_length": 0.16667,
			"bones": {
				"eyelids_right": {
					"position": {
						"0.0": [-0.1, 0, -0.1],
						"0.125": [-0.1, 0, -0.1],
						"0.1667": [0, 0, 0]
					}
				},
				"eyelids_left": {
					"position": {
						"0.0": [0.1, 0, -0.1],
						"0.125": [0.1, 0, -0.1],
						"0.1667": [0, 0, 0]
					}
				}
			}
		},
		"animation.galvantula.blink2": {
			"animation_length": 0.16667,
			"bones": {
				"forehead_eyelids": {
					"position": {
						"0.0": [0, 0.1, -0.1],
						"0.125": [0, 0.1, -0.1],
						"0.1667": [0, 0, 0]
					}
				}
			}
		}
	}
}