{
	"format_version": "1.8.0",
	"animations": {
		"ground_idle": {
			"loop": true,
			"bones": {
				"tail": {
					"rotation": ["0+math.sin(q.anim_time*90*3+10)*1.5", 0, 0]
				},
				"torso_upper": {
					"rotation": ["7.5+math.sin(q.anim_time*90*1+90)*1.5", 0, 0]
				},
				"head": {
					"rotation": ["2.5+math.sin(q.anim_time*90*2+45)*0.5", 0, 0]
				},
				"nose2": {
					"rotation": ["5+math.sin(q.anim_time*90*2+90)*0.5", 0, 0]
				},
				"nose3": {
					"rotation": ["2.5+math.sin(q.anim_time*90*4+0)*0.5", 0, 0]
				},
				"arm_left": {
					"rotation": [30.22555, -0.67387, "7.9247+math.sin(q.anim_time*90*1+22.5)*2.5"],
					"position": [0, "0+math.sin(q.anim_time*90*1+45)*0.25", 0]
				},
				"arm_left2": {
					"rotation": [0, "42.5+math.sin(q.anim_time*90*1+55)*1", "0+math.sin(q.anim_time*90*1+70)*2.5"]
				},
				"hand_left": {
					"rotation": ["-5.9447+math.sin(q.anim_time*90*1+15)*1", 23.55728, "-2.7772+math.sin(q.anim_time*90*1+65)*1.5"]
				},
				"leg_left": {
					"rotation": [0, -22.5, 0]
				},
				"leg_right": {
					"rotation": [0, 22.5, 0]
				},
				"arm_right": {
					"rotation": [30.22555, 0.67387, "-7.9247+math.sin(q.anim_time*90*1+22.5+180)*2.5"],
					"position": [0, "0+math.sin(q.anim_time*90*1+45)*0.25", 0]
				},
				"arm_right2": {
					"rotation": [0, "-42.5+math.sin(q.anim_time*90*1+55+180)*1", "0+math.sin(q.anim_time*90*1+70+180)*2.5"]
				},
				"hand_right": {
					"rotation": ["-5.9447+math.sin(q.anim_time*90*1+15+180)*1", -23.55728, "2.7772+math.sin(q.anim_time*90*1+65+180)*1.5"]
				},
				"heatmor": {
					"position": {
						"0.0": {
							"post": [0, 0, 0],
							"lerp_mode": "catmullrom"
						}
					}
				},
				"torso": {
					"rotation": ["0+math.sin(q.anim_time*90*1+0)*1.5", 0, 0],
					"position": [0, "0+math.sin(q.anim_time*90*2+22.5)*0.02", 0]
				},
				"neck": {
					"rotation": {
						"0.0": {
							"post": [0, 0, 0],
							"lerp_mode": "catmullrom"
						}
					}
				},
				"nose": {
					"rotation": {
						"0.0": {
							"post": [0, 0, 0],
							"lerp_mode": "catmullrom"
						}
					}
				},
				"claw_left": {
					"rotation": [0, 0, "0+math.sin(q.anim_time*90*1+25)*5.5"]
				},
				"claw_left2": {
					"rotation": {
						"0.0": {
							"post": [0, 0, 0],
							"lerp_mode": "catmullrom"
						}
					}
				},
				"claw_right": {
					"rotation": [0, 0, "0+math.sin(q.anim_time*90*1+25+180)*5.5"]
				},
				"claw_right2": {
					"rotation": {
						"0.0": {
							"post": [0, 0, 0],
							"lerp_mode": "catmullrom"
						}
					}
				}
			}
		},
		"ground_walk": {
			"loop": true,
			"bones": {
				"heatmor": {
					"position": [0, "-0.1+math.clamp(math.sin(query.anim_time*90*6*1-70)*0.5,-0.0,0.2)", 0]
				},
				"torso": {
					"rotation": [
						"7.5+math.sin(q.anim_time*90*6-70+180)*2.5",
						"0+math.sin(q.anim_time*90*3+135)*7.5",
						"math.clamp(math.sin(query.anim_time*90*3*1+110)*6.25,-5,5)"
					]
				},
				"tail": {
					"rotation": ["-5+math.sin(q.anim_time*90*6+300)*5.5", "0+math.sin(q.anim_time*90*3+10)*3.5", 0]
				},
				"torso_upper": {
					"rotation": [
						"7.5+math.sin(q.anim_time*90*6+10)*2",
						"0+math.sin(q.anim_time*90*3+145+180)*4",
						"00+math.clamp(math.sin(query.anim_time*90*3*1+1750+180)*3.5,-3,3)"
					]
				},
				"neck": {
					"rotation": ["-2.5+math.sin(q.anim_time*90*6+80)*1.5", "0+math.sin(q.anim_time*90*3+155+180)*3", "0+math.sin(q.anim_time*90*3+0)*2.5"]
				},
				"head": {
					"rotation": [0, "0+math.sin(q.anim_time*90*3+165+180)*2.5", "0+math.sin(q.anim_time*90*3+200)*1.5"]
				},
				"nose": {
					"rotation": ["0+math.sin(q.anim_time*90*6+110)*1", "0+math.sin(q.anim_time*90*3+165+180)*2.5", 0]
				},
				"nose2": {
					"rotation": [5, "0+math.sin(q.anim_time*90*3+55)*2", 0]
				},
				"nose3": {
					"rotation": ["2.52.5+math.sin(q.anim_time*90*4+0)*2", "0+math.sin(q.anim_time*90*3+70)*2.5", 0]
				},
				"arm_left": {
					"rotation": [35.15412, "15.2173+math.sin(q.anim_time*90*3+134+180)*7.5", "30.7187+math.sin(q.anim_time*90*3+90+180)*5"],
					"position": [0, "0+math.sin(q.anim_time*90*3+270+180)*0.25", 0]
				},
				"arm_left2": {
					"rotation": [0, "47.5+math.sin(q.anim_time*90*3+120)*2", "math.sin(q.anim_time*90*3+45+180)*1"]
				},
				"hand_left": {
					"rotation": [
						"-14.3863+math.sin(q.anim_time*90*3+170+180)*5",
						"28.9583+math.sin(q.anim_time*90*3+200)*3",
						"-18.1339+math.sin(q.anim_time*90*3+90+180)*2"
					]
				},
				"claw_left": {
					"rotation": [0, 0, "0+math.sin(q.anim_time*90*3+100+180)*10"]
				},
				"claw_left2": {
					"rotation": [0, 0, 0]
				},
				"arm_right": {
					"rotation": [30.06414, "-15.7845+math.sin(q.anim_time*90*3+135+180)*7.5", "-29.3353+math.sin(q.anim_time*90*3+90+180)*5"],
					"position": [0, "0+math.sin(q.anim_time*90*3+270)*0.25", 0]
				},
				"arm_right2": {
					"rotation": [0, "-47.5+math.sin(q.anim_time*90*3+120)*2", "math.sin(q.anim_time*90*3+45+180)*1"]
				},
				"hand_right": {
					"rotation": ["-19.6111+math.sin(q.anim_time*90*3+170)*5", "-28.9538+math.sin(q.anim_time*90*3+200)*3", "18.243+math.sin(q.anim_time*90*3+90+180)*2"]
				},
				"claw_right": {
					"rotation": [0, 0, "0+math.sin(q.anim_time*90*3+100+180)*10"]
				},
				"claw_right2": {
					"rotation": [0, 0, 0]
				},
				"leg_left": {
					"rotation": ["10+math.clamp(math.sin(query.anim_time*90*3*1+90)*30,-30,20)", -7.5, 0],
					"position": [0, "0.625+math.clamp(math.sin(query.anim_time*90*3*1+35)*0.5,-0.5,0)", "-0.75+math.sin(q.anim_time*90*3+135+180)*1"]
				},
				"leg_left2": {
					"rotation": ["-7.5+math.clamp(math.sin(query.anim_time*90*3*1-60)*15,-12.5,10)", "math.sin(q.anim_time*90*3+130+)*10", 0],
					"position": [0, "0.0+math.clamp(math.sin(query.anim_time*90*3*1+2450)*1,-0,0.55)", 0]
				},
				"leg_right": {
					"rotation": ["10+math.clamp(math.sin(query.anim_time*90*3*1+90+180)*30,-30,20)", 7.5, 0],
					"position": [0, "0.625+math.clamp(math.sin(query.anim_time*90*3*1+35+180)*0.5,-0.5,0)", "-0.5+math.sin(q.anim_time*90*3+135)*1"]
				},
				"leg_right2": {
					"rotation": ["-7.5+math.clamp(math.sin(query.anim_time*90*3*1-60+180)*15,-12.5,10)", "math.sin(q.anim_time*90*3+130)*10", 0],
					"position": [0, "0.0+math.clamp(math.sin(query.anim_time*90*3*1+2450+180)*1,-0,0.55)", 0]
				},
				"body": {
					"position": [0, "0+math.clamp(math.sin(query.anim_time*90*6*1-160)*0.75,-0.0,0.25)", 0]
				}
			}
		},
		"sleep": {
			"loop": true,
			"bones": {
				"heatmor": {
					"position": [0, -4, 0]
				},
				"tail": {
					"rotation": ["0+math.sin(q.anim_time*90*1+270)*2.5", "0+math.sin(q.anim_time*90*0.5+0)*0.75", 0]
				},
				"torso_upper": {
					"rotation": ["7.5+math.sin(q.anim_time*90*1+45)*1", 0, 0]
				},
				"neck": {
					"rotation": [5, 0, 0]
				},
				"head": {
					"rotation": ["7.5+math.sin(q.anim_time*90*1+75)*1", 0, 0]
				},
				"nose": {
					"rotation": [7.5, 0, 0]
				},
				"nose2": {
					"rotation": ["10+math.sin(q.anim_time*90*1+90)*0.5", 0, 0]
				},
				"eyelid_left": {
					"position": [0.1, 0, 0]
				},
				"eyelid_right": {
					"position": [-0.1, 0, 0]
				},
				"nose3": {
					"rotation": ["7.5+math.sin(q.anim_time*90*1+0)*2", 0, 0]
				},
				"arm_left": {
					"rotation": ["0+math.sin(q.anim_time*90*1+180)*2.5", 0, 42.5],
					"position": [0, "0+math.sin(q.anim_time*90*1+135)*0.25", 0]
				},
				"arm_left2": {
					"rotation": [36.25873, 58.39167, 40.73592]
				},
				"hand_left": {
					"rotation": [14.09973, 29.23136, "9.7784+math.sin(q.anim_time*90*1+270)*5"]
				},
				"claw_left": {
					"rotation": [0, 0, 20]
				},
				"claw_left2": {
					"rotation": [0, 0, 10]
				},
				"arm_right": {
					"rotation": ["0+math.sin(q.anim_time*90*1+180)*2.5", 0, -42.5],
					"position": [0, "0+math.sin(q.anim_time*90*1+135)*0.25", 0]
				},
				"arm_right2": {
					"rotation": [36.25873, -58.39167, -40.73592]
				},
				"hand_right": {
					"rotation": [14.09973, -29.23136, "-9.7784+math.sin(q.anim_time*90*1+270+180)*5"]
				},
				"claw_right": {
					"rotation": [0, 0, -20]
				},
				"claw_right2": {
					"rotation": [0, 0, -10]
				},
				"leg_left": {
					"rotation": [-72.92429, -9.95893, 1.00092]
				},
				"leg_left2": {
					"rotation": [5, 0, 0]
				},
				"leg_right": {
					"rotation": [-72.92429, 9.95893, -1.00092]
				},
				"leg_right2": {
					"rotation": [5, 0, 0]
				}
			}
		},
		"animation.heatmor.call": {
			"loop": true
		},
		"animation.heatmor.ground_idle": {
			"loop": true,
			"bones": {
				"tail": {
					"rotation": ["0+math.sin(q.anim_time*90*3+10)*1.5", 0, 0]
				},
				"torso_upper": {
					"rotation": ["7.5+math.sin(q.anim_time*90*1+90)*1.5", 0, 0]
				},
				"head": {
					"rotation": ["2.5+math.sin(q.anim_time*90*2+45)*0.5", 0, 0]
				},
				"nose2": {
					"rotation": ["5+math.sin(q.anim_time*90*2+90)*0.5", 0, 0]
				},
				"nose3": {
					"rotation": ["2.5+math.sin(q.anim_time*90*4+0)*0.5", 0, 0]
				},
				"arm_left": {
					"rotation": [30.22555, -0.67387, "7.9247+math.sin(q.anim_time*90*1+22.5)*2.5"],
					"position": [0, "0+math.sin(q.anim_time*90*1+45)*0.25", 0]
				},
				"arm_left2": {
					"rotation": [-2.35538, "42.4486+math.sin(q.anim_time*90*1+55)*1", "-3.4343+math.sin(q.anim_time*90*1+70)*2.5"]
				},
				"hand_left": {
					"rotation": ["-5.9447+math.sin(q.anim_time*90*1+15)*1", 23.55728, "-2.7772+math.sin(q.anim_time*90*1+65)*1.5"]
				},
				"leg_left": {
					"rotation": [0, -22.5, 0]
				},
				"leg_right": {
					"rotation": [0, 22.5, 0]
				},
				"arm_right": {
					"rotation": [30.22555, 0.67387, "-7.9247+math.sin(q.anim_time*90*1+22.5+180)*2.5"],
					"position": [0, "0+math.sin(q.anim_time*90*1+45)*0.25", 0]
				},
				"arm_right2": {
					"rotation": [-2.35538, "-42.4486+math.sin(q.anim_time*90*1+55+180)*1", "3.4343+math.sin(q.anim_time*90*1+70+180)*2.5"]
				},
				"hand_right": {
					"rotation": ["-5.9447+math.sin(q.anim_time*90*1+15+180)*1", -23.55728, "2.7772+math.sin(q.anim_time*90*1+65+180)*1.5"]
				},
				"heatmor": {
					"position": {
						"0.0": {
							"post": [0, 0, 0],
							"lerp_mode": "catmullrom"
						}
					}
				},
				"torso": {
					"rotation": ["0+math.sin(q.anim_time*90*1+0)*1.5", 0, 0],
					"position": [0, "0+math.sin(q.anim_time*90*2+22.5)*0.02", 0]
				},
				"neck": {
					"rotation": {
						"0.0": {
							"post": [0, 0, 0],
							"lerp_mode": "catmullrom"
						}
					}
				},
				"nose": {
					"rotation": {
						"0.0": {
							"post": [0, 0, 0],
							"lerp_mode": "catmullrom"
						}
					}
				},
				"claw_left": {
					"rotation": [0, 0, "0+math.sin(q.anim_time*90*1+25)*5.5"]
				},
				"claw_left2": {
					"rotation": {
						"0.0": {
							"post": [0, 0, 0],
							"lerp_mode": "catmullrom"
						}
					}
				},
				"claw_right": {
					"rotation": [0, 0, "0+math.sin(q.anim_time*90*1+25+180)*5.5"]
				},
				"claw_right2": {
					"rotation": {
						"0.0": {
							"post": [0, 0, 0],
							"lerp_mode": "catmullrom"
						}
					}
				}
			}
		},
		"animation.heatmor.ground_walk": {
			"loop": true,
			"bones": {
				"heatmor": {
					"position": [0, "-0.1+math.clamp(math.sin(query.anim_time*90*6*1-70)*0.5,-0.0,0.2)", 0]
				},
				"torso": {
					"rotation": ["12.5+math.sin(q.anim_time*90*6-70+180)*2.5", "0+math.sin(q.anim_time*90*3+160)*7.5", "math.sin(query.anim_time*90*3*1+110)*6.25"],
					"position": [0, "-math.cos(q.anim_time*90*6+120)*0.5", 0]
				},
				"tail": {
					"rotation": ["-5+math.sin(q.anim_time*90*6+300)*5.5", "0+math.sin(q.anim_time*90*3+10)*3.5", 0]
				},
				"torso_upper": {
					"rotation": ["7.5+math.sin(q.anim_time*90*6+10)*2", "0+math.sin(q.anim_time*90*3+145+180)*4", "-2*math.sin(query.anim_time*90*3*1+1750+180)"]
				},
				"neck": {
					"rotation": ["-2.5+math.sin(q.anim_time*90*6+80)*1.5", "0+math.sin(q.anim_time*90*3+155+180)*3", "0+math.sin(q.anim_time*90*3+0)*2.5"]
				},
				"head": {
					"rotation": [0, "0+math.sin(q.anim_time*90*3+165+180)*2.5", "0+math.sin(q.anim_time*90*3+200)*1.5"]
				},
				"nose": {
					"rotation": ["0+math.sin(q.anim_time*90*6+110)*1", "0+math.sin(q.anim_time*90*3+165+180)*2.5", 0]
				},
				"nose2": {
					"rotation": [5, "0+math.sin(q.anim_time*90*3+55)*2", 0]
				},
				"nose3": {
					"rotation": ["2.52.5+math.sin(q.anim_time*90*4+0)*2", "0+math.sin(q.anim_time*90*3+70)*2.5", 0]
				},
				"arm_left": {
					"rotation": [35.15412, "15.2173+math.sin(q.anim_time*90*3+134+180)*7.5", "30.7187+math.sin(q.anim_time*90*6+90+180)*5"],
					"position": [0, "0+math.sin(q.anim_time*90*3+270+180)*0.25", 0]
				},
				"arm_left2": {
					"rotation": [-5.77215, "47.2478+math.sin(q.anim_time*90*3+120)*2", "-7.631+math.sin(q.anim_time*90*3+45+180)*1"]
				},
				"hand_left": {
					"rotation": [
						"-14.3863+math.sin(q.anim_time*90*3+170+180)*5",
						"28.9583+math.sin(q.anim_time*90*3+200)*3",
						"-18.1339+math.sin(q.anim_time*90*3+90+180)*2"
					]
				},
				"claw_left": {
					"rotation": [0, 0, "0+math.sin(q.anim_time*90*3+100+180)*10"]
				},
				"claw_left2": {
					"rotation": [0, 0, 0]
				},
				"arm_right": {
					"rotation": [30.06414, "-15.7845+math.sin(q.anim_time*90*3+135+180)*7.5", "-29.3353+math.sin(q.anim_time*90*6+90+180)*5"],
					"position": [0, "0+math.sin(q.anim_time*90*3+270)*0.25", 0]
				},
				"arm_right2": {
					"rotation": [-5.11571, "-47.2765+math.sin(q.anim_time*90*3+120)*2", "7.1487+math.sin(q.anim_time*90*3+45+180)*1"]
				},
				"hand_right": {
					"rotation": ["-19.6111+math.sin(q.anim_time*90*3+170)*5", "-28.9538+math.sin(q.anim_time*90*3+200)*3", "18.243+math.sin(q.anim_time*90*3+90+180)*2"]
				},
				"claw_right": {
					"rotation": [0, 0, "0+math.sin(q.anim_time*90*3+100+180)*10"]
				},
				"claw_right2": {
					"rotation": [0, 0, 0]
				},
				"leg_left": {
					"rotation": ["16.692+math.sin(query.anim_time*90*3*1+90)*30", "6.8447+math.sin(query.anim_time*90*3*1+150)*10", 4.47056],
					"position": [
						"-0.9+math.cos(q.anim_time*90*3+70)*0.5",
						"math.sin(q.anim_time*90*3+90)*1+math.clamp(-math.sin(q.anim_time*90*3+90)*1,0,1)",
						"-math.cos(q.anim_time*90*3+120)*1.5"
					]
				},
				"leg_left2": {
					"rotation": ["-7.5+math.sin(query.anim_time*90*3*1-60+180)*-15+math.clamp(30*math.sin(query.anim_time*90*3*1-60),0,90)", 0, 0],
					"position": [0, "0.0+math.clamp(math.sin(query.anim_time*90*3*1+2450-180)*1,-0,0.55)", 0]
				},
				"leg_right": {
					"rotation": ["16.692+math.sin(query.anim_time*90*3*1+90+180)*30", "-6.8447+math.sin(query.anim_time*90*3*1+150)*10", -4.47056],
					"position": [
						"0.9+math.cos(q.anim_time*90*3+70)*0.5",
						"-math.sin(q.anim_time*90*3+90)*1+math.clamp(-math.sin(q.anim_time*90*3+90+180)*1,0,1)",
						"math.cos(q.anim_time*90*3+120)*1.5"
					]
				},
				"leg_right2": {
					"rotation": ["-7.5+math.sin(query.anim_time*90*3*1-60+180)*15+math.clamp(30*math.sin(query.anim_time*90*3*1-60+180),0,90)", 0, 0],
					"position": [0, "0.0+math.clamp(math.sin(query.anim_time*90*3*1+2450)*1,-0,0.55)", 0]
				},
				"body": {
					"position": ["-math.cos(q.anim_time*90*3+60)*0.1", 0, "math.cos(q.anim_time*90*6+60)*0.2"]
				}
			}
		},
		"animation.heatmor.sleep": {
			"loop": true,
			"bones": {
				"heatmor": {
					"position": [0, -4, 0]
				},
				"tail": {
					"rotation": ["0+math.sin(q.anim_time*90*1+270)*2.5", "0+math.sin(q.anim_time*90*0.5+0)*0.75", 0]
				},
				"torso_upper": {
					"rotation": ["7.5+math.sin(q.anim_time*90*1+45)*1", 0, 0]
				},
				"neck": {
					"rotation": [5, 0, 0]
				},
				"head": {
					"rotation": ["7.5+math.sin(q.anim_time*90*1+75)*1", 0, 0]
				},
				"nose": {
					"rotation": [7.5, 0, 0]
				},
				"nose2": {
					"rotation": ["10+math.sin(q.anim_time*90*1+90)*0.5", 0, 0]
				},
				"eyelid_left": {
					"position": [0.1, 0, 0]
				},
				"eyelid_right": {
					"position": [-0.1, 0, 0]
				},
				"nose3": {
					"rotation": ["7.5+math.sin(q.anim_time*90*1+0)*2", 0, 0]
				},
				"arm_left": {
					"rotation": ["0+math.sin(q.anim_time*90*1+180)*2.5", 0, 42.5],
					"position": [0, "0+math.sin(q.anim_time*90*1+135)*0.25", 0]
				},
				"arm_left2": {
					"rotation": [36.25873, 58.39167, 40.73592]
				},
				"hand_left": {
					"rotation": [14.09973, 29.23136, "9.7784+math.sin(q.anim_time*90*1+270)*5"]
				},
				"claw_left": {
					"rotation": [0, 0, 20]
				},
				"claw_left2": {
					"rotation": [0, 0, 10]
				},
				"arm_right": {
					"rotation": ["0+math.sin(q.anim_time*90*1+180)*2.5", 0, -42.5],
					"position": [0, "0+math.sin(q.anim_time*90*1+135)*0.25", 0]
				},
				"arm_right2": {
					"rotation": [36.25873, -58.39167, -40.73592]
				},
				"hand_right": {
					"rotation": [14.09973, -29.23136, "-9.7784+math.sin(q.anim_time*90*1+270+180)*5"]
				},
				"claw_right": {
					"rotation": [0, 0, -20]
				},
				"claw_right2": {
					"rotation": [0, 0, -10]
				},
				"leg_left": {
					"rotation": [-72.92429, -9.95893, 1.00092]
				},
				"leg_left2": {
					"rotation": [5, 0, 0]
				},
				"leg_right": {
					"rotation": [-72.92429, 9.95893, -1.00092]
				},
				"leg_right2": {
					"rotation": [5, 0, 0]
				}
			}
		},
		"animation.heatmor.cry": {
			"loop": true
		},
		"animation.heatmor.blink": {
			"animation_length": 0.16667,
			"bones": {
				"eyelid_left": {
					"position": {
						"0.0": [0.1, 0, 0],
						"0.125": [0.1, 0, 0],
						"0.1667": [0, 0, 0]
					}
				},
				"eyelid_right": {
					"position": {
						"0.0": [-0.1, 0, 0],
						"0.125": [-0.1, 0, 0],
						"0.1667": [0, 0, 0]
					}
				}
			}
		}
	}
}