{
	"format_version": "1.8.0",
	"animations": {
		"animation.spewpa.ground_idle": {
			"loop": true,
			"bones": {
				"head": {
					"rotation": ["math.sin(q.anim_time*90+90)", "-1.25*math.sin(q.anim_time*90*2+15)", 0],
					"position": [0, "-0.1+0.1*math.sin(q.anim_time*90)", 0]
				},
				"body": {
					"rotation": [0, "1.25*math.sin(q.anim_time*90*2)", 0]
				},
				"fluff": {
					"rotation": [0, "0.5*math.sin(q.anim_time*90*2-90)", 0]
				}
			}
		},
		"animation.spewpa.ground_walk": {
			"loop": true,
			"bones": {
				"body": {
					"rotation": ["-math.cos(q.anim_time*90*2+30)*1+math.cos(q.anim_time*90*2*4+70)*0.1", "-0.6+math.cos(q.anim_time*90*1*4)*3 ", 0],
					"position": [
						0,
						"-0.2+math.clamp(math.sin(q.anim_time*90*2-20)*0.2, 0, 1 )",
						"-0.1+math.cos(q.anim_time*90*2)*0.5+math.clamp(math.cos(q.anim_time*90*2-50)*0.5, 0, 1)"
					]
				},
				"head": {
					"rotation": ["math.cos(q.anim_time*90*2+30)*1", 0, 0]
				},
				"fluff": {
					"rotation": [0, "math.cos(q.anim_time*90*4-90)*4", 0],
					"position": [0, 0.2, 0]
				},
				"body2": {
					"rotation": ["2-math.cos(q.anim_time*90*2+60)*2", 0, 0],
					"position": [0, "0.2-math.cos(q.anim_time*90*2*2+90)*0.05", 0]
				}
			}
		},
		"animation.spewpa.ground_run": {
			"loop": true,
			"bones": {
				"spewpa": {
					"position": [0, 0.1, 0]
				},
				"body": {
					"rotation": [
						"-5+(-20+math.clamp(35-math.cos(q.anim_time*90*3+30)*6+math.cos(q.anim_time*90*3*4+70)*0.5, 30, 90))",
						"-0.6+math.cos(q.anim_time*90*3*2)*2",
						0
					],
					"position": [0, "math.clamp(math.sin(q.anim_time*90*3-20)*0.2, -0.1, 1)", "-0.6+math.cos(q.anim_time*90*3)*1"]
				},
				"fluff": {
					"rotation": [0, 0, 0],
					"position": [0, "0.3+math.sin(q.anim_time*90*3-50)*0.1", "math.clamp(math.sin(q.anim_time*90*3-50)*0.3, 0, 1) "]
				},
				"fluff_out_left": {
					"rotation": [-10, 0, "-(13+math.clamp(35-math.cos(q.anim_time*90*3+30)*5+math.cos(q.anim_time*90*3*4+70)*1, 30, 90))"]
				},
				"fluff_out_right": {
					"rotation": [-10, 0, "13+math.clamp(35-math.cos(q.anim_time*90*3+30)*5+math.cos(q.anim_time*90*3*4+70)*1, 30, 90)"]
				},
				"fluff_out_back": {
					"rotation": ["10+math.clamp(45-math.cos(q.anim_time*90*3+30)*15+math.cos(q.anim_time*90*3*4+70)*1, 30, 90)", 0, 0]
				},
				"head": {
					"rotation": ["-5+math.cos(q.anim_time*90*3+30)*6", 0, 0]
				},
				"body2": {
					"rotation": ["4-math.cos(q.anim_time*90*3+60)*9", 0, 0],
					"position": [0, "0.25-math.cos(q.anim_time*90*3*2+90)*0.1-math.clamp(math.cos(q.anim_time*90*3+90)*0.2,0,0.2)", 0]
				}
			}
		},
		"animation.spewpa.blink": {
			"animation_length": 0.20833,
			"bones": {
				"eyelid_left": {
					"position": {
						"0.0": [0.1, 0, -0.1],
						"0.1667": [0.1, 0, -0.1],
						"0.2083": [0, 0, 0]
					}
				},
				"eyelid_right": {
					"position": {
						"0.0": [-0.1, 0, -0.1],
						"0.1667": [-0.1, 0, -0.1],
						"0.2083": [0, 0, 0]
					}
				}
			}
		},
		"animation.spewpa.cry": {
			"animation_length": 1,
			"bones": {
				"head": {
					"rotation": {
						"0.0": {
							"post": [0, 0, 0],
							"lerp_mode": "catmullrom"
						},
						"0.125": {
							"post": [2.5, 0, 0],
							"lerp_mode": "catmullrom"
						},
						"0.3333": {
							"post": [-5, 0, 0],
							"lerp_mode": "catmullrom"
						},
						"0.75": {
							"post": [-5, 0, 0],
							"lerp_mode": "catmullrom"
						},
						"1.0": {
							"post": [0, 0, 0],
							"lerp_mode": "catmullrom"
						}
					}
				}
			}
		},
		"animation.spewpa.pose": {
			"loop": true,
			"bones": {
				"fluff_out_left": {
					"rotation": [0, 0, -100]
				},
				"fluff_out_right": {
					"rotation": [0, 0, 100]
				},
				"fluff_out_front": {
					"rotation": [-100, 0, 0]
				},
				"fluff_out_back": {
					"rotation": [100, 0, 0]
				},
				"head": {
					"rotation": [12.5, 0, 0]
				},
				"body": {
					"rotation": [-17.5, 0, -10],
					"position": [0, 1.2, 0]
				}
			}
		},
		"animation.spewpa.faint": {
			"loop": true,
			"animation_length": 2.6667,
			"bones": {
				"body": {
					"rotation": {
						"0.0": ["math.random(-0.2, 0.2)*1", 0, "math.random(-0.2, 0.2)*1"],
						"0.6667": ["math.random(-0.2, 0.2)*4", 0, "math.random(-0.2, 0.2)*4"],
						"0.9167": ["math.random(-0.2, 0.2)*6", 0, "math.random(-0.2, 0.2)*6"],
						"1.125": ["2+math.random(-0.2, 0.2)*8", 0, "math.random(-0.2, 0.2)*8"],
						"1.2917": ["10+math.random(0, 0.2)*2", 0, "math.random(0, 0.2)*2"],
						"1.375": ["8+math.random(0, 0.2)*2", 0, "math.random(0, 0.2)*2"],
						"1.4167": ["math.random(0, 0.2)*2", 0, "math.random(0, 0.2)*2"],
						"1.5417": [2.61, 0, 0.09],
						"1.625": [-29.89, 0, 0.09],
						"1.875": [-87.5, 0, 0],
						"1.9167": [-77.5, 0, 0],
						"2.0": [-86.11, 0, 0],
						"2.6667": [-87.5, 0, 0]
					},
					"position": {
						"0.25": {
							"pre": [0, 0, 0],
							"post": [0, 0, 0],
							"lerp_mode": "catmullrom"
						},
						"0.6667": {
							"post": [0, 0, 0],
							"lerp_mode": "catmullrom"
						},
						"0.875": {
							"post": [0, 0, 0],
							"lerp_mode": "catmullrom"
						},
						"1.0833": {
							"post": [0, 0.05, 0],
							"lerp_mode": "catmullrom"
						},
						"1.2083": {
							"post": [0, 0.22, 0],
							"lerp_mode": "catmullrom"
						},
						"1.2917": {
							"post": [0, 0.4, 0],
							"lerp_mode": "catmullrom"
						},
						"1.375": {
							"post": [0, 0.4, 0],
							"lerp_mode": "catmullrom"
						},
						"1.4583": {
							"post": [0, -1, 0],
							"lerp_mode": "catmullrom"
						},
						"1.5833": {
							"post": [0, 1, 0.1],
							"lerp_mode": "catmullrom"
						},
						"1.625": {
							"post": [0, 2, 1],
							"lerp_mode": "catmullrom"
						},
						"1.6667": {
							"post": [0, 3, 2],
							"lerp_mode": "catmullrom"
						},
						"1.75": {
							"post": [0, 2, 4],
							"lerp_mode": "catmullrom"
						},
						"1.9167": {
							"post": [0, 0.16, 8.56],
							"lerp_mode": "catmullrom"
						},
						"1.9583": {
							"post": [0, -0.3, 9.7],
							"lerp_mode": "catmullrom"
						},
						"2.0417": {
							"post": [0, 0.29, 10.73],
							"lerp_mode": "catmullrom"
						},
						"2.125": {
							"post": [0, -0.26, 11.78],
							"lerp_mode": "catmullrom"
						},
						"2.1667": {
							"post": [0, -0.04, 12.24],
							"lerp_mode": "catmullrom"
						},
						"2.25": [0, -0.2, 13.15],
						"2.3333": [0, -0.3, 13.33],
						"2.4167": [0, -0.3, 13.51],
						"2.5": [0, -0.3, 13.7]
					},
					"scale": {
						"1.4167": [1, 1, 1],
						"1.4583": [1, 0.9, 1],
						"1.625": [1, 1, 1]
					}
				},
				"fluff": {
					"rotation": {
						"1.75": [0, 0, 0],
						"1.875": [-4, 0, 0],
						"1.9583": [-6, 0, 0],
						"2.4583": [-6, 0, 0]
					},
					"position": {
						"0.0": ["math.random(-0.2, 0.2)*0.1", 0, "math.random(-0.2, 0.2)*0.1"],
						"1.125": ["math.random(-0.2, 0.2)*1", 0, "math.random(-0.2, 0.2)*1"],
						"1.5": [-0.04, 0, -0.03],
						"1.5417": [-0.03, 0.75, -0.02],
						"1.5833": [-0.03, -0.09, -0.02],
						"1.625": [-0.03, 0.17, -0.02],
						"1.875": [0, 0, 0],
						"1.9583": [0, -0.75, -0.61],
						"2.25": [0, -2.52, -0.72],
						"2.4583": [0, -2.79, -0.8],
						"2.5": [0, -2.89, -0.8]
					},
					"scale": {
						"1.375": [1, 1, 1],
						"1.4167": [0.95, 0.95, 0.95],
						"1.4583": [0.95, 0.92, 0.95],
						"1.5417": [1.25, 0.9, 1.25],
						"1.625": [1.25, 0.9, 1.25],
						"1.6667": [1, 1, 1]
					}
				},
				"fluff_out_left": {
					"rotation": {
						"1.4167": [0, 0, 0],
						"1.4583": [0, 0, -100],
						"1.5417": [0, 0, -100],
						"1.625": [0, 0, -100],
						"1.6667": [0, 0, -95],
						"1.75": [0, 0, -100],
						"1.8333": [0, 0, -54],
						"1.9583": [0, 0, -53],
						"2.4167": [0, 0, -30]
					},
					"scale": {
						"1.4167": [1, 1, 1],
						"1.4583": [1, 1, 0.8],
						"1.5417": [1, 1.4, 1],
						"1.625": [1, 1.4, 1],
						"1.6667": [1, 1.2, 1.4],
						"1.7917": [1, 1, 1]
					}
				},
				"fluff_out_right": {
					"rotation": {
						"1.4167": [0, 0, 0],
						"1.4583": [0, 0, 100],
						"1.5417": [0, 0, 100],
						"1.625": [0, 0, 100],
						"1.6667": [0, 0, 95],
						"1.75": [0, 0, 100],
						"1.8333": [0, 0, 54],
						"1.9583": [0, 0, 53],
						"2.4167": [0, 0, 30]
					},
					"scale": {
						"1.4167": [1, 1, 1],
						"1.4583": [1, 1, 0.8],
						"1.5417": [1, 1.4, 1],
						"1.625": [1, 1.4, 1],
						"1.6667": [1, 1.2, 1.4],
						"1.7917": [1, 1, 1]
					}
				},
				"fluff_out_front": {
					"rotation": {
						"1.4167": [0, 0, 0],
						"1.4583": [-100, 0, 0],
						"1.5417": [-100, 0, 0],
						"1.625": [-100, 0, 0],
						"1.6667": [-85, 0, 0],
						"1.75": [-100, 0, 0],
						"1.8333": [-20, 0, 0],
						"1.875": [12.5, 0, 0],
						"2.0": [14, 0, 0],
						"2.5": [60, 0, 0]
					},
					"position": {
						"1.8333": [0, 0, 0],
						"1.875": [0, 0, -0.4]
					},
					"scale": {
						"1.4167": [1, 1, 1],
						"1.4583": [0.8, 1, 1],
						"1.5417": [1, 1.4, 1],
						"1.625": [1, 1.4, 1],
						"1.6667": [1.4, 1.2, 1],
						"1.7917": [1, 1, 1]
					}
				},
				"fluff_out_back": {
					"rotation": {
						"1.4167": [0, 0, 0],
						"1.4583": [100, 0, 0],
						"1.7083": [68, 0, 0],
						"1.75": [20, 0, 0],
						"1.7917": [10, 0, 0],
						"2.0": [0, 0, 0],
						"2.5": [-30, 0, 0]
					},
					"position": {
						"1.8333": [0, 0, 0],
						"1.875": [0, 0, 0.4]
					},
					"scale": {
						"1.4167": [1, 1, 1],
						"1.4583": [0.8, 1, 1],
						"1.5417": [1, 1.2, 1],
						"1.625": [1, 1.2, 1],
						"1.6667": [1.4, 1.1, 1],
						"1.7917": [1, 1, 1]
					}
				},
				"eyelid_left": {
					"position": {
						"1.375": [0, 0, 0],
						"1.4167": {"pre": [0, 0, 0], "post": [0.1, 0, -0.1]}
					}
				},
				"eyelid_right": {
					"position": {
						"1.375": [0, 0, 0],
						"1.4167": {"pre": [0, 0, 0], "post": [-0.1, 0, -0.1]}
					}
				}
			},
			"particle_effects": {
				"1.4583": {
					"effect": "confetti",
					"locator": "confetti"
				}
			}
		},
		"animation.spewpa.sleep": {
			"loop": true,
			"bones": {
				"body": {
					"position": [0, "-0.5+math.cos(q.anim_time*90*1/2+0)*0.1", 0]
				},
				"fluff": {
					"position": [0, "-(-0.5+math.cos(q.anim_time*90*1/2+0)*0.1)", 0],
					"scale": ["1.02+math.cos(q.anim_time*90*1/2)*0.01", "0.98-math.cos(q.anim_time*90*1/2)*0.02", "1.02+math.cos(q.anim_time*90*1/2)*0.01"]
				},
				"fluff_out_left": {
					"rotation": [0, 0, "-math.cos(q.anim_time*90*1/2-30)*4-math.cos(q.anim_time*90*1-30)*2-math.cos(q.anim_time*90*5/3-30)*1"]
				},
				"fluff_out_right": {
					"rotation": [0, 0, "math.cos(q.anim_time*90*1/2-30)*4+math.cos(q.anim_time*90*1-30)*2+math.cos(q.anim_time*90*5/3-30)*1"]
				},
				"fluff_out_front": {
					"rotation": ["-math.cos(q.anim_time*90*1/2-30)*4-math.cos(q.anim_time*90*1-30)*2-math.cos(q.anim_time*90*5/3-30)*1", 0, 0]
				},
				"fluff_out_back": {
					"rotation": ["math.cos(q.anim_time*90*1/2-30)*4+math.cos(q.anim_time*90*1-30)*2+math.cos(q.anim_time*90*5/3-30)*1", 0, 0]
				},
				"head": {
					"rotation": [13, 0, 0],
					"position": [0, 0, 0.2]
				},
				"eyelid_left": {
					"position": [0.1, 0, -0.1]
				},
				"eyelid_right": {
					"position": [-0.1, 0, -0.1]
				},
				"body2": {
					"position": [0, "-(-0.5+math.cos(q.anim_time*90*1/2+0)*0.1)", 0]
				}
			}
		},
		"animation.spewpa.quirk_fluff": {
			"animation_length": 1.54167,
			"bones": {
				"fluff": {
					"rotation": [0, 0, 0],
					"position": [0, 0, 0],
					"scale": {
						"0.0": [1, 1, 1],
						"0.0417": [0.95, 0.95, 0.95],
						"0.0833": [0.95, 0.92, 0.95],
						"0.1667": [1.25, 0.9, 1.25],
						"0.25": [1.25, 0.9, 1.25],
						"0.2917": [1, 1, 1]
					}
				},
				"fluff_out_left": {
					"rotation": {
						"0.0833": [0, 0, 0],
						"0.125": [0, 0, -100],
						"0.8333": [0, 0, -100],
						"0.875": [0, 0, "-95-math.sin(q.anim_time*90*60)*3"],
						"1.1667": [0, 0, "-70-math.sin(q.anim_time*90*100)*5"],
						"1.2917": [0, 0, "-60-math.sin(q.anim_time*90*100)*5"],
						"1.375": [0, 0, 0]
					},
					"position": {
						"0.0": [0, 0, 0],
						"1.0": [0, 0, 0],
						"1.375": [0, 0, 0]
					},
					"scale": {
						"0.0": [1, 1, 1],
						"0.0833": [1, 1, 1],
						"0.125": [1, 1.3, 1],
						"0.2083": [1, 1.3, 1],
						"0.2917": [1, 1.2, 1],
						"0.3333": [1, 1.1, 1],
						"0.4583": [1, 1, 1],
						"1.0417": [1, 1, 1],
						"1.3333": [1, 0, 1],
						"1.375": [1, 1, 1]
					}
				},
				"fluff_out_right": {
					"rotation": {
						"0.0833": [0, 0, 0],
						"0.125": [0, 0, 100],
						"0.8333": [0, 0, 100],
						"0.875": [0, 0, "95-math.sin(q.anim_time*90*60)*3"],
						"1.0": [0, 0, 90],
						"1.1667": [0, 0, "70-math.sin(q.anim_time*90*100)*5"],
						"1.2917": [0, 0, "60-math.sin(q.anim_time*90*100)*5"],
						"1.375": [0, 0, 0]
					},
					"position": {
						"0.0": [0, 0, 0],
						"1.0": [0, 0, 0],
						"1.375": [0, 0, 0]
					},
					"scale": {
						"0.0": [1, 1, 1],
						"0.0833": [1, 1, 1],
						"0.125": [1, 1.3, 1],
						"0.2083": [1, 1.3, 1],
						"0.2917": [1, 1.2, 1],
						"0.3333": [1, 1.1, 1],
						"0.4583": [1, 1, 1],
						"1.0": [1, 1, 1],
						"1.0417": [1, 1, 1],
						"1.3333": [1, 0, 1],
						"1.375": [1, 1, 1]
					}
				},
				"fluff_out_front": {
					"rotation": {
						"0.0833": [0, 0, 0],
						"0.125": [-100, 0, 0],
						"0.8333": [-100, 0, 0],
						"0.875": ["-95-math.sin(q.anim_time*90*60)*3", 0, 0],
						"1.1667": ["-70-math.sin(q.anim_time*90*100)*5", 0, 0],
						"1.2917": ["-60-math.sin(q.anim_time*90*100)*5", 0, 0],
						"1.375": [0, 0, 0]
					},
					"position": {
						"0.0": [0, 0, 0],
						"1.0": [0, 0, 0],
						"1.375": [0, 0, 0]
					},
					"scale": {
						"0.0": [1, 1, 1],
						"0.0833": [1, 1, 1],
						"0.125": [1, 1, 1],
						"0.2083": [1, 1.3, 1],
						"0.2917": [1, 1.2, 1],
						"0.3333": [1, 1.1, 1],
						"0.4583": [1, 1, 1],
						"1.0417": [1, 1, 1],
						"1.3333": [1, 0, 1],
						"1.375": [1, 1, 1]
					}
				},
				"fluff_out_back": {
					"rotation": {
						"0.0833": [0, 0, 0],
						"0.125": [100, 0, 0],
						"0.8333": [100, 0, 0],
						"0.875": ["95-math.sin(q.anim_time*90*60)*3", 0, 0],
						"1.1667": ["70-math.sin(q.anim_time*90*100)*5", 0, 0],
						"1.2917": ["60-math.sin(q.anim_time*90*100)*5", 0, 0],
						"1.375": [0, 0, 0]
					},
					"position": {
						"0.0": [0, 0, 0],
						"1.0": [0, 0, 0],
						"1.375": [0, 0, 0]
					},
					"scale": {
						"0.0": [1, 1, 1],
						"0.0833": [1, 1, 1],
						"0.125": [1, 1, 1],
						"0.2083": [1, 1.3, 1],
						"0.2917": [1, 1.2, 1],
						"0.3333": [1, 1.1, 1],
						"0.4583": [1, 1, 1],
						"1.0417": [1, 1, 1],
						"1.3333": [1, 0, 1],
						"1.375": [1, 1, 1]
					}
				}
			},
			"particle_effects": {
				"0.125": {
					"effect": "confetti",
					"locator": "confetti"
				}
			}
		}
	}
}