{
	"format_version": "1.8.0",
	"animations": {
		"animation.tinkatuff.ground_idle": {
			"loop": true,
			"bones": {
				"tail": {
					"rotation": [12.5, 0, 0]
				},
				"tail2": {
					"rotation": [12.5, 0, 0]
				},
				"arm_right": {
					"rotation": [55.98303, 0.22836, "-40.7651+Math.cos((query.anim_time) * 90 * 2 - 120) * 1"],
					"position": [-0.25, -0.5, 0]
				},
				"arm_right2": {
					"rotation": [0, -45, 0]
				},
				"finger_right": {
					"rotation": [0, 0, -5]
				},
				"finger_right2": {
					"rotation": [0, -10, 37.5]
				},
				"arm_left": {
					"rotation": [-84.39003, 4.58778, "53.5046+Math.cos((query.anim_time) * 90 * 2 - 120) * 1"]
				},
				"arm_left2": {
					"rotation": [0, -15, 55]
				},
				"finger_left": {
					"rotation": [0, 0, -25]
				},
				"finger_left2": {
					"rotation": [20, 0, 0]
				},
				"hand_left": {
					"rotation": [0, 17.5, 0]
				},
				"hand_right": {
					"rotation": [0, -17.5, 0]
				},
				"leg_left": {
					"rotation": [0, -12.5, -5]
				},
				"leg_right": {
					"rotation": [0, 12.5, 5]
				},
				"finger_left3": {
					"rotation": [0, 0, 57.5]
				},
				"finger_right3": {
					"rotation": [0, 0, -20]
				},
				"hammer": {
					"rotation": [-2.18122, -7.58318, 51.29667]
				},
				"skirt_left": {
					"rotation": [-10, 0, "-15+Math.cos((query.anim_time) * 90 * 2 - 150) * 2"]
				},
				"skirt_right": {
					"rotation": [-10, 0, "15+Math.cos((query.anim_time) * 90 * 2 - 150) * -2"]
				},
				"leg_left2": {
					"rotation": [2.5, 0, 0]
				},
				"leg_right2": {
					"rotation": [2.5, 0, 0]
				},
				"body": {
					"position": [0, 0.1, 0]
				},
				"torso": {
					"rotation": ["-10+Math.cos((query.anim_time) * 90 * 2 - 90) * -1", 0, 0],
					"position": [0, "0+Math.cos((query.anim_time) * 90 * 2) * -0.15", 0]
				},
				"head": {
					"rotation": ["12.5+Math.cos((query.anim_time) * 90 * 2 - 50) * 2", 0, 0]
				},
				"mouth_closed": {
					"position": [0, 0, 0]
				},
				"ponytail": {
					"rotation": ["0+Math.cos((query.anim_time) * 90 * 2 - 120) * 1", 0, 0]
				},
				"hair3": {
					"rotation": ["0+Math.cos((query.anim_time) * 90 * 2 - 120) * 1", 0, 0]
				},
				"arm_hammer_right2": {
					"rotation": [0, -45, 0]
				},
				"arm_hammer_right": {
					"rotation": [55.98303, 0.22836, "-40.7651+Math.cos((query.anim_time) * 90 * 2 - 120) * 1"]
				}
			}
		},
		"animation.tinkatuff.ground_walk": {
			"loop": true,
			"animation_length": 1,
			"bones": {
				"body": {
					"position": [0, 0.5, 0]
				},
				"torso": {
					"rotation": ["5+Math.cos((query.anim_time) * 90 * 8 - 90) * -2", 0, 0],
					"position": [0, "0+Math.cos((query.anim_time) * 90 * 8) * -0.3", 0]
				},
				"arm_left": {
					"rotation": [-110, 7.5, "52.5+Math.cos((query.anim_time) * 90 * 8 - 130) * -6"]
				},
				"arm_left2": {
					"rotation": [-12.2356, -9.15078, 78.15894]
				},
				"arm_hammer_right": {
					"rotation": [30, -10, "-35+Math.cos((query.anim_time) * 90 * 8 - 130) * -2"]
				},
				"arm_hammer_right2": {
					"rotation": [0, -60, 0]
				},
				"hammer": {
					"rotation": [15, -10, 0]
				},
				"arm_right": {
					"rotation": [30, -10, "-35+Math.cos((query.anim_time) * 90 * 8 - 130) * -2"]
				},
				"arm_right2": {
					"rotation": [0, -60, 0]
				},
				"head": {
					"rotation": ["-2.5+Math.cos((query.anim_time) * 90 * 8 - 60) * 2", 0, 0]
				},
				"leg_left": {
					"rotation": {
						"0.0": [-50, 0, 0],
						"0.0417": [-45.62, 0, 0],
						"0.3333": [1.67, 0, 0],
						"0.5": [12.5, 0, 0],
						"0.6667": [1.67, 0, 0],
						"0.9583": [-46.12, 0, 0],
						"1.0": [-50, 0, 0]
					},
					"position": {
						"0.0": [0, 0.25, 0],
						"0.25": [0, -0.5, 0],
						"0.5": [0, -0.5, 0],
						"0.75": [0, 0.5, 0],
						"1.0": [0, 0.25, 0]
					}
				},
				"leg_left2": {
					"rotation": {
						"0.0": [22.5, 0, 0],
						"0.125": [0, 0, 0],
						"0.25": [7.5, 0, 0],
						"0.5": [-2.5, 0, 0],
						"0.75": [35, 0, 0],
						"1.0": [22.5, 0, 0]
					}
				},
				"leg_right": {
					"rotation": {
						"0.0": [12.5, 0, 0],
						"0.1667": [1.67, 0, 0],
						"0.4583": [-46.12, 0, 0],
						"0.5": [-50, 0, 0],
						"0.5417": [-45.62, 0, 0],
						"0.8333": [1.67, 0, 0],
						"1.0": [12.5, 0, 0]
					},
					"position": {
						"0.0": [0, -0.5, 0],
						"0.25": [0, 0.5, 0],
						"0.5": [0, 0.25, 0],
						"0.75": [0, -0.5, 0],
						"1.0": [0, -0.5, 0]
					}
				},
				"leg_right2": {
					"rotation": {
						"0.0": [-2.5, 0, 0],
						"0.25": [35, 0, 0],
						"0.5": [22.5, 0, 0],
						"0.625": [0, 0, 0],
						"0.75": [7.5, 0, 0],
						"1.0": [-2.5, 0, 0]
					}
				},
				"finger_right2": {
					"rotation": [7.5, 0, 10]
				},
				"finger_right3": {
					"rotation": [-0.88045, -9.96156, 5.07673]
				}
			}
		},
		"animation.tinkatuff.ground_run": {
			"loop": true,
			"animation_length": 0.5,
			"bones": {
				"torso": {
					"rotation": ["32.5+Math.cos((query.anim_time) * 90 * 8*2-90) * 3", 0, "0+Math.cos((query.anim_time) * 90 * 8) * -3"],
					"position": [0, "0.5+Math.cos((query.anim_time) * 90 * 8*2) * 0.4", -0.5]
				},
				"arm_left": {
					"rotation": [-110, 47.5, 30],
					"position": [0, "0+Math.cos((query.anim_time) * 90 * 8*2-45) * 0.2", 0]
				},
				"arm_left2": {
					"rotation": [-15, -2.5, 62.5]
				},
				"finger_left3": {
					"rotation": [0, 0, 52.5]
				},
				"arm_right": {
					"rotation": [22.5, -10, -35],
					"position": [0, "0+Math.cos((query.anim_time) * 90 * 8*2-45) * 0.2", 0]
				},
				"arm_right2": {
					"rotation": [0, -70, 0]
				},
				"hammer2": {
					"rotation": [0, 0, 160]
				},
				"head": {
					"rotation": ["-22.5+Math.cos((query.anim_time) * 90 * 8*2-100) * -5", 0, "0+Math.cos((query.anim_time) * 90 * 8) * 3"]
				},
				"ponytail": {
					"rotation": ["0+Math.cos((query.anim_time) * 90 * 8*2-160) * 5", 0, 0]
				},
				"hair3": {
					"rotation": ["0+Math.cos((query.anim_time) * 90 * 8*2-120) * -2", 0, 0]
				},
				"leg_left": {
					"rotation": {
						"0.0": [-32.5, 0, 0],
						"0.0833": [-16.67, 0, 0],
						"0.125": [2.5, 0, 0],
						"0.1667": [31.42, 0, 0],
						"0.25": [45, 0, 0],
						"0.3333": [33.17, 0, 0],
						"0.375": [5, 0, 0],
						"0.4167": [-16.67, 0, 0],
						"0.5": [-32.5, 0, 0]
					},
					"position": [0, "0.25+Math.cos((query.anim_time) * 90 * 8) * -0.5", 0]
				},
				"leg_left2": {
					"rotation": {
						"0.0": [-7.75, 0, 0],
						"0.0417": [-10.17, 0, 0],
						"0.125": [0, 0, 0],
						"0.25": [22.5, 0, 0],
						"0.375": [65, 0, 0],
						"0.4167": [57.25, 0, 0],
						"0.5": [-7.75, 0, 0]
					}
				},
				"leg_right": {
					"rotation": {
						"0.0": [45, 0, 0],
						"0.0833": [33.17, 0, 0],
						"0.125": [5, 0, 0],
						"0.1667": [-16.67, 0, 0],
						"0.25": [-32.5, 0, 0],
						"0.3333": [-16.67, 0, 0],
						"0.375": [2.5, 0, 0],
						"0.4167": [31.42, 0, 0],
						"0.5": [45, 0, 0]
					},
					"position": [0, "0.25+Math.cos((query.anim_time) * 90 * 8-90) * 0.5", 0]
				},
				"leg_right2": {
					"rotation": {
						"0.0": [22.5, 0, 0],
						"0.125": [65, 0, 0],
						"0.1667": [57.25, 0, 0],
						"0.25": [-7.75, 0, 0],
						"0.2917": [-10.17, 0, 0],
						"0.375": [0, 0, 0],
						"0.5": [22.5, 0, 0]
					}
				},
				"body": {
					"position": {
						"0.0": [0, 0.5, 0],
						"0.0417": [0, 0.455, 0],
						"0.125": [0, 0, 0],
						"0.2083": [0, 0.455, 0],
						"0.25": [0, 0.5, 0],
						"0.2917": [0, 0.455, 0],
						"0.375": [0, 0, 0],
						"0.4583": [0, 0.455, 0],
						"0.5": [0, 0.5, 0]
					}
				},
				"arm_hammer_right": {
					"rotation": [22.5, -10, -35]
				},
				"arm_hammer_right2": {
					"rotation": [0, -70, 0]
				}
			}
		},
		"animation.tinkatuff.battle_idle": {
			"loop": true,
			"bones": {
				"tail": {
					"rotation": [12.5, 0, 0]
				},
				"tail2": {
					"rotation": [12.5, 0, 0]
				},
				"arm_right": {
					"rotation": [40.98303, 0.22836, "-45.7651+Math.cos((query.anim_time) * 90 * 2 - 40) * 2"]
				},
				"arm_right2": {
					"rotation": [0, -52.5, 0]
				},
				"finger_right": {
					"rotation": [0, 0, -5]
				},
				"finger_right2": {
					"rotation": [0, 0, 37.5]
				},
				"arm_left": {
					"rotation": [-84.39003, 24.58778, "53.5046+Math.cos((query.anim_time) * 90 * 2 - 40) * 3"]
				},
				"arm_left2": {
					"rotation": [0, 0, "55+Math.cos((query.anim_time) * 90 * 2 - 40) * -2"]
				},
				"finger_left": {
					"rotation": [0, 0, -25]
				},
				"finger_left2": {
					"rotation": [20, 0, 0]
				},
				"hand_left": {
					"rotation": [0, 17.5, 0]
				},
				"hand_right": {
					"rotation": [0, -17.5, 0]
				},
				"leg_left": {
					"rotation": ["-11.2025+Math.cos((query.anim_time) * 90 * 2) * 3", -21.49336, -9.33448]
				},
				"leg_right": {
					"rotation": ["-13.5954+Math.cos((query.anim_time) * 90 * 2) * 3", 22.38126, 10.45107]
				},
				"finger_left3": {
					"rotation": [0, 0, 57.5]
				},
				"finger_right3": {
					"rotation": [0, 0, -20]
				},
				"hammer": {
					"rotation": [-12.18122, -2.58318, 113.79667]
				},
				"skirt_left": {
					"rotation": [0, 0, -15]
				},
				"skirt_right": {
					"rotation": [-10, 0, 15]
				},
				"leg_left2": {
					"rotation": ["20+Math.cos((query.anim_time) * 90 * 2) * -3", 0, 0]
				},
				"leg_right2": {
					"rotation": ["15+Math.cos((query.anim_time) * 90 * 2) * -3", 0, -10]
				},
				"body": {
					"position": [0, "-0.5+Math.cos((query.anim_time) * 90 * 2) * 0.1", "0+Math.cos((query.anim_time) * 90 * 2) * -0.1"]
				},
				"torso": {
					"rotation": ["0+Math.cos((query.anim_time) * 90 * 2 - 90) * -2", -20, 0],
					"position": [0, "0.5+Math.cos((query.anim_time) * 90 * 2) * 0.2", 0]
				},
				"head": {
					"rotation": ["0+Math.cos((query.anim_time) * 90 * 2 - 40) * 2", 20, 0]
				},
				"ponytail": {
					"rotation": ["0+Math.cos((query.anim_time) * 90 * 2 - 120) * 2", 0, 0]
				},
				"hair3": {
					"rotation": ["0+Math.cos((query.anim_time) * 90 * 2 - 150) * 2", 0, 0]
				},
				"arm_hammer_right": {
					"rotation": [40.98303, 0.22836, "-45.7651+Math.cos((query.anim_time) * 90 * 2 - 40) * 2"]
				},
				"arm_hammer_right2": {
					"rotation": [0, -52.5, 0]
				}
			}
		},
		"animation.tinkatuff.sleep": {
			"loop": true,
			"bones": {
				"body": {
					"position": [0, -3, 0]
				},
				"torso": {
					"rotation": ["-15+Math.cos((query.anim_time) * 90 * 1) * 1", 0, 0],
					"position": [0, 0.5, 1]
				},
				"skirt_left": {
					"rotation": [12.5, 0, -35]
				},
				"skirt_right": {
					"rotation": [12.5, 0, 35]
				},
				"arm_left": {
					"rotation": [0, "-25+Math.cos((query.anim_time) * 90 * 1) * 1", 57.5]
				},
				"arm_left2": {
					"rotation": [0, 0, -17.5],
					"position": [-0.5, 0, 0]
				},
				"hammer": {
					"rotation": [15, 0, 0]
				},
				"hammer2": {
					"rotation": ["90+Math.cos((query.anim_time) * 90 * 1) * -1", 0, 0],
					"position": [9, "9.75+Math.cos((query.anim_time) * 90 * 1) * -0.1", "14+Math.cos((query.anim_time) * 90 * 1) * 0.2"]
				},
				"arm_right": {
					"rotation": [0, "25+Math.cos((query.anim_time) * 90 * 1) * -1", -57.5]
				},
				"arm_right2": {
					"rotation": [0, 0, 17.5],
					"position": [0.5, 0, 0]
				},
				"head": {
					"rotation": ["32.5+Math.cos((query.anim_time) * 90 * 1 - 90) * 1", 10, 0]
				},
				"eyelid_left": {
					"position": [0, 0, -0.1]
				},
				"eyelid_right": {
					"position": [0, 0, -0.1]
				},
				"ponytail": {
					"rotation": [-2.5, 17.5, 0]
				},
				"ponytail2": {
					"rotation": [0, 0, -10],
					"position": [0, 0.5, 0]
				},
				"ponytail3": {
					"rotation": [-20, 0, 0]
				},
				"hair3": {
					"rotation": [-22.5, 0, 27.5]
				},
				"leg_left": {
					"rotation": [-90, -20, 0]
				},
				"leg_right": {
					"rotation": [-90, 20, 0]
				}
			}
		},
		"animation.tinkatuff.faint": {
			"animation_length": 3,
			"bones": {
				"arm_right": {
					"rotation": {
						"0.0": [40.98303, 0.22836, -45.7651],
						"0.2083": [5.98, 0.23, -45.77],
						"0.2917": [35.98, 0.23, -45.77],
						"0.75": [18.48, 5.23, -23.27],
						"0.9167": [60.98, -12.27, -35.77],
						"1.2083": [30.98, -59.77, -35.77],
						"1.3333": [32.05, -62.98, -35.77],
						"1.5": [33.48, -67.27, -35.77],
						"1.8333": [15.98, -79.77, -35.77],
						"1.9167": [67.65, -129.77, -110.77],
						"1.9583": [93.48, -154.77, -148.27],
						"2.0833": [93.48, -174.77, -168.27],
						"2.3333": [93.48, -169.77, -168.27]
					}
				},
				"arm_right2": {
					"rotation": {
						"0.0": [0, -52.5, 0],
						"1.0": [0, -52.5, 0],
						"1.2083": [0, -57.5, 0],
						"1.5": [0, -30, 0]
					}
				},
				"finger_right": {
					"rotation": [0, 0, -5]
				},
				"finger_right2": {
					"rotation": [0, 0, 37.5]
				},
				"arm_left": {
					"rotation": {
						"0.0": [-84.39003, 24.58778, 53.5046],
						"0.2083": [-84.39, 37.09, 53.5],
						"0.2917": [-84.39, 2.09, 53.5],
						"0.75": [-84.39, 37.09, 58.5],
						"0.875": [-84.39, -2.91, 53.5],
						"0.9167": [-84.39, -10.41, 53.5],
						"1.2083": [-96.89, 59.59, 53.5],
						"1.5": [-59.39, 62.09, 83.5],
						"1.7917": [-59.39, 62.09, 83.5],
						"1.875": [-11.89, 42.09, 13.5],
						"1.9583": [-69.39, 9.59, -26.5],
						"2.3333": [-69.39, 12.09, -26.5]
					}
				},
				"arm_left2": {
					"rotation": {
						"0.0": [0, 0, 55],
						"0.2083": [0, 0, 42.5],
						"0.2917": [0, 0, 67.5],
						"0.75": [0, 0, 37.5],
						"0.875": [0, 0, 52.5],
						"1.2083": [0, 0, 45],
						"1.5": [0, -15, 45],
						"1.7917": [0, -15, 45],
						"1.875": [0, 35, 0]
					}
				},
				"finger_left": {
					"rotation": [0, 0, -25]
				},
				"finger_left2": {
					"rotation": [20, 0, 0]
				},
				"leg_left": {
					"rotation": {
						"0.0": [-11.2025, -21.49336, -9.33448],
						"0.1667": [-31.2, -21.49, -9.33],
						"0.25": [-26.1, -22.38, -10.45],
						"0.5": [-3.6, -22.38, -10.45],
						"0.7917": [6.4, -7.38, -12.95],
						"0.9167": [-28.6, -7.38, -12.95],
						"1.2083": [-28.6, 12.62, -12.95],
						"1.375": [-45, -22.5, 0],
						"1.5417": [-55, -22.5, -20],
						"1.7917": [-42.5, 0, 0],
						"1.875": [70, 0, -5],
						"2.0417": [40.36, 0, -5],
						"2.125": [-28, 0, -5],
						"2.2083": [-37.87, 0, -5],
						"2.375": [-30.37, 0, -5]
					}
				},
				"leg_right": {
					"rotation": {
						"0.0": [-13.6, 22.38, 10.45],
						"0.1667": [-31.1, 22.38, 10.45],
						"0.25": [-26.1, 22.38, 10.45],
						"0.5": [-3.6, 22.38, 10.45],
						"0.7917": [6.4, 22.38, 10.45],
						"0.9167": [-31.1, 22.38, 10.45],
						"1.2083": [-31.1, 42.38, 10.45],
						"1.375": [-30, 0, 0],
						"1.6667": [-30, 0, 5],
						"1.875": [70, 0, 5],
						"2.0417": [40.36, 0, 5],
						"2.1667": [-30, 0, 5],
						"2.25": [-45, 0, 5],
						"2.375": [-35, 0, 5]
					}
				},
				"finger_left3": {
					"rotation": [0, 0, 57.5]
				},
				"finger_right3": {
					"rotation": [0, 0, -20]
				},
				"hammer": {
					"rotation": {
						"0.0": [-0.78, -6.26, 38.97],
						"0.2083": [24.22, -26.26, 18.97],
						"0.25": [22.5, -10, 0],
						"0.75": [15, -17.5, 0],
						"0.8333": [-2.5, -23, 25],
						"0.9167": [-10, -6, 60],
						"1.1667": [2.5, 5, 0],
						"1.2917": [2.5, 5, 0],
						"1.5": [123.80714, 72.49416, 147.09643],
						"1.875": [123.80714, 72.49416, 147.09643],
						"2.0": [73.81, 67.49, 154.6]
					},
					"position": {
						"0.25": [0, 0, 0],
						"0.75": [0, 0, -1]
					}
				},
				"skirt_left": {
					"rotation": [0, 0, -15]
				},
				"skirt_right": {
					"rotation": [-10, 0, 15]
				},
				"leg_left2": {
					"rotation": {
						"0.0": [20, 0, 0],
						"0.1667": [35, 0, 0],
						"0.25": [-10, 0, 10],
						"0.5": [27.5, 0, -5],
						"0.7917": [5, 0, -5],
						"0.9167": [35, 0, -5],
						"1.2083": [32.27, 0, -1.82],
						"1.375": [42.5, 0, 0],
						"1.5417": [17.5, 0, 0],
						"1.7917": [45, 0, 0],
						"2.0417": [15, 0, 0]
					}
				},
				"leg_right2": {
					"rotation": {
						"0.0": [15, 0, -10],
						"0.1667": [35, 0, -10],
						"0.25": [-10, 0, -10],
						"0.5": [27.5, 0, 5],
						"0.7917": [5, 0, 5],
						"0.9167": [35, 0, 5],
						"1.375": [35, 0, 0],
						"1.6667": [22.5, 0, 0]
					}
				},
				"body": {
					"rotation": {
						"0.9167": [0, 0, 0],
						"1.0417": {
							"pre": [0, -35, 0],
							"post": [0, -35, 0],
							"lerp_mode": "catmullrom"
						},
						"1.2083": {
							"post": [0, -41.04, 0],
							"lerp_mode": "catmullrom"
						},
						"1.3333": {
							"post": [0, 34.67, 0],
							"lerp_mode": "catmullrom"
						},
						"1.5833": [0, 229.575, 0],
						"1.7083": [2.475, 319.55, 0],
						"1.7917": [7.645, 357.375, 0],
						"1.875": [20.08, 381.8, 0],
						"2.0": [90, 396.3, 0],
						"2.0833": [97.5, 395.475, 0],
						"2.3333": [92.5, 395.475, 0]
					},
					"position": {
						"0.0": [0, -0.5, 0],
						"0.125": [0, -0.95, 0],
						"0.2083": [0, -1, 0],
						"0.3333": {
							"pre": [0, 4, 6],
							"post": [0, 4, 6],
							"lerp_mode": "catmullrom"
						},
						"0.5": {
							"post": [0, 5.375, 11],
							"lerp_mode": "catmullrom"
						},
						"0.6667": {
							"post": [0, 5.325, 13.3],
							"lerp_mode": "catmullrom"
						},
						"0.75": {
							"post": [0, 4.115, 13.755],
							"lerp_mode": "catmullrom"
						},
						"0.8333": [0, -0.75, 13.85],
						"0.9167": [0, -1.25, 13.855],
						"1.2083": [0, -1.75, 13.855],
						"1.2917": [0.55, -1, 12.65],
						"1.4167": {
							"pre": [5.63, -1, 8.82],
							"post": [5.63, -1, 8.82],
							"lerp_mode": "catmullrom"
						},
						"1.5417": {
							"post": [7.25, -1, 4.99],
							"lerp_mode": "catmullrom"
						},
						"1.75": {
							"post": [4.9, -1, -1.4],
							"lerp_mode": "catmullrom"
						},
						"1.875": [2.3, -4, -4.9],
						"2.0": {
							"pre": [-0.3, -4.75, -8.375],
							"post": [-0.3, -4.75, -8.375],
							"lerp_mode": "catmullrom"
						},
						"2.1667": {
							"post": [-2, -4, -10.77],
							"lerp_mode": "catmullrom"
						},
						"2.3333": [-2.5, -4, -11.545]
					},
					"scale": {
						"0.2083": [1, 1, 1],
						"0.2917": [1.1, 0.925, 1.1],
						"0.375": [1, 1, 1],
						"0.6667": [1, 1, 1],
						"0.75": [0.95, 1.025, 0.9],
						"0.8333": [1, 1, 1],
						"1.25": [1, 1, 1],
						"1.2917": [1.3, 1, 1],
						"1.3333": [1, 1, 1],
						"1.9583": [1, 1, 1],
						"2.0417": [1.1, 1.1, 0.9],
						"2.1667": [1, 1, 1]
					}
				},
				"torso": {
					"rotation": {
						"0.0": [0, -20, 0],
						"0.125": [10, -6, 0],
						"0.2083": [12.5, -2.5, 0],
						"0.2917": [27.5, -2.5, 0],
						"0.7917": [10, -2.5, 0],
						"0.875": [20, -2.5, 0],
						"1.0": [10, -2.5, 0],
						"1.2083": {
							"pre": [0, -20, 0],
							"post": [0, -20, 0],
							"lerp_mode": "catmullrom"
						},
						"1.4167": {
							"post": [0, 0, -15],
							"lerp_mode": "catmullrom"
						},
						"1.9167": [-2.5, 0, 0]
					},
					"position": [0, 0.5, 0]
				},
				"head": {
					"rotation": {
						"0.0": [0, 20, 0],
						"0.125": [-8, 6, 0],
						"0.2083": [-10, 2.5, 0],
						"0.2917": [17.5, 2.5, 0],
						"0.7917": [0, 2.5, 0],
						"0.9167": [25, 2.5, 0],
						"1.0417": [-2.5, 35, 0],
						"1.2083": [-2.5, 62.5, 0],
						"1.4167": [0, 0, 0],
						"1.8333": [-7.5, 0, -3.25],
						"1.9583": {
							"pre": [-65, 0, -5.75],
							"post": [-65, 0, -5.75],
							"lerp_mode": "catmullrom"
						},
						"2.0417": {
							"post": [-85, 0, -7],
							"lerp_mode": "catmullrom"
						},
						"2.4167": [-79.75, 0, -7.75]
					},
					"position": {
						"1.875": [0, 0, 0],
						"2.0833": [-0.75, 2, -2]
					}
				},
				"ponytail": {
					"rotation": {
						"0.0": [0, 0, 0],
						"0.2083": [0, 0, 0],
						"0.3333": [-15, 0, 0],
						"0.4167": [-12.75, 0, 0],
						"0.6667": [17.5, 0, 0],
						"0.9167": [0, 0, 0],
						"1.25": [0, 0, 0],
						"1.375": [0, 0, 22.5],
						"1.8333": [0, 0, 22.5],
						"2.0": [17.5, 0, 0],
						"2.0833": [0, 0, 0]
					}
				},
				"hair3": {
					"rotation": {
						"0.0": [0, 0, 0],
						"0.25": [0, 0, 0],
						"0.2917": [27.5, 0, 0],
						"0.7917": [10, 0, 0],
						"0.9167": [30, 0, 0],
						"1.25": [0, 0, 0],
						"1.7083": [0, 0, 42.5],
						"2.0": [0, 0, 0],
						"2.1667": [-32.5, 0, 0],
						"2.375": [-30, 0, 0]
					}
				},
				"arm_hammer_right": {
					"rotation": {
						"0.0": [40.98303, 0.22836, -45.7651],
						"0.2083": [5.98, 0.23, -45.77],
						"0.2917": [35.98, 0.23, -45.77],
						"0.75": [18.48, 5.23, -23.27],
						"0.9167": [60.98, -12.27, -35.77],
						"1.2083": [30.98, -59.77, -35.77],
						"1.3333": [32.05, -62.98, -35.77],
						"1.5": [33.48, -67.27, -35.77],
						"1.8333": [15.98, -79.77, -35.77]
					}
				},
				"arm_hammer_right2": {
					"rotation": {
						"0.0": [0, -52.5, 0],
						"1.0": [0, -52.5, 0],
						"1.2083": [0, -57.5, 0],
						"1.5": [0, -30, 0]
					}
				},
				"hammer2": {
					"rotation": {
						"1.875": [0, 0, 0],
						"2.1667": {
							"pre": [10, 168, 0],
							"post": [10, 168, 0],
							"lerp_mode": "catmullrom"
						},
						"2.3333": {
							"post": [5.25, 220.575, 0],
							"lerp_mode": "catmullrom"
						},
						"2.4583": {
							"post": [-2.25, 234.75, 0],
							"lerp_mode": "catmullrom"
						},
						"2.625": [-3.45, 232.25, 0]
					},
					"position": {
						"1.8333": [0, 0, 0],
						"1.875": [0, 0, 0],
						"2.0": [-6.53381, 11.13417, -3.01533],
						"2.0833": [-13.75672, 12.06127, -2.05373],
						"2.1667": [-21.00943, 10.32756, -0.98231],
						"2.2917": [-28.03174, 8.87607, -0.21499],
						"2.375": [-30.15716, 8.82022, 0.13108],
						"2.4583": [-31.22313, 8.5483, 0.25031],
						"2.625": [-31.795, 8.3, 0.325]
					},
					"scale": {
						"1.25": [1, 1, 1],
						"1.3333": [3.4, 0.6, 1],
						"1.375": [2.2, 0.9, 1],
						"1.5417": [2.0286, 1.2571, 1],
						"1.7083": [1, 1, 1]
					}
				},
				"eyelid_left": {
					"position": {
						"0.2083": [0, 0, 0],
						"0.25": [0, 0, -0.15],
						"0.375": [0, 0, -0.15],
						"0.4167": [0, 0, 0],
						"0.9167": [0, 0, 0],
						"0.9583": [0, 0, -0.15],
						"1.75": [0, 0, -0.15],
						"1.7917": [0, 0, 0],
						"2.0": [0, 0, 0],
						"2.0417": [0, 0, -0.15]
					}
				},
				"eyelid_right": {
					"position": {
						"0.2083": [0, 0, 0],
						"0.25": [0, 0, -0.15],
						"0.375": [0, 0, -0.15],
						"0.4167": [0, 0, 0],
						"0.9167": [0, 0, 0],
						"0.9583": [0, 0, -0.15],
						"1.75": [0, 0, -0.15],
						"1.7917": [0, 0, 0],
						"2.0": [0, 0, 0],
						"2.0417": [0, 0, -0.15]
					}
				},
				"mouth_open": {
					"position": {
						"0.2083": [0, 0, 0],
						"0.25": [0, 0, -0.15],
						"0.875": [0, 0, -0.15],
						"0.9167": [0, 0, 0],
						"1.25": [0, 0, 0],
						"1.2917": [0, 0, -0.15],
						"2.0": [0, 0, -0.15],
						"2.0417": [0, 0, 0]
					}
				},
				"mouth_closed": {
					"position": {
						"0.2083": [0, 0, 0],
						"0.25": [0, 0, 0.1],
						"0.875": [0, 0, 0.1],
						"0.9167": [0, 0, 0],
						"1.25": [0, 0, 0],
						"1.2917": [0, 0, 0.1],
						"2.0": [0, 0, 0.1],
						"2.0417": [0, 0, 0]
					}
				}
			}
		},
		"animation.tinkatuff.blink": {
			"animation_length": 0.16667,
			"bones": {
				"eyelid_right": {
					"position": {
						"0.0": [0, 0, -0.1],
						"0.125": [0, 0, -0.1],
						"0.1667": [0, 0, 0]
					}
				},
				"eyelid_left": {
					"position": {
						"0.0": [0, 0, -0.1],
						"0.125": [0, 0, -0.1],
						"0.1667": [0, 0, 0]
					}
				}
			}
		},
		"animation.tinkatuff.cry": {
			"animation_length": 1.5,
			"bones": {
				"neck": {
					"rotation": {
						"0.0": [0, 0, 0],
						"0.25": [10, 0, 0],
						"1.25": [10, 0, 0],
						"1.5": [0, 0, 0]
					}
				},
				"mouth": {
					"position": {
						"0.0": [0, 0, 0],
						"0.25": [0, -2, 0],
						"1.25": [0, -2, 0],
						"1.5": [0, 0, 0]
					}
				},
				"mouth2": {
					"position": {
						"0.0": [0, 0, 0],
						"0.25": [0, -5, 0],
						"1.25": [0, -5, 0],
						"1.5": [0, 0, 0]
					}
				},
				"jaw": {
					"position": {
						"0.0": [0, 0, 0],
						"0.25": [0, -3, 0],
						"1.25": [0, -3, 0],
						"1.5": [0, 0, 0]
					}
				},
				"head": {
					"rotation": {
						"0.0": [0, 0, 0],
						"0.25": [-15, 0, 0],
						"1.25": [-15, 0, 0],
						"1.5": [0, 0, 0]
					}
				},
				"head2": {
					"rotation": {
						"0.0": [0, 0, 0],
						"0.25": [-15, 0, 0],
						"1.25": [-15, 0, 0],
						"1.5": [0, 0, 0]
					}
				},
				"mouth_closed2": {
					"position": {
						"0.25": [0, 0, -0.1],
						"0.3333": [0, 0, 0],
						"1.1667": [0, 0, 0],
						"1.25": [0, 0, -0.1]
					}
				},
				"mouth_open2": {
					"position": {
						"0.0": [0, 0, 0.1],
						"0.25": [0, 0, 0],
						"1.25": [0, 0, 0],
						"1.5": [0, 0, 0.1]
					}
				},
				"head3": {
					"rotation": {
						"0.0": [0, 0, 0],
						"0.25": [-15, 0, 0],
						"1.25": [-15, 0, 0],
						"1.5": [0, 0, 0]
					}
				},
				"mouth_closed3": {
					"position": {
						"0.25": [0, 0, -0.1],
						"0.3333": [0, 0, 0],
						"1.1667": [0, 0, 0],
						"1.25": [0, 0, -0.1]
					}
				},
				"mouth_open3": {
					"position": {
						"0.0": [0, 0, 0.1],
						"0.25": [0, 0, 0],
						"1.25": [0, 0, 0],
						"1.5": [0, 0, 0.1]
					}
				},
				"mouth_closed": {
					"position": {
						"0.25": [0, 0, 0],
						"0.3333": [0, 0, 0.1],
						"1.1667": [0, 0, 0.1],
						"1.25": [0, 0, 0]
					}
				},
				"mouth_open": {
					"position": {
						"0.0": [0, 0, 0],
						"0.25": [0, 0, -0.1],
						"1.25": [0, 0, -0.1],
						"1.5": [0, 0, 0]
					}
				}
			}
		}
	}
}