{
	"credit": "Made with Blockbench",
	"textures": {
		"26": "block/cookie"
	},
	"elements": [
		{
			"from": [6, 0, 6],
			"to": [10, 1, 10],
			"faces": {
				"north": {"uv": [4, 0, 8, 1], "texture": "#26"},
				"east": {"uv": [4, 1, 8, 2], "texture": "#26"},
				"south": {"uv": [4, 2, 8, 3], "texture": "#26"},
				"west": {"uv": [4, 3, 8, 4], "texture": "#26"},
				"up": {"uv": [4, 4, 0, 0], "texture": "#26"},
				"down": {"uv": [4, 4, 0, 8], "texture": "#26"}
			}
		},
		{
			"from": [6, 1, 6],
			"to": [10, 2, 10],
			"rotation": {"angle": 22.5, "axis": "y", "origin": [8, 0, 8]},
			"faces": {
				"north": {"uv": [4, 0, 8, 1], "texture": "#26"},
				"east": {"uv": [4, 1, 8, 2], "texture": "#26"},
				"south": {"uv": [4, 2, 8, 3], "texture": "#26"},
				"west": {"uv": [4, 3, 8, 4], "texture": "#26"},
				"up": {"uv": [4, 4, 0, 0], "texture": "#26"},
				"down": {"uv": [4, 4, 0, 8], "texture": "#26"}
			}
		}
	],
	"display": {
		"thirdperson_righthand": {
			"translation": [-1.5, 7.25, 0]
		},
		"thirdperson_lefthand": {
			"translation": [-1.5, 7.25, 0],
			"scale": [-1, 1, 1]
		},
		"firstperson_righthand": {
			"rotation": [0, -5, 0],
			"translation": [0, 8, 0]
		},
		"firstperson_lefthand": {
			"rotation": [0, -5, 0],
			"translation": [0, 8, 0]
		},
		"ground": {
			"translation": [0, 4.5, 0]
		},
		"gui": {
			"rotation": [25, -142, 0],
			"translation": [0, 7.5, 0],
			"scale": [1.25, 1.25, 1.25]
		},
		"head": {
			"rotation": [-17, 0, 0],
			"translation": [0, 7, -12],
			"scale": [1.65, 1.65, 1.65]
		},
		"fixed": {
			"rotation": [0, 90, -90],
			"translation": [0, 0.25, -16],
			"scale": [2, 2, 2]
		}
	},
	"groups": [
		{
			"name": "Lavacookie",
			"origin": [0, 0, 0],
			"color": 0,
			"children": [0, 1]
		}
	]
}