{
	"format_version": "1.8.0",
	"animations": {
		"animation.annihilape.ground_idle": {
			"loop": true,
			"bones": {
				"torso": {
					"rotation": ["0+Math.cos((query.anim_time) * 90 * 1 - 90) * -2", 0, 0],
					"position": [0, "0+Math.cos((query.anim_time) * 90 * 1) * 0.2", 0]
				},
				"arm_left": {
					"rotation": [16.48805, -18.37927, "37.453+Math.cos((query.anim_time) * 90 * 1 - 150) * -2"]
				},
				"arm_left2": {
					"rotation": [8.82362, 39.07223, "18.0327+Math.cos((query.anim_time) * 90 * 1 - 240) * -3"]
				},
				"hand_left": {
					"rotation": [3.96713, 14.47751, 33.00409]
				},
				"fingers_left": {
					"rotation": [0, 0, 32.5]
				},
				"fingers_left2": {
					"rotation": [0, 0, 57.5]
				},
				"leg_left": {
					"rotation": ["0+Math.cos((query.anim_time) * 90 * 1) * 4", -32.5, 0],
					"position": ["0+Math.cos((query.anim_time) * 90 * 1) * 0.15", "0+Math.cos((query.anim_time) * 90 * 1) * 0.15", 0]
				},
				"chain_knee_left": {
					"rotation": [5, 0, 0]
				},
				"foot_left": {
					"rotation": [0, 17.5, 0]
				},
				"thumb_left": {
					"rotation": [0, 35, 45]
				},
				"thumb_left2": {
					"rotation": [0, -32.5, 0]
				},
				"arm_right": {
					"rotation": [16.48805, 18.37927, "-37.453+Math.cos((query.anim_time) * 90 * 1 - 150) * 2"]
				},
				"arm_right2": {
					"rotation": [8.82362, -39.07223, "-18.0327+Math.cos((query.anim_time) * 90 * 1 - 240) * 3"]
				},
				"hand_right": {
					"rotation": [3.96713, -14.47751, -33.00409]
				},
				"fingers_right": {
					"rotation": [0, 0, -32.5]
				},
				"fingers_right2": {
					"rotation": [0, 0, -57.5]
				},
				"thumb_right": {
					"rotation": [0, -35, -45]
				},
				"thumb_right2": {
					"rotation": [0, 32.5, 0]
				},
				"leg_right": {
					"rotation": ["0+Math.cos((query.anim_time) * 90 * 1) * 4", 32.5, 0],
					"position": ["0+Math.cos((query.anim_time) * 90 * 1) * -0.15", "0+Math.cos((query.anim_time) * 90 * 1) * 0.15", 0]
				},
				"chain_knee_right": {
					"rotation": [5, 0, 0]
				},
				"shoulder_fur_left": {
					"rotation": [0, 0, 10]
				},
				"shoulder_fur_right": {
					"rotation": [0, 0, -10]
				},
				"ear_left_fur": {
					"rotation": [145.48466, -15.1011, -23.22799]
				},
				"ear_left_fur2": {
					"rotation": [-5, -5, 15]
				},
				"ear_right_fur": {
					"rotation": [148.99449, 16.34685, 28.4558]
				},
				"ear_right_fur2": {
					"rotation": [-5, 5, -15]
				},
				"fur_bottom": {
					"rotation": [10, 0, 0]
				},
				"fur_bottom2": {
					"rotation": [12.5, 0, 0]
				},
				"hair_front": {
					"rotation": [12.5, 0, 0]
				},
				"hair_front2": {
					"rotation": [-17.36939, -1.81134, 0.06081]
				},
				"hair_front3": {
					"rotation": [-14.98637, -0.64686, -2.41492]
				},
				"hair_front4": {
					"rotation": [-0.46717, -0.61267, 4.94282]
				},
				"hair_front5": {
					"rotation": [-7.5, 0, 0]
				},
				"hair_front_end": {
					"rotation": [-14.13272, 5.07855, 19.37006]
				},
				"hair_left_rotation": {
					"rotation": [10, 0, 0]
				},
				"hair_left2": {
					"rotation": [-12.5, 0, 0]
				},
				"hair_left3": {
					"rotation": [-17.25002, 2.99318, 9.54589]
				},
				"hair_left4": {
					"rotation": [-19.99527, 0.21782, 2.4905]
				},
				"hair_left_end": {
					"rotation": [-27.5, 0, 0]
				},
				"hair_back_left_rotation": {
					"rotation": [5, 0, 0]
				},
				"hair_back_left2": {
					"rotation": [-7.32417, -1.61888, -12.39638]
				},
				"hair_back_left3": {
					"rotation": [-7.5, 0, 0]
				},
				"hair_back_left4": {
					"rotation": [-25, 0, 0]
				},
				"hair_back_left_end": {
					"rotation": [-27.5, 0, 0]
				},
				"hair_back_left_end2": {
					"rotation": [-60, 0, 0]
				},
				"hair_back_rotation": {
					"rotation": [-2.5, 0, 0]
				},
				"hair_back2": {
					"rotation": [-15, 0, 0]
				},
				"hair_back3": {
					"rotation": [-10, 0, 0]
				},
				"hair_back_end": {
					"rotation": [12.5, 0, 0]
				},
				"hair_right_rotation": {
					"rotation": [5, 0, 0]
				},
				"hair_right2": {
					"rotation": [-9.99067, -0.43399, -2.46207]
				},
				"hair_right3": {
					"rotation": [-9.76758, -2.15393, -12.31594]
				},
				"hair_right4": {
					"rotation": [-22.5, 0, 0]
				},
				"hair_right_end": {
					"rotation": [-20, 0, 0]
				},
				"hair_back_right_rotation": {
					"rotation": [5, 0, 0]
				},
				"hair_back_right2": {
					"rotation": [-12.2127, -2.68507, -12.2127]
				},
				"hair_back_right3": {
					"rotation": [-2.41492, 0.64686, 14.98637]
				},
				"hair_back_right_end2": {
					"rotation": [-62.5, 0, 0]
				},
				"hair_back_right4": {
					"rotation": [-25, 0, 0]
				},
				"hair_back_right_end": {
					"rotation": [-27.5, 0, 0]
				},
				"floating_hair_left": {
					"rotation": [0, 0, 2.5],
					"position": [0, 0, 1]
				},
				"floating_hair": {
					"rotation": [-10, 0, 0],
					"position": [0, 0, 2]
				},
				"floating_hair2": {
					"rotation": [12.5, 0, 0]
				},
				"floating_hair_left2": {
					"rotation": [-25, 0, 0]
				},
				"floating_hair_right": {
					"rotation": [10.86815, 6.21271, -29.40842],
					"position": [-2, 0, 1]
				},
				"floating_hair_right2": {
					"rotation": [-22.5, 0, 0]
				},
				"body": {
					"position": [0, 0, "0+Math.cos((query.anim_time) * 90 * 1) * -0.1"]
				},
				"leg_left2": {
					"rotation": ["0+Math.cos((query.anim_time) * 90 * 1) * -4", 0, 0]
				},
				"leg_right2": {
					"rotation": ["0+Math.cos((query.anim_time) * 90 * 1) * -4", 0, 0]
				}
			}
		},
		"animation.annihilape.ground_walk": {
			"loop": true,
			"animation_length": 1.5,
			"bones": {
				"torso": {
					"rotation": [
						"-10+Math.cos((query.anim_time) * 90 * 8/3 * 2 - 90) * 2",
						"0+Math.cos((query.anim_time) * 90 * 8/3 - 90) * 5",
						"0+Math.cos((query.anim_time) * 90 * 8/3 - 90) * -8"
					],
					"position": [0, "0+Math.cos((query.anim_time) * 90 * 8/3 * 2) * 0.8", 0]
				},
				"ear_left": {
					"rotation": [0, 0, "0+Math.cos((query.anim_time) * 90 * 8/3 - 170) * 4"]
				},
				"ear_left_fur": {
					"rotation": [148.99449, -16.34685, -28.4558]
				},
				"ear_left_fur2": {
					"rotation": ["17.5+Math.cos((query.anim_time) * 90 * 8/3 * 2 - 180) * -5", -5, "15+Math.cos((query.anim_time) * 90 * 8/3 - 250) * -8"]
				},
				"ear_right": {
					"rotation": [0, 0, "0+Math.cos((query.anim_time) * 90 * 8/3 - 170) * 4"]
				},
				"ear_right_fur": {
					"rotation": [148.99449, 16.34685, 28.4558]
				},
				"ear_right_fur2": {
					"rotation": ["17.5+Math.cos((query.anim_time) * 90 * 8/3 * 2 - 180) * -5", 5, "-15+Math.cos((query.anim_time) * 90 * 8/3 - 250) * -8"]
				},
				"arm_left": {
					"rotation": [0, "-35+Math.cos((query.anim_time) * 90 * 8/3) * -20", "45+Math.cos((query.anim_time) * 90 * 8/3 - 90) * 10"]
				},
				"arm_left2": {
					"rotation": [0, "17.5+Math.cos((query.anim_time) * 90 * 8/3 - 90) * -20", 10]
				},
				"hand_left": {
					"rotation": [0, 0, 47.5]
				},
				"fingers_left": {
					"rotation": [0, 0, 40]
				},
				"fingers_left2": {
					"rotation": [0, 0, 60]
				},
				"thumb_left": {
					"rotation": [0, 25, 30]
				},
				"thumb_left2": {
					"rotation": [0, -57.5, 0]
				},
				"arm_right": {
					"rotation": [0, "35+Math.cos((query.anim_time) * 90 * 8/3) * -20", "-45+Math.cos((query.anim_time) * 90 * 8/3 - 90) * 10"]
				},
				"arm_right2": {
					"rotation": [0, "-17.5+Math.cos((query.anim_time) * 90 * 8/3 - 90) * -20", -10]
				},
				"hand_right": {
					"rotation": [0, 0, -47.5]
				},
				"fingers_right": {
					"rotation": [0, 0, -40]
				},
				"fingers_right2": {
					"rotation": [0, 0, -60]
				},
				"thumb_right": {
					"rotation": [0, -25, -30]
				},
				"thumb_right2": {
					"rotation": [0, 57.5, 0]
				},
				"hair_front": {
					"rotation": ["0+Math.cos((query.anim_time) * 90 * 8/3 * 2 - 170) * 4", 0, 0]
				},
				"hair_front2": {
					"rotation": ["-12.5+Math.cos((query.anim_time) * 90 * 8/3 * 2 - 240) * 7", 0, "0+Math.cos((query.anim_time) * 90 * 8/3 - 180) * -19"]
				},
				"hair_front3": {
					"rotation": [-12.5, 0, 0]
				},
				"hair_front4": {
					"rotation": [-12.5, 0, 0]
				},
				"hair_front5": {
					"rotation": [-12.5, 0, 0]
				},
				"hair_front_end": {
					"rotation": [-12.5, 0, 0]
				},
				"hair_back_rotation": {
					"rotation": ["0+Math.cos((query.anim_time) * 90 * 8/3 * 2 - 150) * 3", 0, "7.5+Math.cos((query.anim_time) * 90 * 8/3 * 2 - 150) * -3"]
				},
				"hair_back2": {
					"rotation": ["-12.5+Math.cos((query.anim_time) * 90 * 8/3 * 2 - 240) * 7", 0, "0+Math.cos((query.anim_time) * 90 * 8/3 - 150) * -10"]
				},
				"hair_back3": {
					"rotation": ["-12.5+Math.cos((query.anim_time) * 90 * 8/3 * 2 - 330) * 9", 0, 0]
				},
				"hair_back_end": {
					"rotation": [-12.5, 0, 0]
				},
				"hair_left_rotation": {
					"rotation": ["0+Math.cos((query.anim_time) * 90 * 8/3 * 2 - 150) * 5", 0, 7.5]
				},
				"hair_left2": {
					"rotation": ["-12.5+Math.cos((query.anim_time) * 90 * 8/3 * 2 - 240) * 7", 0, "0+Math.cos((query.anim_time) * 90 * 8/3 - 150) * -15"]
				},
				"hair_left3": {
					"rotation": [-12.5, 0, 0]
				},
				"hair_left4": {
					"rotation": [-12.5, 0, 0]
				},
				"hair_left_end": {
					"rotation": [-12.5, 0, 0]
				},
				"hair_back_left_rotation": {
					"rotation": ["0+Math.cos((query.anim_time) * 90 * 8/3 * 2 - 150) * 3", 0, "7.5+Math.cos((query.anim_time) * 90 * 8/3 * 2 - 150) * -3"]
				},
				"hair_back_left2": {
					"rotation": ["-12.5+Math.cos((query.anim_time) * 90 * 8/3 * 2 - 240) * 7", 0, "0+Math.cos((query.anim_time) * 90 * 8/3 - 150) * -10"]
				},
				"hair_back_left3": {
					"rotation": ["-12.5+Math.cos((query.anim_time) * 90 * 8/3 * 2 - 330) * 9", 0, 0]
				},
				"hair_back_left4": {
					"rotation": [-12.5, 0, 0]
				},
				"hair_back_left_end": {
					"rotation": [-12.5, 0, 0]
				},
				"hair_right_rotation": {
					"rotation": ["0+Math.cos((query.anim_time) * 90 * 8/3 * 2 - 150) * 5", 0, -7.5]
				},
				"hair_right2": {
					"rotation": ["-12.5+Math.cos((query.anim_time) * 90 * 8/3 * 2 - 240) * 7", 0, "0+Math.cos((query.anim_time) * 90 * 8/3 - 150) * -15"]
				},
				"hair_right3": {
					"rotation": [-12.5, 0, 0]
				},
				"hair_right4": {
					"rotation": [-12.5, 0, 0]
				},
				"hair_right_end": {
					"rotation": [-12.5, 0, 0]
				},
				"hair_back_right_rotation": {
					"rotation": ["0+Math.cos((query.anim_time) * 90 * 8/3 * 2 - 150) * 3", 0, "-7.5+Math.cos((query.anim_time) * 90 * 8/3 * 2 - 150) * 3"]
				},
				"hair_back_right2": {
					"rotation": ["-12.5+Math.cos((query.anim_time) * 90 * 8/3 * 2 - 240) * 7", 0, "0+Math.cos((query.anim_time) * 90 * 8/3 - 150) * -10"]
				},
				"hair_back_right3": {
					"rotation": ["-12.5+Math.cos((query.anim_time) * 90 * 8/3 * 2 - 330) * 9", 0, 0]
				},
				"hair_back_right4": {
					"rotation": [-12.5, 0, 0]
				},
				"hair_back_right_end": {
					"rotation": [-12.5, 0, 0]
				},
				"floating_hair2": {
					"rotation": [0, 0, "0+Math.cos((query.anim_time) * 90 * 8/3 - 270) * -25"]
				},
				"floating_hair_left2": {
					"rotation": [0, 0, "0+Math.cos((query.anim_time) * 90 * 8/3 - 270) * -25"]
				},
				"floating_hair_right2": {
					"rotation": [0, 0, "0+Math.cos((query.anim_time) * 90 * 8/3 - 270) * -25"]
				},
				"fur_bottom": {
					"rotation": [10, 0, "0+Math.cos((query.anim_time) * 90 * 8/3 - 160) * 5"]
				},
				"fur_bottom2": {
					"rotation": [17.5, 0, "0+Math.cos((query.anim_time) * 90 * 8/3 - 250) * 5"]
				},
				"leg_left": {
					"rotation": {
						"0.0": [-43.625, -12.5, 0],
						"0.1667": [-35.845, -9.72, 0],
						"0.75": [27.5, 0, 0],
						"0.875": [23.67, -2.08, 0],
						"1.1667": [-26.94, -6.94, 0],
						"1.5": [-43.625, -12.5, 0]
					},
					"position": {
						"0.0": [0, 0, 0],
						"0.2083": [0, -0.97, 0],
						"0.3333": [0, -0.75, 0],
						"0.4167": [0, 0, 0],
						"0.9167": [0, 0, 0],
						"1.0833": [0, 0.75, 0],
						"1.25": [0, 0.7, 0],
						"1.5": [0, 0, 0]
					}
				},
				"leg_left2": {
					"rotation": {
						"0.0": [0, 0, 0],
						"0.125": [-8.805, 0, 0],
						"0.3333": [-13.11, 0, 0],
						"0.75": [-2.5, 0, 0],
						"1.1667": [41.39, 0, 0],
						"1.5": [0, 0, 0]
					}
				},
				"foot_left": {
					"rotation": {
						"0.0": [10, 0, 0],
						"0.25": [-6.67, 0, 0],
						"0.4167": [21.11, 0, 0],
						"0.625": [-8.17, 0, 0],
						"0.75": [-10, 0, 0],
						"1.1667": [19.44, 0, 0],
						"1.375": [26.04, 0, 0],
						"1.5": [10, 0, 0]
					}
				},
				"leg_right": {
					"rotation": {
						"0.0": [27.5, 0, 0],
						"0.125": [23.67, 2.08, 0],
						"0.4167": [-26.94, 6.94, 0],
						"0.75": [-43.625, 12.5, 0],
						"0.9167": [-35.845, 9.72, 0],
						"1.5": [27.5, 0, 0]
					},
					"position": {
						"0.0": [0, 0, 0],
						"0.1667": [0, 0, 0],
						"0.3333": [0, 0.75, 0],
						"0.5": [0, 0.7, 0],
						"0.75": [0, 0, 0],
						"0.9583": [0, -0.97, 0],
						"1.0833": [0, -0.75, 0],
						"1.1667": [0, 0, 0],
						"1.5": [0, 0, 0]
					}
				},
				"leg_right2": {
					"rotation": {
						"0.0": [-2.5, 0, 0],
						"0.4167": [41.39, 0, 0],
						"0.75": [0, 0, 0],
						"0.875": [-8.805, 0, 0],
						"1.0833": [-13.11, 0, 0],
						"1.5": [-2.5, 0, 0]
					}
				},
				"foot_right": {
					"rotation": {
						"0.0": [-10, 0, 0],
						"0.4167": [19.44, 0, 0],
						"0.625": [26.04, 0, 0],
						"0.75": [10, 0, 0],
						"1.0": [-6.67, 0, 0],
						"1.1667": [21.11, 0, 0],
						"1.375": [-8.17, 0, 0],
						"1.5": [-10, 0, 0]
					}
				},
				"floating_hair_left_root": {
					"rotation": [-15, 0, "0+Math.cos((query.anim_time) * 90 * 8/3 - 190) * -10"]
				},
				"floating_hair_right_root": {
					"rotation": [-15, 0, "0+Math.cos((query.anim_time) * 90 * 8/3 - 190) * -10"]
				},
				"floating_hair_root": {
					"rotation": [-15, 0, "0+Math.cos((query.anim_time) * 90 * 8/3 - 230) * -10"]
				}
			}
		},
		"animation.annihilape.ground_run": {
			"loop": true,
			"animation_length": 0.75,
			"bones": {
				"body": {
					"position": {
						"0.0": [0, 2.225, 0],
						"0.0833": {
							"pre": [0, 1.875, 0],
							"post": [0, 1.875, 0],
							"lerp_mode": "catmullrom"
						},
						"0.2083": {
							"post": [0, 0, 0],
							"lerp_mode": "catmullrom"
						},
						"0.2917": {
							"post": [0, 1.85, 0],
							"lerp_mode": "catmullrom"
						},
						"0.375": {
							"post": [0, 2.225, 0],
							"lerp_mode": "catmullrom"
						},
						"0.4583": {
							"post": [0, 1.85, 0],
							"lerp_mode": "catmullrom"
						},
						"0.5833": {
							"post": [0, 0, 0],
							"lerp_mode": "catmullrom"
						},
						"0.6667": {
							"post": [0, 1.875, 0],
							"lerp_mode": "catmullrom"
						},
						"0.75": [0, 2.225, 0]
					}
				},
				"torso": {
					"rotation": [
						"10+Math.cos((query.anim_time) * 90 * 16/3*2 - 90) * -4",
						"0+Math.cos((query.anim_time) * 90 * 16/3) * 8",
						"0+Math.cos((query.anim_time) * 90 * 16/3) * -4"
					],
					"position": [0, "0+Math.cos((query.anim_time) * 90 * 16/3*2) * 1", 0]
				},
				"ear_left_fur": {
					"rotation": ["148.9945+Math.cos((query.anim_time) * 90 * 16/3*2 - 160) * -7", -16.34685, "-28.4558+Math.cos((query.anim_time) * 90 * 16/3 - 90) * 15"]
				},
				"ear_left_fur2": {
					"rotation": [17.5, -5, 15]
				},
				"ear_right_fur": {
					"rotation": ["148.9945+Math.cos((query.anim_time) * 90 * 16/3*2 - 160) * -7", 16.34685, "28.4558+Math.cos((query.anim_time) * 90 * 16/3 - 90) * 15"]
				},
				"ear_right_fur2": {
					"rotation": [17.5, 5, -15]
				},
				"arm_left": {
					"rotation": [0, "0+Math.cos((query.anim_time) * 90 * 16/3) * -30", "17.5+Math.cos((query.anim_time) * 90 * 16/3*2 - 90) * -5"]
				},
				"arm_left2": {
					"rotation": [0, "17.5+Math.cos((query.anim_time) * 90 * 16/3 - 90) * -20", "0+Math.cos((query.anim_time) * 90 * 16/3*2 - 180) * -10"]
				},
				"hand_left": {
					"rotation": [0, 15, 27.5]
				},
				"fingers_left": {
					"rotation": [0, 0, 50]
				},
				"fingers_left2": {
					"rotation": [0, 0, 60]
				},
				"thumb_left": {
					"rotation": [0, 35, 25]
				},
				"thumb_left2": {
					"rotation": [0, -52.5, 0]
				},
				"arm_right": {
					"rotation": [0, "0+Math.cos((query.anim_time) * 90 * 16/3) * -30", "-17.5+Math.cos((query.anim_time) * 90 * 16/3*2 - 90) * 5"]
				},
				"arm_right2": {
					"rotation": [0, "-17.5+Math.cos((query.anim_time) * 90 * 16/3 - 90) * -20", "0+Math.cos((query.anim_time) * 90 * 16/3*2 - 180) * 10"]
				},
				"hand_right": {
					"rotation": [0, -15, -27.5]
				},
				"fingers_right": {
					"rotation": [0, 0, -50]
				},
				"fingers_right2": {
					"rotation": [0, 0, -60]
				},
				"thumb_right": {
					"rotation": [0, -35, -25]
				},
				"thumb_right2": {
					"rotation": [0, 52.5, 0]
				},
				"hair_front": {
					"rotation": ["-15+Math.cos((query.anim_time) * 90 * 16/3*2 - 180) * -12", 0, "0+Math.cos((query.anim_time) * 90 * 16/3 - 90) * -15"],
					"position": [0, -1, 0]
				},
				"hair_front2": {
					"rotation": ["-15+Math.cos((query.anim_time) * 90 * 16/3*2 - 270) * -20", 0, "0+Math.cos((query.anim_time) * 90 * 16/3 - 180) * -25"]
				},
				"hair_front3": {
					"rotation": ["-15+Math.cos((query.anim_time) * 90 * 16/3*2 - 360) * -30", 0, "0+Math.cos((query.anim_time) * 90 * 16/3 - 270) * -25"]
				},
				"hair_front4": {
					"rotation": ["-15+Math.cos((query.anim_time) * 90 * 16/3*2 - 450) * -30", 0, 0]
				},
				"hair_front5": {
					"rotation": [-15, 0, 0]
				},
				"hair_left_rotation": {
					"rotation": ["-15+Math.cos((query.anim_time) * 90 * 16/3*2 - 180) * -12", 0, "0+Math.cos((query.anim_time) * 90 * 16/3 - 90) * -15"]
				},
				"hair_left2": {
					"rotation": ["-15+Math.cos((query.anim_time) * 90 * 16/3*2 - 270) * -20", 0, "0+Math.cos((query.anim_time) * 90 * 16/3 - 180) * -25"]
				},
				"hair_left3": {
					"rotation": ["-15+Math.cos((query.anim_time) * 90 * 16/3*2 - 360) * -30", 0, "0+Math.cos((query.anim_time) * 90 * 16/3 - 270) * -25"]
				},
				"hair_left4": {
					"rotation": ["-15+Math.cos((query.anim_time) * 90 * 16/3*2 - 450) * -30", 0, 0]
				},
				"hair_back_left_rotation": {
					"rotation": ["-15+Math.cos((query.anim_time) * 90 * 16/3*2 - 180) * -12", 0, "0+Math.cos((query.anim_time) * 90 * 16/3 - 90) * -15"]
				},
				"hair_back_left2": {
					"rotation": ["-15+Math.cos((query.anim_time) * 90 * 16/3*2 - 270) * -20", 0, "0+Math.cos((query.anim_time) * 90 * 16/3 - 180) * -25"]
				},
				"hair_back_left3": {
					"rotation": ["-15+Math.cos((query.anim_time) * 90 * 16/3*2 - 360) * -30", 0, "0+Math.cos((query.anim_time) * 90 * 16/3 - 270) * -25"]
				},
				"hair_back_left4": {
					"rotation": ["-15+Math.cos((query.anim_time) * 90 * 16/3*2 - 450) * -30", 0, 0]
				},
				"hair_right_rotation": {
					"rotation": ["-15+Math.cos((query.anim_time) * 90 * 16/3*2 - 180) * -12", 0, "0+Math.cos((query.anim_time) * 90 * 16/3 - 90) * -15"]
				},
				"hair_right2": {
					"rotation": ["-15+Math.cos((query.anim_time) * 90 * 16/3*2 - 270) * -20", 0, "0+Math.cos((query.anim_time) * 90 * 16/3 - 180) * -25"]
				},
				"hair_right3": {
					"rotation": ["-15+Math.cos((query.anim_time) * 90 * 16/3*2 - 360) * -30", 0, "0+Math.cos((query.anim_time) * 90 * 16/3 - 270) * -25"]
				},
				"hair_right4": {
					"rotation": ["-15+Math.cos((query.anim_time) * 90 * 16/3*2 - 450) * -30", 0, 0]
				},
				"hair_back_right_rotation": {
					"rotation": ["-15+Math.cos((query.anim_time) * 90 * 16/3*2 - 180) * -12", 0, "0+Math.cos((query.anim_time) * 90 * 16/3 - 90) * -15"]
				},
				"hair_back_right2": {
					"rotation": ["-15+Math.cos((query.anim_time) * 90 * 16/3*2 - 270) * -20", 0, "0+Math.cos((query.anim_time) * 90 * 16/3 - 180) * -25"]
				},
				"hair_back_right3": {
					"rotation": ["-15+Math.cos((query.anim_time) * 90 * 16/3*2 - 360) * -30", 0, "0+Math.cos((query.anim_time) * 90 * 16/3 - 270) * -25"]
				},
				"hair_back_right4": {
					"rotation": ["-15+Math.cos((query.anim_time) * 90 * 16/3*2 - 450) * -30", 0, 0]
				},
				"floating_hair_root": {
					"rotation": ["-27.5+Math.cos((query.anim_time) * 90 * 16/3*2 - 270) * -15", 0, "0+Math.cos((query.anim_time) * 90 * 16/3 - 130) * -15"]
				},
				"floating_hair2": {
					"rotation": ["0+Math.cos((query.anim_time) * 90 * 16/3*2 - 360) * -20", 0, "0+Math.cos((query.anim_time) * 90 * 16/3 - 220) * -30"]
				},
				"floating_hair_left_root": {
					"rotation": ["-27.5+Math.cos((query.anim_time) * 90 * 16/3*2 - 270) * -15", 0, "0+Math.cos((query.anim_time) * 90 * 16/3 - 170) * -15"]
				},
				"floating_hair_left2": {
					"rotation": ["0+Math.cos((query.anim_time) * 90 * 16/3*2 - 360) * -20", 0, "0+Math.cos((query.anim_time) * 90 * 16/3 - 260) * -30"]
				},
				"floating_hair_right_root": {
					"rotation": ["-27.5+Math.cos((query.anim_time) * 90 * 16/3*2 - 270) * -15", 0, "0+Math.cos((query.anim_time) * 90 * 16/3 - 90) * -15"]
				},
				"floating_hair_right": {
					"rotation": [-17.5, 0, 0]
				},
				"floating_hair_right2": {
					"rotation": ["0+Math.cos((query.anim_time) * 90 * 16/3*2 - 360) * -20", 0, "0+Math.cos((query.anim_time) * 90 * 16/3 - 180) * -30"]
				},
				"fur_bottom": {
					"rotation": [12.5, 0, 0]
				},
				"fur_bottom2": {
					"rotation": [12.5, 0, 0]
				},
				"leg_left": {
					"rotation": {
						"0.0": [-60, -6.5, 0],
						"0.0833": [-46.97, -5.28, 0],
						"0.2917": [52.22, 5.985, 0],
						"0.375": [65, 7.5, 0],
						"0.4583": [52.22, 5.985, 0],
						"0.6667": [-48.97, -5.28, 0],
						"0.75": [-60, -6.5, 0]
					},
					"position": {
						"0.0": [0, 0.69, 0],
						"0.125": [0, 0, 0],
						"0.2083": {
							"pre": [0, -0.17, 0],
							"post": [0, -0.17, 0],
							"lerp_mode": "catmullrom"
						},
						"0.25": {
							"post": [0, 0.5, 0],
							"lerp_mode": "catmullrom"
						},
						"0.375": {
							"post": [0, 0, 0],
							"lerp_mode": "catmullrom"
						},
						"0.5": {
							"post": [0, 0.33, 0],
							"lerp_mode": "catmullrom"
						},
						"0.625": [0, 1.25, 0],
						"0.75": [0, 0.69, 0]
					}
				},
				"leg_left2": {
					"rotation": {
						"0.0": [-12.5, 0, 0],
						"0.0833": [-27.34, 0, 0],
						"0.1667": [-32.19, 0, 0],
						"0.25": [-26.81, 0, 0],
						"0.375": [0, 0, 0],
						"0.5833": [55.56, 0, 0],
						"0.75": [-12.5, 0, 0]
					}
				},
				"foot_left": {
					"rotation": {
						"0.0": [1.75, 0, 0],
						"0.0833": {
							"pre": [-13.56, 0, 0],
							"post": [-13.56, 0, 0],
							"lerp_mode": "catmullrom"
						},
						"0.2083": {
							"post": [-3.53, 0, 0],
							"lerp_mode": "catmullrom"
						},
						"0.25": [7.17, 0, 0],
						"0.5833": [58.03, 0, 0],
						"0.6667": [53.89, 0, 0],
						"0.75": [1.75, 0, 0]
					}
				},
				"leg_right": {
					"rotation": {
						"0.0": [65, -7.5, 0],
						"0.0833": [52.22, -5.985, 0],
						"0.2917": [-48.97, 5.28, 0],
						"0.375": [-60, 6.5, 0],
						"0.4583": [-46.97, 5.28, 0],
						"0.6667": [52.22, -5.985, 0],
						"0.75": [65, -7.5, 0]
					},
					"position": {
						"0.0": [0, 0, 0],
						"0.125": {
							"pre": [0, 0.33, 0],
							"post": [0, 0.33, 0],
							"lerp_mode": "catmullrom"
						},
						"0.25": {
							"post": [0, 1.25, 0],
							"lerp_mode": "catmullrom"
						},
						"0.5": {
							"post": [0, 0, 0],
							"lerp_mode": "catmullrom"
						},
						"0.5833": {
							"post": [0, -0.17, 0],
							"lerp_mode": "catmullrom"
						},
						"0.625": {
							"post": [0, 0.5, 0],
							"lerp_mode": "catmullrom"
						},
						"0.75": [0, 0, 0]
					}
				},
				"leg_right2": {
					"rotation": {
						"0.0": [0, 0, 0],
						"0.2083": [55.56, 0, 0],
						"0.375": [-12.5, 0, 0],
						"0.4583": [-27.34, 0, 0],
						"0.5417": [-32.19, 0, 0],
						"0.625": [-26.81, 0, 0],
						"0.75": [0, 0, 0]
					}
				},
				"foot_right": {
					"rotation": {
						"0.0": [45, 0, 0],
						"0.2083": [58.03, 0, 0],
						"0.2917": [53.89, 0, 0],
						"0.375": [1.75, 0, 0],
						"0.4583": {
							"pre": [-13.56, 0, 0],
							"post": [-13.56, 0, 0],
							"lerp_mode": "catmullrom"
						},
						"0.5833": {
							"post": [-3.53, 0, 0],
							"lerp_mode": "catmullrom"
						},
						"0.625": [7.17, 0, 0],
						"0.75": [45, 0, 0]
					}
				}
			}
		},
		"animation.annihilape.battle_idle": {
			"loop": true,
			"bones": {
				"torso": {
					"rotation": ["-12.5+Math.cos((query.anim_time) * 90 * 2 - 90) * 1.25", 0, "-5+Math.cos((query.anim_time) * 90 * 1) * 1"],
					"position": [0, "0+Math.cos((query.anim_time) * 90 * 2) * 0.3", 0]
				},
				"arm_left": {
					"rotation": [18.90197, -4.35913, "17.9603+Math.cos((query.anim_time) * 90 * 2 - 90) * -3"]
				},
				"arm_left2": {
					"rotation": [9.15503, 41.54155, "31.0449+Math.cos((query.anim_time) * 90 * 2 - 180) * -3"]
				},
				"hand_left": {
					"rotation": [0, 15, "7.5+Math.cos((query.anim_time) * 90 * 2 - 220) * -3"]
				},
				"fingers_left": {
					"rotation": [0, 0, 47.5]
				},
				"fingers_left2": {
					"rotation": [0, 0, 67.5]
				},
				"leg_left": {
					"rotation": ["-12.5+Math.cos((query.anim_time) * 90 * 2) * 5", -32.5, 0],
					"position": [0, "0+Math.cos((query.anim_time) * 90 * 2) * 0.2", 0]
				},
				"chain_knee_left": {
					"rotation": [5, 0, 0]
				},
				"foot_left": {
					"rotation": [0, 17.5, 0]
				},
				"thumb_left": {
					"rotation": [0, 35, 57.5]
				},
				"thumb_left2": {
					"rotation": [0, -65, 0]
				},
				"arm_right": {
					"rotation": [19.83165, 12.72968, "-8.8878+Math.cos((query.anim_time) * 90 * 2 - 90) * 3"]
				},
				"arm_right2": {
					"rotation": [11.64407, -53.84067, "-34.3908+Math.cos((query.anim_time) * 90 * 2 - 180) * 3"]
				},
				"hand_right": {
					"rotation": [0, -15, "-7.5+Math.cos((query.anim_time) * 90 * 2 - 220) * 3"]
				},
				"fingers_right": {
					"rotation": [0, 0, -47.5]
				},
				"fingers_right2": {
					"rotation": [0, 0, -67.5]
				},
				"thumb_right": {
					"rotation": [0, -35, -57.5]
				},
				"thumb_right2": {
					"rotation": [0, 65, 0]
				},
				"leg_right": {
					"rotation": ["-12.5+Math.cos((query.anim_time) * 90 * 2) * 5", 32.5, 0],
					"position": [0, "0+Math.cos((query.anim_time) * 90 * 2) * 0.2", 0]
				},
				"chain_knee_right": {
					"rotation": [5, 0, 0]
				},
				"shoulder_fur_left": {
					"rotation": [0, 0, 10]
				},
				"shoulder_fur_right": {
					"rotation": [0, 0, -10]
				},
				"ear_left_fur": {
					"rotation": [-25, 0, "0+Math.sin((query.anim_time) * 90 * 2 - 135) * -4"]
				},
				"ear_left_fur2": {
					"rotation": [-5, 5, "15+Math.sin((query.anim_time) * 90 * 2 - 225) * -5"]
				},
				"ear_right_fur": {
					"rotation": [-25, 0, "0+Math.sin((query.anim_time) * 90 * 2 - 135) * 4"]
				},
				"ear_right_fur2": {
					"rotation": [-5, -5, "-15+Math.sin((query.anim_time) * 90 * 2 - 225) * 5"]
				},
				"fur_bottom": {
					"rotation": ["17.5+Math.cos((query.anim_time) * 90 * 2) * -1", 0, 5]
				},
				"fur_bottom2": {
					"rotation": ["12.5+Math.cos((query.anim_time) * 90 * 2) * -5", 0, 0]
				},
				"hair_front": {
					"rotation": [12.5, 0, 0]
				},
				"hair_front2": {
					"rotation": [-17.36939, -1.81134, 0.06081]
				},
				"hair_front3": {
					"rotation": [-14.98637, -0.64686, -2.41492]
				},
				"hair_front4": {
					"rotation": [-0.46717, -0.61267, 4.94282]
				},
				"hair_front5": {
					"rotation": [-7.5, 0, 0]
				},
				"hair_front_end": {
					"rotation": [-14.13272, 5.07855, 19.37006]
				},
				"hair_left_rotation": {
					"rotation": [10, -10, 17.5]
				},
				"hair_left2": {
					"rotation": [-12.5, 0, 0]
				},
				"hair_left3": {
					"rotation": [-17.25002, 2.99318, 9.54589]
				},
				"hair_left4": {
					"rotation": [-19.99527, 0.21782, 2.4905]
				},
				"hair_left_end": {
					"rotation": [-27.5, 0, 0]
				},
				"hair_back_left_rotation": {
					"rotation": [5, 0, 17.5]
				},
				"hair_back_left2": {
					"rotation": [-7.32417, -1.61888, -12.39638]
				},
				"hair_back_left3": {
					"rotation": [-7.5, 0, 0]
				},
				"hair_back_left4": {
					"rotation": [-25, 0, 0]
				},
				"hair_back_left_end": {
					"rotation": [-27.5, 0, 0]
				},
				"hair_back_left_end2": {
					"rotation": [-60, 0, 0]
				},
				"hair_back_rotation": {
					"rotation": [-2.5, 0, 0]
				},
				"hair_back2": {
					"rotation": [-15, 0, 0]
				},
				"hair_back3": {
					"rotation": [-10, 0, 0]
				},
				"hair_back_end": {
					"rotation": [12.5, 0, 0]
				},
				"hair_right_rotation": {
					"rotation": [10, 10, -17.5]
				},
				"hair_right2": {
					"rotation": [-9.99067, -0.43399, -2.46207]
				},
				"hair_right3": {
					"rotation": [-9.76758, -2.15393, -12.31594]
				},
				"hair_right4": {
					"rotation": [-22.5, 0, 0]
				},
				"hair_right_end": {
					"rotation": [-20, 0, 0]
				},
				"hair_back_right_rotation": {
					"rotation": [5, 0, -17.5]
				},
				"hair_back_right2": {
					"rotation": [-12.2127, -2.68507, -12.2127]
				},
				"hair_back_right3": {
					"rotation": [-2.41492, 0.64686, 14.98637]
				},
				"hair_back_right_end2": {
					"rotation": [-62.5, 0, 0]
				},
				"hair_back_right4": {
					"rotation": [-25, 0, 0]
				},
				"hair_back_right_end": {
					"rotation": [-27.5, 0, 0]
				},
				"floating_hair_left": {
					"rotation": [0, 0, 2.5],
					"position": [0, 0, 1]
				},
				"floating_hair": {
					"rotation": [-10, 0, 0],
					"position": [0, 0, 2]
				},
				"floating_hair2": {
					"rotation": [12.5, 0, 0]
				},
				"floating_hair_left2": {
					"rotation": [-25, 0, 0]
				},
				"floating_hair_right": {
					"rotation": [10.86815, 6.21271, -29.40842],
					"position": [-2, 0, 1]
				},
				"floating_hair_right2": {
					"rotation": [-22.5, 0, 0]
				},
				"body": {
					"position": [0, -0.5, "0+Math.cos((query.anim_time) * 90 * 2) * -0.15"]
				},
				"ear_left": {
					"rotation": [0, 0, "0+Math.sin((query.anim_time) * 90 * 2 - 45) * -2"]
				},
				"ear_right": {
					"rotation": [0, 0, "0+Math.sin((query.anim_time) * 90 * 2 - 45) * 2"]
				},
				"leg_left2": {
					"rotation": ["15+Math.cos((query.anim_time) * 90 * 2) * -5", 0, "0+Math.cos((query.anim_time) * 90 * 2) * -1"]
				},
				"leg_right2": {
					"rotation": ["15+Math.cos((query.anim_time) * 90 * 2) * -5", 0, "0+Math.cos((query.anim_time) * 90 * 2) * 1"]
				}
			}
		},
		"animation.annihilape.sleep": {
			"loop": true,
			"bones": {
				"body": {
					"position": [0, -7, 0]
				},
				"torso": {
					"rotation": ["10+Math.cos((query.anim_time) * 90 * 1 - 90) * -1", -7.5, 0],
					"position": [0, 1, 2]
				},
				"eyelid_left": {
					"position": [0, 0, -0.1]
				},
				"eyelid_right": {
					"position": [0, 0, -0.1]
				},
				"ear_left_fur": {
					"rotation": [125, -15, -30]
				},
				"ear_left_fur2": {
					"rotation": [12.5, -2.5, 12.5]
				},
				"ear_right_fur": {
					"rotation": [125, 15, 30]
				},
				"ear_right_fur2": {
					"rotation": [12.5, 2.5, -12.5]
				},
				"arm_left": {
					"rotation": ["-32.5+Math.cos((query.anim_time) * 90 * 1 - 90) * 1", 0, 35]
				},
				"arm_left2": {
					"rotation": [77.87429, 42.26869, 61.12164]
				},
				"hand_left": {
					"rotation": [5, 35, 0]
				},
				"fingers_left": {
					"rotation": [0, 0, 37.5]
				},
				"fingers_left2": {
					"rotation": [0, 0, 85]
				},
				"thumb_left": {
					"rotation": [0, 25, 30]
				},
				"thumb_left2": {
					"rotation": [0, -50, 0]
				},
				"arm_right": {
					"rotation": ["-32.5+Math.cos((query.anim_time) * 90 * 1 - 90) * 1", 0, -35]
				},
				"arm_right2": {
					"rotation": [42.5, -40, -25]
				},
				"hand_right": {
					"rotation": [5, -35, 0]
				},
				"fingers_right": {
					"rotation": [0, 0, -37.5]
				},
				"fingers_right2": {
					"rotation": [0, 0, -85]
				},
				"thumb_right": {
					"rotation": [0, -25, -30]
				},
				"thumb_right2": {
					"rotation": [0, 50, 0]
				},
				"hair_front2": {
					"rotation": [-15, 0, 0]
				},
				"hair_front3": {
					"rotation": [-15, 0, 0]
				},
				"hair_front4": {
					"rotation": [-15, 0, 0]
				},
				"hair_front5": {
					"rotation": [-15, 0, 0]
				},
				"hair_front_end": {
					"rotation": [-15, 0, 0]
				},
				"hair_back2": {
					"rotation": [-15, 0, 0]
				},
				"hair_back3": {
					"rotation": [-15, 0, 0]
				},
				"hair_back_end": {
					"rotation": [-15, 0, 0]
				},
				"hair_left_rotation": {
					"rotation": [0, 2.5, 10]
				},
				"hair_left2": {
					"rotation": [-15, 0, 0]
				},
				"hair_left3": {
					"rotation": [-15, 0, 0]
				},
				"hair_left4": {
					"rotation": [-15, 0, 0]
				},
				"hair_left_end": {
					"rotation": [-15, 0, 0]
				},
				"hair_back_left_rotation": {
					"rotation": [0, 12.5, 12.5]
				},
				"hair_back_left2": {
					"rotation": [-15, 0, 0]
				},
				"hair_back_left3": {
					"rotation": [-15, 0, 0]
				},
				"hair_back_left4": {
					"rotation": [-15, 0, 0]
				},
				"hair_back_left_end": {
					"rotation": [-15, 0, 0]
				},
				"hair_right_rotation": {
					"rotation": [0, -2.5, -10]
				},
				"hair_right2": {
					"rotation": [-15, 0, 0]
				},
				"hair_right3": {
					"rotation": [-15, 0, 0]
				},
				"hair_right4": {
					"rotation": [-15, 0, 0]
				},
				"hair_right_end": {
					"rotation": [-15, 0, 0]
				},
				"hair_back_right_rotation": {
					"rotation": [0, -12.5, -12.5]
				},
				"hair_back_right2": {
					"rotation": [-15, 0, 0]
				},
				"hair_back_right3": {
					"rotation": [-15, 0, 0]
				},
				"hair_back_right4": {
					"rotation": [-15, 0, 0]
				},
				"hair_back_right_end": {
					"rotation": [-15, 0, 0]
				},
				"fur_bottom": {
					"rotation": [17.5, 0, 0]
				},
				"fur_bottom2": {
					"rotation": [37.5, 0, 0]
				},
				"leg_left": {
					"rotation": [-87.5, -10, 0]
				},
				"foot_left": {
					"rotation": [32.5, -25, 0]
				},
				"leg_right": {
					"rotation": [-87.5, 10, 0]
				},
				"foot_right": {
					"rotation": [32.5, 25, 0]
				}
			}
		},
		"animation.annihilape.faint": {
			"animation_length": 3,
			"bones": {
				"body": {
					"rotation": {
						"0.0": [0, 0, 0],
						"1.9167": [0, 0, 0],
						"2.0417": [-5, 0, 0],
						"2.125": [-16.5, 0, 0],
						"2.25": [-90, 0, 0],
						"2.3333": [-97.5, 0, 0],
						"2.5833": [-90, 0, 0]
					},
					"position": {
						"0.0": [0, 0, 0],
						"0.1667": [0, -1.91, 1.46],
						"0.375": [0, -2.625, 1.85],
						"0.5833": [0, -2.75, 2],
						"0.7083": [0, -4.75, 2],
						"0.8333": [0, -0.25, 2],
						"1.2083": {
							"pre": [0, 0.75, 2],
							"post": [0, 0.75, 2],
							"lerp_mode": "catmullrom"
						},
						"1.5833": {
							"post": [0, 0.5, 2],
							"lerp_mode": "catmullrom"
						},
						"1.7083": [0, -0.25, 2],
						"1.75": [0, 0, 2],
						"1.9167": [0, 0, 2],
						"2.0417": [0, -0.5, 3],
						"2.125": [0, -1, 3.75],
						"2.25": [0, -5, 7.75],
						"2.4167": [0, -5.25, 9.5],
						"2.5833": [0, -5, 10]
					}
				},
				"torso": {
					"rotation": {
						"0.0": [0, 0, 0],
						"0.125": {
							"pre": [6.76, 0, -7.5],
							"post": [6.76, 0, -7.5],
							"lerp_mode": "catmullrom"
						},
						"0.2083": {
							"post": [11.27, 0, -9],
							"lerp_mode": "catmullrom"
						},
						"0.375": {
							"post": [14.005, 0, 4.25],
							"lerp_mode": "catmullrom"
						},
						"0.5417": {
							"post": [15, 0, 7.75],
							"lerp_mode": "catmullrom"
						},
						"0.75": [30, 0, 0],
						"0.8333": [27.7, 0, 0],
						"1.0417": [6.75, 0, 0],
						"1.6667": [-17.5, 0, 0],
						"1.7083": {"pre": [-17.5, 0, 0], "post": [-29, -29, -10.5]},
						"1.8333": [-39.25, -13.5, -4.25],
						"2.1667": [-39.25, -13.5, -4.25],
						"2.2917": [4.75, -1, 0.15],
						"2.4583": [0.425, -1, 0.15],
						"2.6667": [-0.25, -1, 0.15]
					},
					"position": {
						"0.0": [0, 0, 0],
						"0.25": [0, -0.5, 0],
						"0.4167": [0, -0.56, 0],
						"0.5417": [0, -0.5, 0],
						"1.375": [
							"0+Math.cos((query.anim_time) * 90 * 48) * 0.8",
							"0.5+Math.cos((query.anim_time) * 90 * 48 - 90) * 0.3",
							"0+Math.cos((query.anim_time) * 90 * 48 - 90) * 0.8"
						],
						"1.6667": ["0+Math.cos((query.anim_time) * 90 * 48) * 1", 0.5, "0+Math.cos((query.anim_time) * 90 * 48 - 90) * 1"],
						"1.7083": [0, -3, 0],
						"1.7917": [0, 0, 0]
					},
					"scale": {
						"0.625": [1, 1, 1],
						"0.7083": [1.07, 0.93, 1.07],
						"0.7917": [0.9, 1.1, 0.9],
						"0.9167": [1, 1, 1],
						"1.625": [1, 1, 1],
						"1.6667": [1.1, 0.9, 1.1],
						"1.7083": [1, 1, 1]
					}
				},
				"eyebrow_left": {
					"rotation": {
						"0.0": [0, 0, 0],
						"0.75": [0, 0, 0],
						"1.7083": [0, 0, -30],
						"1.75": {"pre": [0, 0, -30], "post": [0, 0, 0]}
					}
				},
				"eyelid_left": {
					"position": {
						"0.0": [0, 0, -0.125],
						"0.7083": [0, 0, -0.125],
						"0.75": [0, 0, 0],
						"1.6667": {"pre": [0, 0, 0], "post": [0, 0, 0]},
						"1.7083": [0, 0, -0.125]
					}
				},
				"eyebrow_right": {
					"rotation": {
						"0.0": [0, 0, 0],
						"0.75": [0, 0, 0],
						"1.7083": [0, 0, 30],
						"1.75": {"pre": [0, 0, 30], "post": [0, 0, 0]}
					}
				},
				"eyelid_right": {
					"position": {
						"0.0": [0, 0, -0.125],
						"0.7083": [0, 0, -0.125],
						"0.75": [0, 0, 0],
						"1.6667": {"pre": [0, 0, 0], "post": [0, 0, 0]},
						"1.7083": [0, 0, -0.125]
					}
				},
				"ear_left": {
					"rotation": {
						"0.0": [0, 0, -7.5],
						"0.8333": [0, 0, 0],
						"1.0": [0, 0, 12.5],
						"2.0417": [0, 0, 0],
						"2.1667": [37.5, 0, 9.25],
						"2.2917": [5, 0, 9.25],
						"2.4167": [-7.5, 0, 9.25]
					}
				},
				"ear_left_fur": {
					"rotation": {
						"0.0": [140, 0, -30],
						"0.25": {
							"pre": [140, 0, -16],
							"post": [140, 0, -16],
							"lerp_mode": "catmullrom"
						},
						"0.625": {
							"post": [140, 0, -50],
							"lerp_mode": "catmullrom"
						},
						"0.875": [140, 0, -30],
						"1.6667": [0, 0, 0],
						"1.7083": {"pre": [0, 0, 0], "post": [0, 42.5, 39.5]},
						"1.7917": [0, 28.25, 2.75],
						"2.125": [0, 28.25, 2.75],
						"2.2917": [75, 0, -15],
						"2.4583": [-8.25, 0, -15],
						"2.5833": [-27.5, 0, -15]
					}
				},
				"ear_left_fur2": {
					"rotation": [0, 0, 15],
					"position": [0, 0, 0]
				},
				"ear_right": {
					"rotation": {
						"0.0": [0, 0, 7.5],
						"0.8333": [0, 0, 0],
						"1.0": [0, 0, -12.5],
						"2.0417": [0, 0, 0],
						"2.1667": [37.5, 0, 0],
						"2.2917": [5, 0, 0],
						"2.4167": [-7.5, 0, 0]
					}
				},
				"ear_right_fur": {
					"rotation": {
						"0.0": [140, 0, 30],
						"0.25": {
							"pre": [140, 0, 45],
							"post": [140, 0, 45],
							"lerp_mode": "catmullrom"
						},
						"0.625": {
							"post": [140, 0, 20],
							"lerp_mode": "catmullrom"
						},
						"0.875": [140, 0, 30],
						"1.6667": [0, 0, 0],
						"1.7083": {"pre": [0, 0, 0], "post": [0, 0, 44.5]},
						"1.7917": [0, 0, 15],
						"2.0833": [0, 0, 15],
						"2.2083": [75, 0, 15],
						"2.375": [-8.25, 0, 15],
						"2.5": [-27.5, 0, 15]
					}
				},
				"ear_right_fur2": {
					"rotation": [0, 0, -15]
				},
				"arm_left": {
					"rotation": {
						"0.0": [0, -22.5, 25],
						"0.1667": {
							"pre": [0, -42, 5.5],
							"post": [0, -42, 5.5],
							"lerp_mode": "catmullrom"
						},
						"0.2917": {
							"post": [0, -48, 24.61],
							"lerp_mode": "catmullrom"
						},
						"0.4167": {
							"post": [0, -42, 42.03],
							"lerp_mode": "catmullrom"
						},
						"0.5833": [0, -28, 37.75],
						"0.6667": [0, -23.25, 35.75],
						"0.75": [0, 9.25, 35.75],
						"1.6667": [0, -35.75, "43.25+Math.cos((query.anim_time) * 90 * 48 - 90) * -6"],
						"1.7083": {"pre": [0, -35.75, "43.25+Math.cos((query.anim_time) * 90 * 48 - 90) * -6"], "post": [45, -13.25, 18.25]},
						"1.8333": [23.75, -28.25, 32.25],
						"2.0833": [23.75, -28.25, 32.25],
						"2.1667": [23.75, -0.75, 32.25],
						"2.2917": [23.75, -45.75, 32.25],
						"2.4167": {
							"pre": [23.75, -42.25, 32.25],
							"post": [23.75, -42.25, 32.25],
							"lerp_mode": "catmullrom"
						},
						"2.5417": {
							"post": [23.75, -38.75, 32.25],
							"lerp_mode": "catmullrom"
						},
						"2.6667": [23.75, -41.275, 32.25]
					},
					"position": {
						"0.3333": [0, 0, 0],
						"0.4583": [0, 1.75, 0],
						"0.7083": [0, 1.75, 0],
						"0.7917": [0, 0, 0]
					}
				},
				"arm_left2": {
					"rotation": {
						"0.0": [0, 55, 0],
						"0.125": {
							"pre": [21.76507, 57.67072, 52.49984],
							"post": [21.76507, 57.67072, 52.49984],
							"lerp_mode": "catmullrom"
						},
						"0.2917": {
							"post": [0, 51.75, -20],
							"lerp_mode": "catmullrom"
						},
						"0.5": [-17.5, 80, -20],
						"0.625": [-20, 87.5, -20],
						"0.75": [-20, 90, -20],
						"1.6667": [-20, 35, -20],
						"1.7083": {"pre": [-20, 35, -20], "post": [-20, 35, -75]},
						"1.7917": [-20, 35, -62.975],
						"1.8333": [-20, 35, -61.5],
						"2.0833": [-20, 35, -61.5],
						"2.2083": [-20, 42.5, -61.5],
						"2.375": [0, 30, -41.5]
					}
				},
				"hand_left": {
					"rotation": {
						"0.0": [0, 0, 35],
						"0.2083": [0, 0, 12.5],
						"0.5": [0, 0, 52.5],
						"1.6667": [0, 0, 15],
						"1.7083": {"pre": [0, 0, 15], "post": [0, 0, 52.5]},
						"2.25": [0, 0, 52.5],
						"2.3333": [17.5, 24, 12.5],
						"2.5": [17.5, 19, 12.5]
					}
				},
				"fingers_left": {
					"rotation": {
						"0.0": [0, 0, 50],
						"0.7083": [0, 0, 50],
						"1.6667": [0, 0, 10],
						"1.7083": {"pre": [0, 0, 10], "post": [0, 0, 50]}
					}
				},
				"fingers_left2": {
					"rotation": {
						"0.0": [0, 0, 50],
						"0.7083": [0, 0, 50],
						"1.6667": [0, 0, 15],
						"1.7083": {"pre": [0, 0, 15], "post": [0, 0, 50]}
					}
				},
				"thumb_left": {
					"rotation": {
						"0.0": [0, 20, 25],
						"0.75": [0, 20, 25],
						"1.6667": [0, 20, 42.5],
						"1.7083": {"pre": [0, 20, 42.5], "post": [0, 20, 25]}
					}
				},
				"thumb_left2": {
					"rotation": [0, -42.5, 0]
				},
				"arm_right": {
					"rotation": {
						"0.0": [0, 28, -30.5],
						"0.2083": [0, 22.5, -27],
						"0.375": {
							"pre": [0, 42, -7.5],
							"post": [0, 42, -7.5],
							"lerp_mode": "catmullrom"
						},
						"0.5": {
							"post": [0, 48, -26.61],
							"lerp_mode": "catmullrom"
						},
						"0.625": {
							"post": [0, 42, -44.03],
							"lerp_mode": "catmullrom"
						},
						"0.7917": [0, 28, -39.75],
						"0.875": [0, 23.25, -37.75],
						"1.6667": [0, 35.75, "-43.25+Math.cos((query.anim_time) * 90 * 48 - 90) * 6"],
						"1.7083": {"pre": [0, 35.75, "-43.25+Math.cos((query.anim_time) * 90 * 48 - 90) * 6"], "post": [80, 35.75, -3.25]},
						"1.7917": [80, 35.75, -18.25],
						"2.0417": [80, 35.75, -18.25],
						"2.1667": [80, 3.25, -18.25],
						"2.2917": [80, 23.25, -18.25],
						"2.375": [80, 15.75, -18.25],
						"2.5": [80, 14.25, -18.25],
						"2.625": [80, 18.25, -18.25]
					},
					"position": {
						"0.0": [0, 0, 0],
						"0.2083": [0, 0.75, 0],
						"0.4583": [0, 0, 0],
						"0.6667": [0, 0.75, 0],
						"0.7083": [0, 2.5, 0],
						"0.7917": [0, 0, 0]
					}
				},
				"arm_right2": {
					"rotation": {
						"0.0": [0, -35, 0],
						"0.2083": [0, -55, 0],
						"0.3333": {
							"pre": [25.29271, -59.28023, -61.36531],
							"post": [25.29271, -59.28023, -61.36531],
							"lerp_mode": "catmullrom"
						},
						"0.5": {
							"post": [0, -51.75, 20],
							"lerp_mode": "catmullrom"
						},
						"0.7083": [-17.5, -80, 20],
						"0.8333": [-20, -87.5, 20],
						"1.6667": [-20, -35, 20],
						"1.7083": {"pre": [-20, -35, 20], "post": [-20, 12.5, 35]},
						"1.7917": [-20, -2.5, 20]
					}
				},
				"hand_right": {
					"rotation": {
						"0.0": [0, 0, -22.5],
						"0.2083": [0, 0, -35],
						"0.4167": [0, 0, -12.5],
						"0.7083": [0, 0, -52.5],
						"1.6667": [0, 0, -15],
						"1.7083": {"pre": [0, 0, -15], "post": [0, 0, -52.5]},
						"2.25": [0, 0, -52.5],
						"2.3333": [0, 0, -32.5],
						"2.5417": [0, 0, -25]
					}
				},
				"fingers_right": {
					"rotation": {
						"0.0": [0, 0, -50],
						"0.7083": [0, 0, -50],
						"1.6667": [0, 0, -10],
						"1.7083": {"pre": [0, 0, -10], "post": [0, 0, -50]}
					}
				},
				"fingers_right2": {
					"rotation": {
						"0.0": [0, 0, -50],
						"0.7083": [0, 0, -50],
						"1.6667": [0, 0, -15],
						"1.7083": {"pre": [0, 0, -15], "post": [0, 0, -50]}
					}
				},
				"thumb_right": {
					"rotation": {
						"0.0": [0, -20, -25],
						"0.75": [0, -20, -25],
						"1.6667": [0, -20, -42.5],
						"1.7083": {"pre": [0, -20, -42.5], "post": [0, -20, -25]}
					}
				},
				"thumb_right2": {
					"rotation": [0, 42.5, 0]
				},
				"hair_front": {
					"rotation": {
						"0.0": [0, 0, 0.5],
						"0.125": {
							"pre": [0, 0, 12],
							"post": [0, 0, 12],
							"lerp_mode": "catmullrom"
						},
						"0.25": {
							"post": [0, 0, 9.64],
							"lerp_mode": "catmullrom"
						},
						"0.4583": {
							"post": [0, 0, -17.5],
							"lerp_mode": "catmullrom"
						},
						"0.6667": [0, 0, -0.75],
						"0.875": [0, 0, -0.75],
						"1.1667": ["Math.cos((query.anim_time) * 90 * 24) * 12", 0, "1+Math.cos((query.anim_time) * 90 * 24 + 90) * 12"],
						"1.6667": ["Math.cos((query.anim_time) * 90 * 24) * 12", 0, "Math.cos((query.anim_time) * 90 * 24 + 90) * 12"],
						"1.7083": {"pre": ["Math.cos((query.anim_time) * 90 * 24) * 12", 0, "Math.cos((query.anim_time) * 90 * 24 + 90) * 12"], "post": [0, 0, 0]},
						"2.0417": [0, 0, 0],
						"2.1667": [27.5, 0, 0],
						"2.2917": [0, 0, 0]
					}
				},
				"hair_front2": {
					"rotation": {
						"0.0": [-15, 0, 0.5],
						"0.2083": {
							"pre": [-15, 0, 12],
							"post": [-15, 0, 12],
							"lerp_mode": "catmullrom"
						},
						"0.3333": {
							"post": [-15, 0, 9.64],
							"lerp_mode": "catmullrom"
						},
						"0.5417": {
							"post": [-15, 0, -17.5],
							"lerp_mode": "catmullrom"
						},
						"0.75": [-40, 0, -0.75],
						"0.875": [-15, 0, -0.75],
						"1.1667": ["-15+Math.cos((query.anim_time) * 90 * 24 - 90) * 20", 0, "1+Math.cos((query.anim_time) * 90 * 24) * 20"],
						"1.6667": ["-15+Math.cos((query.anim_time) * 90 * 24 - 90) * 20", 0, "Math.cos((query.anim_time) * 90 * 24) * 20"],
						"1.7083": {"pre": ["-15+Math.cos((query.anim_time) * 90 * 24 - 90) * 20", 0, "Math.cos((query.anim_time) * 90 * 24) * 20"], "post": [-15, 0, 32.5]},
						"2.0833": [-10.5, 0, 32.5],
						"2.2083": [37.5, 0, 32.5],
						"2.2917": [-12.5, 0, 32.5],
						"2.5417": [-17.5, 0, 32.5]
					}
				},
				"hair_front3": {
					"rotation": {
						"0.0": [-15, 0, 0.5],
						"0.2917": {
							"pre": [-15, 0, 12],
							"post": [-15, 0, 12],
							"lerp_mode": "catmullrom"
						},
						"0.4167": {
							"post": [-15, 0, 9.64],
							"lerp_mode": "catmullrom"
						},
						"0.625": {
							"post": [-15, 0, -17.5],
							"lerp_mode": "catmullrom"
						},
						"0.8333": [-15, 0, -0.75],
						"0.9583": [-15, 0, -0.75],
						"1.1667": ["-15+Math.cos((query.anim_time) * 90 * 24 - 180) * 30", 0, "Math.cos((query.anim_time) * 90 * 24 - 90) * 30"],
						"1.6667": ["-15+Math.cos((query.anim_time) * 90 * 24 - 180) * 30", 0, "Math.cos((query.anim_time) * 90 * 24 - 90) * 30"],
						"1.7083": {"pre": ["-15+Math.cos((query.anim_time) * 90 * 24 - 180) * 30", 0, "Math.cos((query.anim_time) * 90 * 24 - 90) * 30"], "post": [-30, 0, -70]},
						"2.1667": [-30, 0, -70],
						"2.25": [37.4044, -0.35706, -61.43532],
						"2.375": [-8.9412, -0.71412, -52.87064],
						"2.4583": [-12.83459, -1.2497, -53.69862]
					}
				},
				"hair_front4": {
					"rotation": {
						"0.0": [-15, 0, 0.5],
						"0.3333": {
							"pre": [-15, 0, 12],
							"post": [-15, 0, 12],
							"lerp_mode": "catmullrom"
						},
						"0.4583": {
							"post": [-15, 0, 9.64],
							"lerp_mode": "catmullrom"
						},
						"0.6667": {
							"post": [-15, 0, -17.5],
							"lerp_mode": "catmullrom"
						},
						"0.875": [-15, 0, -0.75],
						"1.0": [-15, 0, -0.75],
						"1.1667": ["-15+Math.cos((query.anim_time) * 90 * 24 - 270) * 30", 0, "Math.cos((query.anim_time) * 90 * 24 - 180) * 30"],
						"1.6667": ["-15+Math.cos((query.anim_time) * 90 * 24 - 270) * 30", 0, "Math.cos((query.anim_time) * 90 * 24 - 180) * 30"],
						"1.7083": {"pre": ["-15+Math.cos((query.anim_time) * 90 * 24 - 270) * 30", 0, "Math.cos((query.anim_time) * 90 * 24 - 180) * 30"], "post": [0, 0, 55]},
						"2.0417": [0, 0, 55],
						"2.1667": [42.5, 0, 55],
						"2.2917": [0, 0, 55]
					}
				},
				"hair_front5": {
					"rotation": {
						"0.0": [-45, 0, 0],
						"1.7083": [-45, 0, 0],
						"2.0": [-45, 0, 0],
						"2.1667": [21.5, 0, 0],
						"2.2917": [-45, 0, 0],
						"2.375": [12.08681, 3.21132, -14.65993]
					}
				},
				"hair_front_end": {
					"rotation": [-15, 0, 0]
				},
				"hair_back_rotation": {
					"rotation": {
						"0.0": [0, 0, 0.5],
						"0.1667": {
							"pre": [0, 0, 12],
							"post": [0, 0, 12],
							"lerp_mode": "catmullrom"
						},
						"0.2917": {
							"post": [0, 0, 9.64],
							"lerp_mode": "catmullrom"
						},
						"0.5": {
							"post": [0, 0, -17.5],
							"lerp_mode": "catmullrom"
						},
						"0.7083": [0, 0, -0.75],
						"0.875": [2, 0, -0.75],
						"1.1667": ["2+Math.cos((query.anim_time) * 90 * 24 - 90) * 20", 0, "1+Math.cos((query.anim_time) * 90 * 24) * 20"],
						"1.6667": ["2+Math.cos((query.anim_time) * 90 * 24 - 90) * 20", 0, "Math.cos((query.anim_time) * 90 * 24) * 20"],
						"1.7083": {"pre": ["2+Math.cos((query.anim_time) * 90 * 24 - 90) * 20", 0, "Math.cos((query.anim_time) * 90 * 24) * 20"], "post": [2, 0, 32.5]},
						"2.0417": [3.5, 0, 32.5],
						"2.2083": [74, 0, 32.5],
						"2.3333": [60.5, 0, 32.5],
						"2.5833": [55.5, 0, 32.5]
					}
				},
				"hair_back2": {
					"rotation": {
						"0.0": [-15, 0, 0.5],
						"0.2083": {
							"pre": [-15, 0, 12],
							"post": [-15, 0, 12],
							"lerp_mode": "catmullrom"
						},
						"0.3333": {
							"post": [-15, 0, 9.64],
							"lerp_mode": "catmullrom"
						},
						"0.5417": {
							"post": [-15, 0, -17.5],
							"lerp_mode": "catmullrom"
						},
						"0.75": [-15, 0, -0.75],
						"0.875": [-15, 0, -0.75],
						"1.1667": ["-15+Math.cos((query.anim_time) * 90 * 24 - 90) * 20", 0, "1+Math.cos((query.anim_time) * 90 * 24) * 20"],
						"1.6667": ["-15+Math.cos((query.anim_time) * 90 * 24 - 90) * 20", 0, "Math.cos((query.anim_time) * 90 * 24) * 20"],
						"1.7083": {"pre": ["-15+Math.cos((query.anim_time) * 90 * 24 - 90) * 20", 0, "Math.cos((query.anim_time) * 90 * 24) * 20"], "post": [-15, 0, -17.5]},
						"2.0833": [-10.5, 0, -17.5],
						"2.2083": [37.5, 0, -17.5],
						"2.2917": [-12.5, 0, -17.5],
						"2.5417": [-17.5, 0, -17.5]
					}
				},
				"hair_back3": {
					"rotation": {
						"0.0": [-15, 0, 0.5],
						"0.2917": {
							"pre": [-15, 0, 12],
							"post": [-15, 0, 12],
							"lerp_mode": "catmullrom"
						},
						"0.4167": {
							"post": [-15, 0, 9.64],
							"lerp_mode": "catmullrom"
						},
						"0.625": {
							"post": [-15, 0, -17.5],
							"lerp_mode": "catmullrom"
						},
						"0.8333": [-15, 0, -0.75],
						"0.9583": [-15, 0, -0.75],
						"1.1667": ["-15+Math.cos((query.anim_time) * 90 * 24 - 270) * 50", 0, "Math.cos((query.anim_time) * 90 * 24 - 180) * 50"],
						"1.6667": ["-15+Math.cos((query.anim_time) * 90 * 24 - 270) * 50", 0, "Math.cos((query.anim_time) * 90 * 24 - 180) * 50"],
						"1.7083": {"pre": ["-15+Math.cos((query.anim_time) * 90 * 24 - 270) * 50", 0, "Math.cos((query.anim_time) * 90 * 24 - 180) * 50"], "post": [0, 0, 55]},
						"2.0417": [0, 0, 55],
						"2.2917": [0, 0, 55]
					}
				},
				"hair_back_end": {
					"rotation": [-15, 0, 0]
				},
				"hair_left_rotation": {
					"rotation": {
						"0.0": [0, 7.5, 18.5],
						"0.2083": {
							"pre": [0, 7.5, 25],
							"post": [0, 7.5, 25],
							"lerp_mode": "catmullrom"
						},
						"0.2917": {
							"post": [0, 7.5, 22.64],
							"lerp_mode": "catmullrom"
						},
						"0.5": {
							"post": [0, 7.5, 0.5],
							"lerp_mode": "catmullrom"
						},
						"0.7083": [0, 7.5, 11.25],
						"0.7917": [0, 7.5, -3.75],
						"0.9167": [0, 7.5, 11.25],
						"1.1667": [0, 7.5, "12.25+Math.cos((query.anim_time) * 90 * 24 + 45) * 12"],
						"1.6667": [0, 7.5, "11.25+Math.cos((query.anim_time) * 90 * 24 + 45) * 12"],
						"1.7083": {"pre": [0, 7.5, "11.25+Math.cos((query.anim_time) * 90 * 24 + 45) * 12"], "post": [-12.5, 0, 22.5]},
						"2.0417": [-12.5, 0, 22.5],
						"2.2083": [12.5, 0, 22.5],
						"2.375": [-12.5, 0, 22.5],
						"2.625": [-17.5, 0, 22.5]
					}
				},
				"hair_left2": {
					"rotation": {
						"0.0833": [-15, 12.5, 7],
						"0.2083": {
							"pre": [-15, 12.5, 7.25],
							"post": [-15, 12.5, 7.25],
							"lerp_mode": "catmullrom"
						},
						"0.375": {
							"post": [-15, 12.5, 4.64],
							"lerp_mode": "catmullrom"
						},
						"0.625": {
							"post": [-15, 12.5, -14.5],
							"lerp_mode": "catmullrom"
						},
						"0.8333": [-55, 12.5, 11.25],
						"0.9167": [-15, 12.5, -14.75],
						"1.0417": [-15, 0, 0.25],
						"1.125": [0, 0, "1+Math.cos((query.anim_time) * 90 * 24 - 45) * 30"],
						"1.625": [0, 0, "Math.cos((query.anim_time) * 90 * 24 - 45) * 30"],
						"1.6667": {"pre": [0, 0, "Math.cos((query.anim_time) * 90 * 24 - 45) * 30"], "post": [5.84485, -11.06861, -39.31681]},
						"2.125": [5.84485, -11.06861, -39.31681],
						"2.2083": [43.34485, -11.06861, -39.31681],
						"2.3333": [-9.29565, -8.9751, -24.23123]
					}
				},
				"hair_left3": {
					"rotation": {
						"0.0833": [-15, 12.5, 7],
						"0.2917": {
							"pre": [-15, 12.5, 8],
							"post": [-15, 12.5, 8],
							"lerp_mode": "catmullrom"
						},
						"0.4583": {
							"post": [-15, 12.5, 2.64],
							"lerp_mode": "catmullrom"
						},
						"0.7083": {
							"post": [-15, 12.5, -17.5],
							"lerp_mode": "catmullrom"
						},
						"0.9167": [-15, 12.5, 11.25],
						"1.0": [-15, 12.5, -3.75],
						"1.125": [-15, 0, 11.25],
						"1.1667": [-15, 0, "5+Math.cos((query.anim_time) * 90 * 24 - 135) * 50"],
						"1.6667": [-15, 0, "5+Math.cos((query.anim_time) * 90 * 24 - 135) * 50"],
						"1.7083": {"pre": [-15, 0, "5+Math.cos((query.anim_time) * 90 * 24 - 135) * 50"], "post": [-13.0867, 11.72145, 46.15088]},
						"2.0417": [-13.0867, 11.72145, 46.15088],
						"2.2083": [32.9133, 11.72145, 46.15088],
						"2.2917": [-12.0867, 11.72145, 46.15088],
						"2.375": [17.9133, 11.72145, 46.15088],
						"2.7083": [19.4133, 11.72145, 46.15088]
					}
				},
				"hair_left4": {
					"rotation": {
						"0.0": [-15, 0, 0],
						"0.1667": [-15, 12.5, 5.5],
						"0.375": {
							"pre": [-15, 12.5, 6.5],
							"post": [-15, 12.5, 6.5],
							"lerp_mode": "catmullrom"
						},
						"0.5417": {
							"post": [-15, 12.5, 1.14],
							"lerp_mode": "catmullrom"
						},
						"0.7917": {
							"post": [-15, 12.5, -17.5],
							"lerp_mode": "catmullrom"
						},
						"1.0": [-15, 12.5, 11.25],
						"1.0833": [-15, 12.5, -3.75],
						"1.2083": [-15, 0, 11.25],
						"2.0": [-15, 0, 11.25],
						"2.1667": [35, 0, 11.25],
						"2.2917": [-15, 0, 11.25]
					}
				},
				"hair_left_end": {
					"rotation": [-15, 0, 0]
				},
				"hair_back_left_rotation": {
					"rotation": {
						"0.0": [0, 12.5, 17.5],
						"0.125": {
							"pre": [0, 12.5, 25],
							"post": [0, 12.5, 25],
							"lerp_mode": "catmullrom"
						},
						"0.2083": {
							"post": [0, 12.5, 22.64],
							"lerp_mode": "catmullrom"
						},
						"0.4167": {
							"post": [0, 12.5, 0.5],
							"lerp_mode": "catmullrom"
						},
						"0.625": [0, 12.5, 11.25],
						"0.7083": [0, 12.5, -3.75],
						"0.8333": [0, 12.5, 11.25],
						"1.1667": [0, 12.5, "12.25+Math.cos((query.anim_time) * 90 * 24) * 12"],
						"1.6667": [0, 12.5, "11.25+Math.cos((query.anim_time) * 90 * 24) * 12"],
						"1.7083": {"pre": [0, 12.5, "11.25+Math.cos((query.anim_time) * 90 * 24) * 12"], "post": [0, 0, 22.5]},
						"2.0": [0, 0, 22.5],
						"2.125": [10, 0, 22.5],
						"2.2917": [2.5, 0, 22.5],
						"2.5833": [0, 0, 22.5]
					}
				},
				"hair_back_left2": {
					"rotation": {
						"0.0": [-15, 12.5, 13.5],
						"0.125": {
							"pre": [-15, 12.5, 21],
							"post": [-15, 12.5, 21],
							"lerp_mode": "catmullrom"
						},
						"0.2917": {
							"post": [-15, 12.5, 22.64],
							"lerp_mode": "catmullrom"
						},
						"0.5417": {
							"post": [-15, 12.5, -14.5],
							"lerp_mode": "catmullrom"
						},
						"0.75": [-30, 12.5, 11.25],
						"0.8333": [-60, 12.5, -14.75],
						"0.9583": [-15, 0, 0.25],
						"1.1667": [-15, 0, "1+Math.cos((query.anim_time) * 90 * 24 - 90) * 30"],
						"1.6667": [-15, 0, "Math.cos((query.anim_time) * 90 * 24 - 90) * 30"],
						"1.7083": {"pre": [-15, 0, "Math.cos((query.anim_time) * 90 * 24 - 90) * 30"], "post": [-13.36965, 6.86379, 26.69458]},
						"2.0417": [-13.36965, 6.86379, 26.69458],
						"2.1667": [41.63035, 6.86379, 26.69458],
						"2.3333": [-8.36965, 6.86379, 26.69458],
						"2.625": [-13.36965, 6.86379, 26.69458]
					}
				},
				"hair_back_left3": {
					"rotation": {
						"0.0": [-15, 12.5, 8.5],
						"0.2083": {
							"pre": [-15, 12.5, 21],
							"post": [-15, 12.5, 21],
							"lerp_mode": "catmullrom"
						},
						"0.375": {
							"post": [-15, 12.5, 15.64],
							"lerp_mode": "catmullrom"
						},
						"0.625": {
							"post": [-15, 12.5, -17.5],
							"lerp_mode": "catmullrom"
						},
						"0.8333": [-15, 12.5, 11.25],
						"0.9167": [-15, 12.5, -3.75],
						"1.0417": [-15, 0, 11.25],
						"1.1667": [-15, 0, "5+Math.cos((query.anim_time) * 90 * 24 - 180) * 50"],
						"1.6667": [-15, 0, "Math.cos((query.anim_time) * 90 * 24 - 180) * 50"],
						"1.7083": {"pre": [-15, 0, "Math.cos((query.anim_time) * 90 * 24 - 180) * 50"], "post": [-17.5, 0, -42.5]},
						"2.0833": [-17.5, 0, -42.5],
						"2.2083": [30, 0, -42.5],
						"2.375": [10, 0, -42.5]
					}
				},
				"hair_back_left4": {
					"rotation": {
						"0.0": [-15, 0, 0],
						"2.0": [-15, 0, 0],
						"2.1667": [43.89, 0, 0],
						"2.375": [5, 0, 0]
					}
				},
				"hair_back_left_end": {
					"rotation": [-15, 0, 0]
				},
				"hair_right_rotation": {
					"rotation": {
						"0.0": [0, -7.5, -17.5],
						"0.0833": {
							"pre": [0, -7.5, -5],
							"post": [0, -7.5, -5],
							"lerp_mode": "catmullrom"
						},
						"0.25": {
							"post": [0, -7.5, -7.36],
							"lerp_mode": "catmullrom"
						},
						"0.4583": {
							"post": [0, -7.5, -22],
							"lerp_mode": "catmullrom"
						},
						"0.625": [0, -7.5, -18.75],
						"0.7083": [0, -7.5, -3.75],
						"0.8333": [0, -7.5, -11.25],
						"1.1667": [0, -7.5, "-12.25+Math.cos((query.anim_time) * 90 * 24 + 45) * -12"],
						"1.6667": [0, -7.5, "-11.25+Math.cos((query.anim_time) * 90 * 24 + 45) * -12"],
						"1.7083": {"pre": [0, -7.5, "-11.25+Math.cos((query.anim_time) * 90 * 24 + 45) * -12"], "post": [-12.5, 0, -22.5]},
						"2.0": [-12.5, 0, -22.5],
						"2.1667": [-2.5, 0, -22.5],
						"2.2917": [-12.5, 0, -22.5]
					}
				},
				"hair_right2": {
					"rotation": {
						"0.0": [-15, 12.5, -2.5],
						"0.125": {
							"pre": [-15, 12.5, 5],
							"post": [-15, 12.5, 5],
							"lerp_mode": "catmullrom"
						},
						"0.2917": {
							"post": [-15, 12.5, 6.64],
							"lerp_mode": "catmullrom"
						},
						"0.5417": {
							"post": [-15, 12.5, -19.5],
							"lerp_mode": "catmullrom"
						},
						"0.75": [-30, 12.5, 6.25],
						"0.8333": [-30, -12.5, 14.75],
						"0.9583": [-15, 0, -0.25],
						"1.125": [0, 0, "-1+Math.cos((query.anim_time) * 90 * 24 - 45) * -30"],
						"1.625": [0, 0, "-(Math.cos((query.anim_time) * 90 * 24 - 45) * 30)"],
						"1.6667": {"pre": [0, 0, "-(Math.cos((query.anim_time) * 90 * 24 - 45) * 30)"], "post": [5.84485, 11.06861, 39.31681]},
						"1.7083": [-0.55404, 12.48791, 8.68938],
						"2.0": [-0.55404, 12.48791, 8.68938],
						"2.125": [24.44596, 12.48791, 8.68938],
						"2.25": [-0.55404, 12.48791, 8.68938]
					}
				},
				"hair_right3": {
					"rotation": {
						"0.0417": [-15, 12.5, -2.5],
						"0.25": {
							"pre": [-15, 12.5, 10],
							"post": [-15, 12.5, 10],
							"lerp_mode": "catmullrom"
						},
						"0.4167": {
							"post": [-15, 12.5, 4.64],
							"lerp_mode": "catmullrom"
						},
						"0.6667": {
							"post": [-15, 12.5, -28.5],
							"lerp_mode": "catmullrom"
						},
						"0.875": [-15, -12.5, -11.25],
						"0.9583": [-15, -12.5, 3.75],
						"1.0833": [-15, 0, -11.25],
						"1.1667": [-15, 0, "-5+Math.cos((query.anim_time) * 90 * 24 - 135) * -50"],
						"1.6667": [-15, 0, "-5+Math.cos((query.anim_time) * 90 * 24 - 135) * -50"],
						"1.7083": {"pre": [-15, 0, "-5+Math.cos((query.anim_time) * 90 * 24 - 135) * -50"], "post": [-13.0867, 11.72145, 36.15088]},
						"2.0833": [-13.0867, 11.72145, 36.15088],
						"2.25": [29.4133, 11.72145, 36.15088],
						"2.3333": [-13.0867, 11.72145, 36.15088],
						"2.5833": [-28.0867, 11.72145, 36.15088]
					}
				},
				"hair_right4": {
					"rotation": {
						"0.0": [-15, 0, 0],
						"2.0": [-15, 0, 0],
						"2.25": [35, 0, 0],
						"2.375": [7.5, 0, 0]
					}
				},
				"hair_right_end": {
					"rotation": [-15, 0, 0]
				},
				"hair_back_right_rotation": {
					"rotation": {
						"0.0": [0, -12.5, -17.5],
						"0.125": {
							"pre": [0, -12.5, -5],
							"post": [0, -12.5, -5],
							"lerp_mode": "catmullrom"
						},
						"0.2917": {
							"post": [0, -12.5, -7.36],
							"lerp_mode": "catmullrom"
						},
						"0.5": {
							"post": [0, -12.5, -22],
							"lerp_mode": "catmullrom"
						},
						"0.6667": [-15, -12.5, -18.75],
						"0.75": [-45, -12.5, -3.75],
						"0.875": [0, -12.5, -11.25],
						"1.1667": [0, -12.5, "-10.25+Math.cos((query.anim_time) * 90 * 24) * -12"],
						"1.6667": [0, -12.5, "-11.25+Math.cos((query.anim_time) * 90 * 24) * -12"],
						"1.7083": {"pre": [0, -12.5, "-11.25+Math.cos((query.anim_time) * 90 * 24) * -12"], "post": [0, 0, 0]},
						"2.0": [0, 0, 0],
						"2.1667": [42.5, 0, 0],
						"2.2917": [0, 0, 0]
					}
				},
				"hair_back_right2": {
					"rotation": {
						"0.0": [-15, 12.5, -2.5],
						"0.125": {
							"pre": [-15, 12.5, 5],
							"post": [-15, 12.5, 5],
							"lerp_mode": "catmullrom"
						},
						"0.2917": {
							"post": [-15, 12.5, 6.64],
							"lerp_mode": "catmullrom"
						},
						"0.5417": {
							"post": [-15, 12.5, -19.5],
							"lerp_mode": "catmullrom"
						},
						"0.75": [-15, 12.5, 6.25],
						"0.8333": [-15, -12.5, 14.75],
						"0.9583": [-15, 0, -0.25],
						"1.1667": [-15, 0, "-(Math.cos((query.anim_time) * 90 * 24 - 90) * 30)"],
						"1.6667": [-15, 0, "-(Math.cos((query.anim_time) * 90 * 24 - 90) * 30)"],
						"1.7083": {"pre": [-15, 0, "-(Math.cos((query.anim_time) * 90 * 24 - 90) * 30)"], "post": [-32.5, 0, -42.5]},
						"2.0833": [-32.5, 0, -42.5],
						"2.25": [17.5, 0, -42.5],
						"2.4167": [-7.5, 0, -42.5],
						"2.625": [-12.5, 0, -42.5]
					}
				},
				"hair_back_right3": {
					"rotation": {
						"0.0": [-15, 12.5, -2.5],
						"0.2083": {
							"pre": [-15, 12.5, 10],
							"post": [-15, 12.5, 10],
							"lerp_mode": "catmullrom"
						},
						"0.375": {
							"post": [-15, 12.5, 4.64],
							"lerp_mode": "catmullrom"
						},
						"0.625": {
							"post": [-15, 12.5, -28.5],
							"lerp_mode": "catmullrom"
						},
						"0.8333": [-15, -12.5, -11.25],
						"0.9167": [-15, -12.5, 3.75],
						"1.0417": [-15, 0, -11.25],
						"1.1667": [-15, 0, "1-(Math.cos((query.anim_time) * 90 * 24 - 180) * 50)"],
						"1.6667": [-15, 0, "-(Math.cos((query.anim_time) * 90 * 24 - 180) * 50)"],
						"1.7083": {"pre": [-15, 0, "-(Math.cos((query.anim_time) * 90 * 24 - 180) * 50)"], "post": [36.40051, -32.92753, 36.40051]},
						"2.25": [38.90051, -32.92753, 36.40051],
						"2.375": [-0.92701, -5.43164, 35.89056]
					}
				},
				"hair_back_right4": {
					"rotation": {
						"0.0": [-15, 0, 0],
						"2.25": [-15, 0, 0],
						"2.625": [2.5, 0, 0]
					}
				},
				"hair_back_right_end": {
					"rotation": [-15, 0, 0]
				},
				"fur_bottom": {
					"rotation": [17.5, 0, 0]
				},
				"fur_bottom2": {
					"rotation": {
						"0.0": [10, 0, 0],
						"2.1667": [10, 0, 0],
						"2.25": [-42.5, 0, 0],
						"2.375": [27.5, 0, 0]
					}
				},
				"leg_left": {
					"rotation": {
						"0.0": [0, 0, 0],
						"0.1667": [-40.71, -13.93, 0],
						"0.3333": [-46.43, -27.86, 0],
						"0.5833": [-50, -30, 0],
						"0.7083": [-67.5, -30, 0],
						"0.7917": [0, -19, 0],
						"1.3333": [7.5, -19, 0],
						"1.5": [6.88, -17.87, 0],
						"1.6667": [0, -17.5, 0],
						"2.0833": [0, -17.5, 0],
						"2.2083": [-32.5, -17.5, 0],
						"2.3333": [20, -17.5, 0],
						"2.4583": [9, -17.5, 0],
						"2.5833": [7.5, -17.5, 0],
						"2.7083": [12.5, -17.5, 0]
					},
					"position": {
						"0.7083": [0, 0, 0],
						"0.7917": [0, 2, 0],
						"0.8333": [0, 0, 0],
						"1.0": ["0+Math.cos((query.anim_time) * 90 * 48) * -0.2", 0, 0],
						"1.25": ["0+Math.cos((query.anim_time) * 90 * 48) * -0.2", -0.325, 0],
						"1.4167": ["0+Math.cos((query.anim_time) * 90 * 48) * -0.2", -0.25, 0],
						"1.6667": ["0+Math.cos((query.anim_time) * 90 * 48) * -0.2", 0, 0],
						"1.7083": [0, 0, 0]
					}
				},
				"leg_left2": {
					"rotation": {
						"0.0": [0, 0, 0],
						"0.1667": [42.06, 0, 0],
						"0.3333": [44.11, 0, 0],
						"0.5833": [47.5, 0, 0],
						"0.7083": [57.5, 0, 0],
						"0.7917": [-17.5, 0, 0],
						"1.5": [-13.33, 0, 0],
						"1.6667": [0, 0, 0],
						"1.7083": {"pre": [0, 0, 0], "post": [0, -27.5, 0]},
						"1.7917": [0, 0, 0]
					}
				},
				"foot_left": {
					"rotation": {
						"0.75": [0, 0, 0],
						"0.7917": [22.5, 0, 0],
						"1.3333": [7.5, 0, 0],
						"1.5": [10.31, 0, 0],
						"1.6667": [0, 0, 0],
						"1.7083": {"pre": [0, 0, 0], "post": [0, 17.5, -15]},
						"1.7917": [0, 0, 0],
						"2.25": [0, 0, 0],
						"2.4167": [30, 0, 0],
						"2.5417": [7.5, 0, 0]
					}
				},
				"leg_right": {
					"rotation": {
						"0.0": [0, 0, 0],
						"0.1667": [-40.71, 13.93, 0],
						"0.3333": [-46.43, 27.86, 0],
						"0.5833": [-50, 30, 0],
						"0.7083": [-67.5, 30, 0],
						"0.7917": [0, 19, 0],
						"1.3333": [7.5, 19, 0],
						"1.5": [6.88, 17.87, 0],
						"1.6667": [0, 17.5, 0],
						"2.0833": [0, 17.5, 0],
						"2.2083": [-32.5, 17.5, 0],
						"2.3333": [20, 17.5, 0],
						"2.4583": [9, 17.5, 0],
						"2.5833": [7.5, 17.5, 0],
						"2.7083": [12.5, 17.5, 0]
					},
					"position": {
						"0.7083": [0, 0, 0],
						"0.7917": [0, 2, 0],
						"0.8333": [0, 0, 0],
						"1.0": ["0+Math.cos((query.anim_time) * 90 * 48) * -0.2", 0, 0],
						"1.25": ["0+Math.cos((query.anim_time) * 90 * 48) * -0.2", -0.325, 0],
						"1.4167": ["0+Math.cos((query.anim_time) * 90 * 48) * -0.2", -0.25, 0],
						"1.6667": ["0+Math.cos((query.anim_time) * 90 * 48) * -0.2", 0, 0],
						"1.7083": [0, 0, 0]
					}
				},
				"leg_right2": {
					"rotation": {
						"0.0": [0, 0, 0],
						"0.1667": [42.06, 0, 0],
						"0.3333": [44.11, 0, 0],
						"0.5833": [47.5, 0, 0],
						"0.7083": [57.5, 0, 0],
						"0.7917": [-17.5, 0, 0],
						"1.5": [-13.33, 0, 0],
						"1.6667": [0, 0, 0],
						"1.7083": {"pre": [0, 0, 0], "post": [0, 27.5, 0]},
						"1.7917": [0, 0, 0]
					}
				},
				"foot_right": {
					"rotation": {
						"0.75": [0, 0, 0],
						"0.7917": [22.5, 0, 0],
						"1.3333": [7.5, 0, 0],
						"1.5": [10.31, 0, 0],
						"1.6667": [0, 0, 0],
						"1.7083": {"pre": [0, 0, 0], "post": [0, -17.5, 15]},
						"1.7917": [0, 0, 0],
						"2.25": [0, 0, 0],
						"2.4167": [30, 0, 0],
						"2.5417": [7.5, 0, 0]
					}
				},
				"floating_hair_root": {
					"rotation": {
						"0.0": [0, 0, -10],
						"0.2917": {
							"pre": [-29, 0, 13.5],
							"post": [-29, 0, 13.5],
							"lerp_mode": "catmullrom"
						},
						"0.5417": {
							"post": [-29, 0, -13.75],
							"lerp_mode": "catmullrom"
						},
						"0.7083": {
							"post": [-29, 0, -12.75],
							"lerp_mode": "catmullrom"
						},
						"0.7917": [-29, 0, -7],
						"0.9583": [-29, 0, 0],
						"1.6667": [-29, 0, 0],
						"1.7083": {"pre": [-29, 0, 0], "post": [0, 0, 0]},
						"2.0833": [7.5, 0, 0],
						"2.2083": [55.75, 0, 0],
						"2.2917": [60.17, 0, 0],
						"2.75": [-21.37, 0, 0],
						"2.875": [-27.25, 0, 0]
					}
				},
				"floating_hair": {
					"rotation": {
						"0.9583": [0, 0, 0],
						"1.0": [0, 0, "0+Math.cos((query.anim_time) * 90 * 24 - 45) * 30"],
						"1.5833": [0, 0, "0+Math.cos((query.anim_time) * 90 * 24 - 45) * 30"],
						"1.625": {"pre": [0, 0, "0+Math.cos((query.anim_time) * 90 * 24 - 45) * 30"], "post": [0, 0, 0]}
					},
					"position": {
						"0.0": [0, 0, 0],
						"0.1667": [0, 4, 0],
						"0.375": [0, 0, 0]
					}
				},
				"floating_hair2": {
					"rotation": {
						"1.0417": [0, 0, 0],
						"1.0833": [0, 0, "0+Math.cos((query.anim_time) * 90 * 24 - 135) * 30"],
						"1.6667": [0, 0, "0+Math.cos((query.anim_time) * 90 * 24 - 135) * 30"],
						"1.7083": {"pre": [0, 0, "0+Math.cos((query.anim_time) * 90 * 24 - 135) * 30"], "post": [0, 0, 0]},
						"2.1667": [25, 0, 0],
						"2.875": [0, 0, 0]
					}
				},
				"floating_hair_left_root": {
					"rotation": {
						"0.0": [0, 0, 10],
						"0.25": {
							"pre": [-26, 0, 18.5],
							"post": [-26, 0, 18.5],
							"lerp_mode": "catmullrom"
						},
						"0.5": {
							"post": [-26, 0, -11.25],
							"lerp_mode": "catmullrom"
						},
						"0.6667": {
							"post": [-26, 0, -12.25],
							"lerp_mode": "catmullrom"
						},
						"0.75": [-26, 0, 10],
						"0.9167": [-26, 0, 0],
						"1.6667": [-29, 0, 0],
						"1.7083": {"pre": [-29, 0, 0], "post": [0, 0, 0]},
						"2.0417": [7.5, 0, 0],
						"2.1667": [55.75, 0, 0],
						"2.25": [60.17, 0, 0],
						"2.625": [-11.12, 0, 0],
						"2.75": [-17, 0, 0]
					}
				},
				"floating_hair_left": {
					"rotation": {
						"0.9583": [0, 0, 0],
						"1.0": [0, 0, "0+Math.cos((query.anim_time) * 90 * 24 - 45) * 30"],
						"1.5833": [0, 0, "0+Math.cos((query.anim_time) * 90 * 24 - 45) * 30"],
						"1.625": {"pre": [0, 0, "0+Math.cos((query.anim_time) * 90 * 24 - 45) * 30"], "post": [0, 0, 0]}
					},
					"position": {
						"0.0": [0, 0, 0],
						"0.1667": [0, 4, 0],
						"0.375": [0, 0, 0]
					}
				},
				"floating_hair_left2": {
					"rotation": {
						"1.0": [0, 0, 0],
						"1.0417": [0, 0, "0+Math.cos((query.anim_time) * 90 * 24 - 135) * 30"],
						"1.625": [0, 0, "0+Math.cos((query.anim_time) * 90 * 24 - 135) * 30"],
						"1.6667": {"pre": [0, 0, "0+Math.cos((query.anim_time) * 90 * 24 - 135) * 30"], "post": [0, 0, 0]},
						"2.1667": [25, 0, 0],
						"2.875": [0, 0, 0]
					}
				},
				"floating_hair_right_root": {
					"rotation": {
						"0.0": [0, 0, -10],
						"0.2917": {
							"pre": [-34, 0, 13.5],
							"post": [-34, 0, 13.5],
							"lerp_mode": "catmullrom"
						},
						"0.5417": {
							"post": [-34, 0, -13.75],
							"lerp_mode": "catmullrom"
						},
						"0.7083": {
							"post": [-34, 0, -12.75],
							"lerp_mode": "catmullrom"
						},
						"0.7917": [-34, 0, -7],
						"0.9583": [-34, 0, 0],
						"1.6667": [-29, 0, 0],
						"1.75": {"pre": [-29, 0, 0], "post": [0, 0, 0]},
						"2.0833": [7.5, 0, 0],
						"2.2083": [55.75, 0, 0],
						"2.2917": [60.17, 0, 0],
						"2.6667": [-14.37, 0, 0],
						"2.7917": [-20.25, 0, 0]
					}
				},
				"floating_hair_right": {
					"rotation": {
						"0.9583": [0, 0, 0],
						"1.0": [0, 0, "0+Math.cos((query.anim_time) * 90 * 24 - 45) * -30"],
						"1.5833": [0, 0, "0+Math.cos((query.anim_time) * 90 * 24 - 45) * -30"],
						"1.625": {"pre": [0, 0, "0+Math.cos((query.anim_time) * 90 * 24 - 45) * -30"], "post": [0, 0, 0]}
					},
					"position": {
						"0.0": [0, 0, 0],
						"0.1667": [0, 4, 0],
						"0.375": [0, 0, 0]
					}
				},
				"floating_hair_right2": {
					"rotation": {
						"1.0": [0, 0, 0],
						"1.0417": [0, 0, "0+Math.cos((query.anim_time) * 90 * 24 - 135) * -30"],
						"1.625": [0, 0, "0+Math.cos((query.anim_time) * 90 * 24 - 135) * -30"],
						"1.6667": {"pre": [0, 0, "0+Math.cos((query.anim_time) * 90 * 24 - 135) * -30"], "post": [0, 0, 0]},
						"2.1667": [25, 0, 0],
						"2.875": [0, 0, 0]
					}
				}
			}
		},
		"animation.annihilape.blink": {
			"animation_length": 0.16667,
			"bones": {
				"eyelid_left": {
					"position": {
						"0.0": [0, 0, -0.1],
						"0.125": [0, 0, -0.1],
						"0.1667": [0, 0, 0]
					}
				},
				"eyelid_right": {
					"position": {
						"0.0": [0, 0, -0.1],
						"0.125": [0, 0, -0.1],
						"0.1667": [0, 0, 0]
					}
				}
			}
		},
		"animation.annihilape.cry": {
			"animation_length": 2,
			"bones": {
				"torso": {
					"rotation": {
						"0.0": [0, 0, 0],
						"0.125": {
							"pre": [-11.75, 0, 0],
							"post": [-11.75, 0, 0],
							"lerp_mode": "catmullrom"
						},
						"0.25": {
							"post": [2.75, 0, 0],
							"lerp_mode": "catmullrom"
						},
						"0.375": [8.975, 0, 0],
						"0.75": {
							"pre": [10.36, 0, 0],
							"post": [10.36, 0, 0],
							"lerp_mode": "catmullrom"
						},
						"1.125": {
							"post": [7.745, 0, 0],
							"lerp_mode": "catmullrom"
						},
						"1.4167": [0.44, 0, 0],
						"1.5": [0, 0, 0]
					},
					"position": {
						"0.25": [0, 0, 0],
						"0.2917": [
							"0+Math.cos((query.anim_time) * 90 * 24 - 90) * 0.1",
							"0+Math.cos((query.anim_time) * 90 * 48) * 0.1",
							"0+Math.cos((query.anim_time) * 90 * 24) * 0.1"
						],
						"1.25": [0, 0, 0]
					}
				},
				"arm_left": {
					"rotation": {
						"0.0": [0, 0, 0],
						"0.1667": {
							"pre": [0, -15, 0],
							"post": [0, -15, 0],
							"lerp_mode": "catmullrom"
						},
						"0.375": {
							"post": [0, 12.5, 12.5],
							"lerp_mode": "catmullrom"
						},
						"1.2083": [0, 12.5, 12.5],
						"1.4167": [0, 1.79, 1.79],
						"1.5": [0, 0, 0]
					}
				},
				"arm_right": {
					"rotation": {
						"0.0": [0, 0, 0],
						"0.1667": {
							"pre": [0, 15, 0],
							"post": [0, 15, 0],
							"lerp_mode": "catmullrom"
						},
						"0.375": {
							"post": [0, -12.5, -12.5],
							"lerp_mode": "catmullrom"
						},
						"1.2083": [0, -12.5, -12.5],
						"1.4167": [0, -1.79, -1.79],
						"1.5": [0, 0, 0]
					}
				},
				"hair_front2": {
					"rotation": {
						"0.0": [0, 0, 0],
						"0.2083": [20, 0, 0],
						"0.4167": [-9.25, 0, 0],
						"0.5417": [-14.5, 0, 0],
						"1.25": [-14.5, 0, 0],
						"1.4167": [-1.825, 0, 0],
						"1.5": [0, 0, 0]
					}
				},
				"hair_left2": {
					"rotation": {
						"0.0": [0, 0, 0],
						"0.2083": [20, 0, 0],
						"0.4167": [-11.75, 0, 0],
						"0.5833": [-21, 0, 0],
						"1.25": [-21, 0, 0],
						"1.4167": [-3.5, 0, 0],
						"1.5": [0, 0, 0]
					}
				},
				"hair_back_left_rotation": {
					"rotation": {
						"0.0": [0, 0, 0],
						"0.1667": [20, 0, 0],
						"0.375": [-11.75, 0, 0],
						"0.5417": [-21, 0, 0],
						"1.25": [-21, 0, 0],
						"1.4167": [-3.5, 0, 0],
						"1.5": [0, 0, 0]
					}
				},
				"hair_right2": {
					"rotation": {
						"0.0": [0, 0, 0],
						"0.2083": [20, 0, 0],
						"0.4167": [-11.75, 0, 0],
						"0.5833": [-21, 0, 0],
						"1.25": [-21, 0, 0],
						"1.4167": [-3.5, 0, 0],
						"1.5": [0, 0, 0]
					}
				},
				"hair_back_right_rotation": {
					"rotation": {
						"0.0": [0, 0, 0],
						"0.1667": [20, 0, 0],
						"0.375": [-11.75, 0, 0],
						"0.5417": [-21, 0, 0],
						"1.25": [-21, 0, 0],
						"1.4167": [-3.5, 0, 0],
						"1.5": [0, 0, 0]
					}
				},
				"nose": {
					"scale": {
						"0.2917": [1, 1, 1],
						"0.3333": [
							"1+Math.cos((query.anim_time) * 90 * 36) * 0.125",
							"1+Math.cos((query.anim_time) * 90 * 36) * 0.125",
							"1+Math.cos((query.anim_time) * 90 * 36) * 0.125"
						],
						"0.9583": [1, 1, 1]
					}
				}
			},
			"sound_effects": {
				"0.0": {
					"effect": "annihilape_ambient"
				}
			}
		},
		"animation.annihilape.hair_overlay": {
			"loop": true,
			"animation_length": 6,
			"bones": {
				"ear_left": {
					"rotation": ["0+Math.sin((query.anim_time) * 90 * 2) * 2", 0, 0]
				},
				"ear_left_fur": {
					"rotation": ["0+Math.sin((query.anim_time) * 90 * 2 - 90) * 4", 0, 0]
				},
				"ear_left_fur2": {
					"rotation": ["0+Math.sin((query.anim_time) * 90 * 2 - 180) * 4", 0, 0]
				},
				"ear_right": {
					"rotation": ["0+Math.sin((query.anim_time) * 90 * 2) * 2", 0, 0]
				},
				"ear_right_fur": {
					"rotation": ["0+Math.sin((query.anim_time) * 90 * 2 - 90) * 4", 0, 0]
				},
				"ear_right_fur2": {
					"rotation": ["0+Math.sin((query.anim_time) * 90 * 2 - 180) * 4", 0, 0]
				},
				"hair_front": {
					"rotation": ["0+Math.sin((query.anim_time) * 90 * 2) * 3", 0, "0+Math.cos((query.anim_time) * 90 * 2 - 40) * 1"]
				},
				"hair_front3": {
					"rotation": ["0+Math.sin((query.anim_time) * 90 * 2 - 90) * 5", 0, "0+Math.cos((query.anim_time) * 90 * 2 - 90) * 5"]
				},
				"hair_front4": {
					"rotation": ["0+Math.sin((query.anim_time) * 90 * 2 - 180) * 12", 0, "0+Math.cos((query.anim_time) * 90 * 2 - 180) * 12"]
				},
				"hair_front5": {
					"rotation": ["0+Math.sin((query.anim_time) * 90 * 2 - 270) * 12", 0, "0+Math.cos((query.anim_time) * 90 * 2 - 270) * 12"]
				},
				"hair_front_end": {
					"rotation": ["0+Math.sin((query.anim_time) * 90 * 2 - 360) * 24", 0, "0+Math.cos((query.anim_time) * 90 * 2 - 360) * 24"]
				},
				"hair_back_rotation": {
					"rotation": ["0+Math.sin((query.anim_time) * 90 * 2) * -3", 0, "0+Math.cos((query.anim_time) * 90 * 2 - 40) * -1"]
				},
				"hair_back2": {
					"rotation": ["0+Math.sin((query.anim_time) * 90 * 2 - 90) * -5", 0, "0+Math.cos((query.anim_time) * 90 * 2 - 90) * -5"]
				},
				"hair_back3": {
					"rotation": ["0+Math.sin((query.anim_time) * 90 * 2 - 180) * -12", 0, "0+Math.cos((query.anim_time) * 90 * 2 - 180) * -12"]
				},
				"hair_back_end": {
					"rotation": ["0+Math.sin((query.anim_time) * 90 * 2 - 270) * -12", 0, "0+Math.cos((query.anim_time) * 90 * 2 - 270) * -12"]
				},
				"hair_left_rotation": {
					"rotation": ["0+Math.sin((query.anim_time) * 90 * 2 - 135) * 3", 0, "0+Math.cos((query.anim_time) * 90 * 2 - 175) * -3"]
				},
				"hair_left2": {
					"rotation": ["0+Math.sin((query.anim_time) * 90 * 2 - 225) * 2", 0, "0+Math.cos((query.anim_time) * 90 * 2 - 225) * -5"]
				},
				"hair_left3": {
					"rotation": ["0+Math.sin((query.anim_time) * 90 * 2 - 315) * 6", 0, "0+Math.cos((query.anim_time) * 90 * 2 - 315) * -12"]
				},
				"hair_left4": {
					"rotation": ["0+Math.sin((query.anim_time) * 90 * 2 - 405) * 6", 0, "0+Math.cos((query.anim_time) * 90 * 2 - 405) * -12"]
				},
				"hair_left_end": {
					"rotation": ["0+Math.sin((query.anim_time) * 90 * 2 - 495) * 12", 0, "0+Math.cos((query.anim_time) * 90 * 2 - 495) * -24"]
				},
				"hair_back_left_rotation": {
					"rotation": ["0+Math.sin((query.anim_time) * 90 * 2) * 2", 0, "0+Math.cos((query.anim_time) * 90 * 2 - 40) * 4"]
				},
				"hair_back_left2": {
					"rotation": ["0+Math.sin((query.anim_time) * 90 * 2 - 90) * 2", 0, "0+Math.cos((query.anim_time) * 90 * 2 - 90) * 6"]
				},
				"hair_back_left3": {
					"rotation": ["0+Math.sin((query.anim_time) * 90 * 2 - 180) * 4", 0, "0+Math.cos((query.anim_time) * 90 * 2 - 180) * 12"]
				},
				"hair_back_left_end2": {
					"rotation": ["0+Math.sin((query.anim_time) * 90 * 2 - 270) * 4", 0, "0+Math.cos((query.anim_time) * 90 * 2 - 270) * 12"]
				},
				"hair_back_left4": {
					"rotation": ["0+Math.sin((query.anim_time) * 90 * 2 - 270) * 4", 0, "0+Math.cos((query.anim_time) * 90 * 2 - 270) * 12"]
				},
				"hair_back_left_end": {
					"rotation": ["0+Math.sin((query.anim_time) * 90 * 2 - 360) * 2", 0, "0+Math.cos((query.anim_time) * 90 * 2 - 360) * 24"]
				},
				"hair_right_rotation": {
					"rotation": ["0+Math.sin((query.anim_time) * 90 * 2 - 90) * 3", 0, "0+Math.cos((query.anim_time) * 90 * 2 - 130) * 3"]
				},
				"hair_right2": {
					"rotation": ["0+Math.sin((query.anim_time) * 90 * 2 - 180) * 2", 0, "0+Math.cos((query.anim_time) * 90 * 2 - 180) * 5"]
				},
				"hair_right3": {
					"rotation": ["0+Math.sin((query.anim_time) * 90 * 2 - 270) * 6", 0, "0+Math.cos((query.anim_time) * 90 * 2 - 270) * 12"]
				},
				"hair_right4": {
					"rotation": ["0+Math.sin((query.anim_time) * 90 * 2 - 360) * 6", 0, "0+Math.cos((query.anim_time) * 90 * 2 - 360) * 12"]
				},
				"hair_right_end": {
					"rotation": ["0+Math.sin((query.anim_time) * 90 * 2 - 450) * 12", 0, "0+Math.cos((query.anim_time) * 90 * 2 - 450) * 24"]
				},
				"hair_back_right_rotation": {
					"rotation": ["0+Math.sin((query.anim_time) * 90 * 2) * 2", 0, "0+Math.cos((query.anim_time) * 90 * 2 - 40) * -4"]
				},
				"hair_back_right2": {
					"rotation": ["0+Math.sin((query.anim_time) * 90 * 2 - 90) * 2", 0, "0+Math.cos((query.anim_time) * 90 * 2 - 90) * -6"]
				},
				"hair_back_right3": {
					"rotation": ["0+Math.sin((query.anim_time) * 90 * 2 - 180) * 4", 0, "0+Math.cos((query.anim_time) * 90 * 2 - 180) * -12"]
				},
				"hair_back_right_end2": {
					"rotation": ["0+Math.sin((query.anim_time) * 90 * 2 - 270) * 4", 0, "0+Math.cos((query.anim_time) * 90 * 2 - 270) * -12"]
				},
				"hair_back_right4": {
					"rotation": ["0+Math.sin((query.anim_time) * 90 * 2 - 270) * 4", 0, "0+Math.cos((query.anim_time) * 90 * 2 - 270) * -12"]
				},
				"hair_back_right_end": {
					"rotation": ["0+Math.sin((query.anim_time) * 90 * 2 - 360) * 2", 0, "0+Math.cos((query.anim_time) * 90 * 2 - 360) * -24"]
				},
				"floating_hair2": {
					"rotation": ["0+Math.sin((query.anim_time) * 90 * 2 - 140) * 4", 0, "0+Math.cos((query.anim_time) * 90 * 2 - 180) * 10"]
				},
				"floating_hair_left2": {
					"rotation": ["0+Math.sin((query.anim_time) * 90 * 2 - 140) * 2", 0, "0+Math.cos((query.anim_time) * 90 * 2 - 270) * -8"]
				},
				"floating_hair_right": {
					"rotation": ["0+Math.sin((query.anim_time) * 90 * 2 - 90) * 3", 0, "0+Math.cos((query.anim_time) * 90 * 2 - 130) * 3"]
				},
				"floating_hair_right2": {
					"rotation": ["0+Math.sin((query.anim_time) * 90 * 2 - 180) * 6", 0, "0+Math.cos((query.anim_time) * 90 * 2 - 220) * 15"]
				},
				"floating_hair_root": {
					"rotation": ["0+Math.sin((query.anim_time) * 90 * 2 - 50) * 2", 0, "0+Math.cos((query.anim_time) * 90 * 2 - 90) * 1"]
				},
				"floating_hair_left_root": {
					"rotation": ["0+Math.sin((query.anim_time) * 90 * 2 - 135) * 2", 0, "0+Math.cos((query.anim_time) * 90 * 2 - 175) * -2"]
				},
				"floating_hair_right_root": {
					"rotation": ["0+Math.sin((query.anim_time) * 90 * 2 - 85) * 2", 0, "0+Math.cos((query.anim_time) * 90 * 2 - 120) * 2"]
				}
			}
		}
	}
}