{
	"format_version": "1.12.0",
	"minecraft:geometry": [
		{
			"description": {
				"identifier": "geometry.delphox",
				"texture_width": 128,
				"texture_height": 128,
				"visible_bounds_width": 6,
				"visible_bounds_height": 5.5,
				"visible_bounds_offset": [0, 2.25, 0]
			},
			"bones": [
				{
					"name": "delphox",
					"pivot": [0, 0, 0]
				},
				{
					"name": "body",
					"parent": "delphox",
					"pivot": [0, 0, 0]
				},
				{
					"name": "torso",
					"parent": "body",
					"pivot": [0, 23.5, -1],
					"cubes": [
						{"origin": [-2.5, 21.5, -4.25], "size": [5, 5, 6], "uv": [106, 25]}
					]
				},
				{
					"name": "chest",
					"parent": "torso",
					"pivot": [0, 28.5, 2.5],
					"cubes": [
						{"origin": [-3.5, 26.5, -5], "size": [7, 7, 7], "uv": [12, 114]},
						{"origin": [0, 27.5, 2], "size": [0, 5, 4], "pivot": [0, 27.5, 2], "rotation": [5, 0, 0], "uv": [0, 16]},
						{"origin": [-3.5, 23.5, 2], "size": [7, 3, 0], "uv": [33, 83]}
					]
				},
				{
					"name": "neck",
					"parent": "chest",
					"pivot": [0, 33.5, -1.25],
					"cubes": [
						{"origin": [-2, 32.5, -3.25], "size": [4, 7, 4], "inflate": -0.1, "uv": [36, 93]}
					]
				},
				{
					"name": "head",
					"parent": "neck",
					"pivot": [0, 37.1, -0.75],
					"cubes": [
						{"origin": [-3.5, 37.1, -6], "size": [7, 7, 8], "uv": [30, 10]},
						{"origin": [-3.5, 41.15, -6], "size": [1, 1, 3], "inflate": 0.01, "uv": [10, 109], "mirror": true},
						{"origin": [2.5, 41.15, -6], "size": [1, 1, 3], "inflate": 0.01, "uv": [10, 105]}
					]
				},
				{
					"name": "eye_right",
					"parent": "head",
					"pivot": [-2.5, 41.25, -4.5],
					"cubes": [
						{"origin": [-3.5, 40.65, -6], "size": [2, 1, 3], "inflate": 0.02, "uv": [0, 109], "mirror": true},
						{"origin": [-3.5, 39.85, -6], "size": [2, 1, 1], "inflate": 0.01, "uv": [0, 85], "mirror": true},
						{"origin": [1.5, 39.85, -6], "size": [2, 1, 1], "inflate": 0.01, "uv": [0, 83]},
						{"origin": [-2.75, 39.85, -6], "size": [1, 1, 0], "inflate": 0.02, "uv": [7, 110], "mirror": true},
						{"origin": [-2.75, 40.65, -6], "size": [1, 1, 0], "inflate": 0.03, "uv": [7, 109], "mirror": true}
					]
				},
				{
					"name": "eyelid_right",
					"parent": "eye_right",
					"pivot": [-2.4, 40.85, -4.4],
					"cubes": [
						{"origin": [-3.4, 39.35, -5.9], "size": [2, 3, 3], "inflate": 0.04, "uv": [28, 105], "mirror": true}
					]
				},
				{
					"name": "eye_left",
					"parent": "head",
					"pivot": [2.5, 41.25, -4.5],
					"cubes": [
						{"origin": [1.5, 40.65, -6], "size": [2, 1, 3], "inflate": 0.02, "uv": [0, 105]},
						{"origin": [1.75, 39.85, -6], "size": [1, 1, 0], "inflate": 0.02, "uv": [7, 106]},
						{"origin": [1.75, 40.65, -6], "size": [1, 1, 0], "inflate": 0.03, "uv": [7, 105]}
					]
				},
				{
					"name": "eyelid_left",
					"parent": "eye_left",
					"pivot": [2.4, 40.85, -4.4],
					"cubes": [
						{"origin": [1.4, 39.35, -5.9], "size": [2, 3, 3], "inflate": 0.04, "uv": [18, 105]}
					]
				},
				{
					"name": "muzzle",
					"parent": "head",
					"pivot": [0, 41.15, -5.5],
					"rotation": [5, 0, 0],
					"cubes": [
						{"origin": [-2, 37.15, -8.5], "size": [4, 3, 3], "uv": [52, 12]}
					]
				},
				{
					"name": "fangs",
					"parent": "muzzle",
					"pivot": [0, 37.75, -7],
					"cubes": [
						{"origin": [-1.5, 37.54, -8], "size": [3, 1, 2], "inflate": -0.2, "uv": [118, 53]},
						{"origin": [-1, 37.24, -7.9], "size": [0, 1, 1], "pivot": [-1, 37.74, -7.2], "rotation": [-45, -45, 0], "uv": [124, 48]},
						{"origin": [1, 37.24, -7.9], "size": [0, 1, 1], "pivot": [1, 37.74, -7.2], "rotation": [-45, 45, 0], "uv": [124, 48], "mirror": true}
					]
				},
				{
					"name": "jaw",
					"parent": "muzzle",
					"pivot": [0, 37.21, -5.7],
					"cubes": [
						{"origin": [-1.5, 37.01, -8], "size": [3, 1, 3], "inflate": -0.2, "uv": [115, 49]}
					]
				},
				{
					"name": "muzzle2",
					"parent": "muzzle",
					"pivot": [0, 37.05, -8.5],
					"rotation": [-2.5, 0, 0],
					"cubes": [
						{"origin": [-1.5, 37.25, -10.3], "size": [3, 3, 2], "inflate": -0.1, "uv": [0, 36]}
					]
				},
				{
					"name": "muzzle3",
					"parent": "muzzle2",
					"pivot": [0, 38.05, -10],
					"rotation": [-5, 0, 0],
					"cubes": [
						{"origin": [-0.5, 39, -11.2], "size": [1, 1, 1], "inflate": 0.1, "uv": [42, 8]}
					]
				},
				{
					"name": "head_ruff_right",
					"parent": "head",
					"pivot": [-3.5, 41.1, 0.5],
					"rotation": [0, 7.5, -5],
					"cubes": [
						{"origin": [-10.5, 37.1, 0.5], "size": [7, 4, 0], "uv": [78, 63]}
					]
				},
				{
					"name": "head_ruff_left",
					"parent": "head",
					"pivot": [3.5, 41.1, 0.5],
					"rotation": [0, -7.5, 5],
					"cubes": [
						{"origin": [3.5, 37.1, 0.5], "size": [7, 4, 0], "uv": [62, 38]}
					]
				},
				{
					"name": "ear_right_main",
					"parent": "head",
					"pivot": [-1.8, 43.85, -2]
				},
				{
					"name": "ear_right",
					"parent": "ear_right_main",
					"pivot": [-1.55, 43.85, -2],
					"rotation": [-5, -28, -15],
					"cubes": [
						{"origin": [-1.55, 42.85, -4], "size": [0, 15, 7], "uv": [36, 61]},
						{"origin": [-4.55, 42.85, -4], "size": [3, 15, 0], "pivot": [-1.55, 48.85, -4], "rotation": [0, -15, 0], "uv": [90, 99]}
					]
				},
				{
					"name": "ear_right_ruff_main",
					"parent": "ear_right_main",
					"pivot": [-3.8, 47.3, -2.25],
					"rotation": [0, -5, -7.5]
				},
				{
					"name": "ear_ruff_top_right",
					"parent": "ear_right_ruff_main",
					"pivot": [-6.05, 49.8, -2.75],
					"rotation": [0, 0, 30],
					"cubes": [
						{"origin": [-12.55, 46.8, -4.25], "size": [8, 5, 4], "uv": [56, 23]}
					]
				},
				{
					"name": "ear_ruff_top_right2",
					"parent": "ear_ruff_top_right",
					"pivot": [-12.35, 46.8, -1.75],
					"cubes": [
						{"origin": [-17.35, 46.8, -3.75], "size": [5, 5, 3], "inflate": -0.01, "uv": [20, 97]}
					]
				},
				{
					"name": "ear_ruff_top_right3",
					"parent": "ear_ruff_top_right2",
					"pivot": [-17.35, 47.3, -2.25],
					"cubes": [
						{"origin": [-22.35, 47.3, -2.25], "size": [6, 4, 0], "uv": [64, 103]}
					]
				},
				{
					"name": "ear_ruff_middle_right",
					"parent": "ear_right_ruff_main",
					"pivot": [-5.3, 47.3, -2.75],
					"cubes": [
						{"origin": [-11.8, 44.8, -4.25], "size": [8, 5, 4], "inflate": 0.01, "uv": [70, 76]}
					]
				},
				{
					"name": "ear_ruff_middle_right2",
					"parent": "ear_ruff_middle_right",
					"pivot": [-11.8, 44.8, -1.75],
					"cubes": [
						{"origin": [-18.8, 44.3, -3.75], "size": [7, 6, 3], "inflate": 0.01, "uv": [0, 93]}
					]
				},
				{
					"name": "ear_ruff_middle_right3",
					"parent": "ear_ruff_middle_right2",
					"pivot": [-18.8, 45.3, -2.25],
					"cubes": [
						{"origin": [-25.8, 45.3, -2.25], "size": [8, 5, 0], "uv": [98, 70]}
					]
				},
				{
					"name": "ear_ruff_bottom_right",
					"parent": "ear_right_ruff_main",
					"pivot": [-5.55, 44.8, -2.75],
					"rotation": [0, 0, -30],
					"cubes": [
						{"origin": [-11.05, 42.55, -4.25], "size": [7, 5, 4], "uv": [75, 67]}
					]
				},
				{
					"name": "ear_ruff_bottom_right2",
					"parent": "ear_ruff_bottom_right",
					"pivot": [-11.05, 42.55, -1.75],
					"cubes": [
						{"origin": [-16.05, 42.55, -3.75], "size": [5, 5, 3], "uv": [96, 81]}
					]
				},
				{
					"name": "ear_ruff_bottom_right3",
					"parent": "ear_ruff_bottom_right2",
					"pivot": [-16.05, 47.05, -2.25],
					"cubes": [
						{"origin": [-21.05, 43.05, -2.25], "size": [6, 4, 0], "uv": [52, 103]}
					]
				},
				{
					"name": "ear_left_main",
					"parent": "head",
					"pivot": [1.8, 43.85, -2]
				},
				{
					"name": "ear_left",
					"parent": "ear_left_main",
					"pivot": [1.55, 43.85, -2],
					"rotation": [-5, 28, 15],
					"cubes": [
						{"origin": [1.55, 42.85, -4], "size": [0, 15, 7], "uv": [22, 61]},
						{"origin": [1.55, 42.85, -4], "size": [3, 15, 0], "pivot": [1.55, 48.85, -4], "rotation": [0, 15, 0], "uv": [84, 99]}
					]
				},
				{
					"name": "ear_left_ruff_main",
					"parent": "ear_left_main",
					"pivot": [3.8, 47.3, -2.25],
					"rotation": [0, 5, 7.5]
				},
				{
					"name": "ear_ruff_top_left",
					"parent": "ear_left_ruff_main",
					"pivot": [6.05, 49.8, -2.75],
					"rotation": [0, 0, -30],
					"cubes": [
						{"origin": [4.55, 46.8, -4.25], "size": [8, 5, 4], "uv": [72, 38]}
					]
				},
				{
					"name": "ear_ruff_top_left2",
					"parent": "ear_ruff_top_left",
					"pivot": [12.35, 46.8, -1.75],
					"cubes": [
						{"origin": [12.35, 46.8, -3.75], "size": [5, 5, 3], "inflate": -0.01, "uv": [68, 95]}
					]
				},
				{
					"name": "ear_ruff_top_left3",
					"parent": "ear_ruff_top_left2",
					"pivot": [17.35, 47.3, -2.25],
					"cubes": [
						{"origin": [16.35, 47.3, -2.25], "size": [6, 4, 0], "uv": [66, 13]}
					]
				},
				{
					"name": "ear_ruff_middle_left",
					"parent": "ear_left_ruff_main",
					"pivot": [5.3, 47.3, -2.75],
					"cubes": [
						{"origin": [3.8, 44.8, -4.25], "size": [8, 5, 4], "inflate": 0.01, "uv": [50, 71]}
					]
				},
				{
					"name": "ear_ruff_middle_left2",
					"parent": "ear_ruff_middle_left",
					"pivot": [11.8, 44.8, -1.75],
					"cubes": [
						{"origin": [11.8, 44.3, -3.75], "size": [7, 6, 3], "inflate": 0.01, "uv": [89, 47]}
					]
				},
				{
					"name": "ear_ruff_middle_left3",
					"parent": "ear_ruff_middle_left2",
					"pivot": [18.8, 45.3, -2.25],
					"cubes": [
						{"origin": [17.8, 45.3, -2.25], "size": [8, 5, 0], "uv": [72, 47]}
					]
				},
				{
					"name": "ear_ruff_bottom_left",
					"parent": "ear_left_ruff_main",
					"pivot": [5.55, 44.8, -2.75],
					"rotation": [0, 0, 30],
					"cubes": [
						{"origin": [4.05, 42.55, -4.25], "size": [7, 5, 4], "uv": [69, 54]}
					]
				},
				{
					"name": "ear_ruff_bottom_left2",
					"parent": "ear_ruff_bottom_left",
					"pivot": [11.05, 42.55, -1.75],
					"cubes": [
						{"origin": [11.05, 42.55, -3.75], "size": [5, 5, 3], "uv": [52, 95]}
					]
				},
				{
					"name": "ear_ruff_bottom_left3",
					"parent": "ear_ruff_bottom_left2",
					"pivot": [16.05, 47.05, -2.25],
					"cubes": [
						{"origin": [15.05, 43.05, -2.25], "size": [6, 4, 0], "uv": [78, 85]}
					]
				},
				{
					"name": "arm_right",
					"parent": "chest",
					"pivot": [-3.5, 32.4, -1.25],
					"cubes": [
						{"origin": [-10.5, 30.9, -2.75], "size": [7, 2, 3], "inflate": 0.01, "uv": [50, 0]}
					]
				},
				{
					"name": "arm_right2",
					"parent": "arm_right",
					"pivot": [-10.5, 31.9, 0.25],
					"cubes": [
						{"origin": [-18.5, 30.9, -3.25], "size": [8, 2, 4], "uv": [94, 75]}
					]
				},
				{
					"name": "arm_right_ruff",
					"parent": "arm_right2",
					"pivot": [-17.45, 31.9, 1.25],
					"rotation": [0, 7.5, 0],
					"cubes": [
						{"origin": [-17.45, 31.9, 0.85], "size": [8, 0, 6], "uv": [56, 32]}
					]
				},
				{
					"name": "hand_right",
					"parent": "arm_right2",
					"pivot": [-18.5, 32.6, -1.25],
					"cubes": [
						{"origin": [-20.5, 31.6, -2.75], "size": [2, 1, 3], "inflate": 0.01, "uv": [48, 44]}
					]
				},
				{
					"name": "hand_stick",
					"parent": "hand_right",
					"pivot": [-25, 32.1, -1.5],
					"cubes": [
						{"origin": [-25.5, 31.6, -16.25], "size": [1, 1, 19], "inflate": 0.01, "uv": [88, 108]},
						{"origin": [-25.5, 31.6, -15.25], "size": [1, 1, 5], "pivot": [-25.5, 32.1, -10.25], "rotation": [0, 35, 0], "uv": [116, 121]},
						{"origin": [-28, 32.1, -28.25], "size": [6, 0, 13], "inflate": 0.01, "uv": [-13, 115]},
						{"origin": [-28, 32.1, -28.25], "size": [6, 0, 13], "inflate": 0.01, "pivot": [-25, 32.1, -21.75], "rotation": [0, 0, 90], "uv": [-13, 115]}
					]
				},
				{
					"name": "finger_index_right",
					"parent": "hand_right",
					"pivot": [-20.5, 32.6, -2.25],
					"cubes": [
						{"origin": [-22.5, 31.6, -2.75], "size": [2, 1, 1], "uv": [56, 40]}
					]
				},
				{
					"name": "finger_index_right2",
					"parent": "finger_index_right",
					"pivot": [-22.5, 32.6, -2.25],
					"cubes": [
						{"origin": [-23.5, 31.6, -2.25], "size": [1, 1, 0], "uv": [2, 0]}
					]
				},
				{
					"name": "finger_middle_right",
					"parent": "hand_right",
					"pivot": [-20.5, 32.6, -1.25],
					"cubes": [
						{"origin": [-22.5, 31.6, -1.75], "size": [2, 1, 1], "uv": [56, 61]}
					]
				},
				{
					"name": "finger_middle_right2",
					"parent": "finger_middle_right",
					"pivot": [-22.5, 32.6, -1.25],
					"cubes": [
						{"origin": [-23.5, 31.6, -1.25], "size": [1, 1, 0], "uv": [2, 2]}
					]
				},
				{
					"name": "finger_ring_right",
					"parent": "hand_right",
					"pivot": [-20.5, 32.6, -0.25],
					"cubes": [
						{"origin": [-22.5, 31.6, -0.75], "size": [2, 1, 1], "uv": [0, 57]}
					]
				},
				{
					"name": "finger_ring_right2",
					"parent": "finger_ring_right",
					"pivot": [-22.5, 32.6, -0.25],
					"cubes": [
						{"origin": [-23.5, 31.6, -0.25], "size": [1, 1, 0], "uv": [2, 1]}
					]
				},
				{
					"name": "arm_left",
					"parent": "chest",
					"pivot": [3.5, 32.4, -1.25],
					"cubes": [
						{"origin": [3.5, 30.9, -2.75], "size": [7, 2, 3], "inflate": 0.01, "uv": [95, 65]}
					]
				},
				{
					"name": "arm_left2",
					"parent": "arm_left",
					"pivot": [10.5, 31.9, 0.25],
					"cubes": [
						{"origin": [10.5, 30.9, -3.25], "size": [8, 2, 4], "uv": [62, 17]}
					]
				},
				{
					"name": "arm_left_ruff",
					"parent": "arm_left2",
					"pivot": [17.45, 31.9, 1.25],
					"rotation": [0, -7.5, 0],
					"cubes": [
						{"origin": [11.45, 31.9, 0.85], "size": [8, 0, 6], "uv": [21, 0]}
					]
				},
				{
					"name": "hand_left",
					"parent": "arm_left2",
					"pivot": [18.5, 32.6, -1.25],
					"cubes": [
						{"origin": [18.5, 31.6, -2.75], "size": [2, 1, 3], "inflate": 0.01, "uv": [0, 41]}
					]
				},
				{
					"name": "finger_index_left",
					"parent": "hand_left",
					"pivot": [20.5, 32.6, -2.25],
					"cubes": [
						{"origin": [20.5, 31.6, -2.75], "size": [2, 1, 1], "uv": [46, 8]}
					]
				},
				{
					"name": "finger_index_left2",
					"parent": "finger_index_left",
					"pivot": [22.5, 32.6, -2.25],
					"cubes": [
						{"origin": [22.5, 31.6, -2.25], "size": [1, 1, 0], "uv": [0, 2]}
					]
				},
				{
					"name": "finger_middle_left",
					"parent": "hand_left",
					"pivot": [20.5, 32.6, -1.25],
					"cubes": [
						{"origin": [20.5, 31.6, -1.75], "size": [2, 1, 1], "uv": [24, 44]}
					]
				},
				{
					"name": "finger_middle_left2",
					"parent": "finger_middle_left",
					"pivot": [22.5, 32.6, -1.25],
					"cubes": [
						{"origin": [22.5, 31.6, -1.25], "size": [1, 1, 0], "uv": [0, 1]}
					]
				},
				{
					"name": "finger_ring_left",
					"parent": "hand_left",
					"pivot": [20.5, 32.6, -0.25],
					"cubes": [
						{"origin": [20.5, 31.6, -0.75], "size": [2, 1, 1], "uv": [0, 9]}
					]
				},
				{
					"name": "finger_ring_left2",
					"parent": "finger_ring_left",
					"pivot": [22.5, 32.6, -0.25],
					"cubes": [
						{"origin": [22.5, 31.6, -0.25], "size": [1, 1, 0], "uv": [0, 0]}
					]
				},
				{
					"name": "chest_ruff_top_right",
					"parent": "chest",
					"pivot": [-3.5, 33.25, -1.5],
					"rotation": [0, 0, -5],
					"cubes": [
						{"origin": [-5.5, 33.25, -4], "size": [2, 0, 5], "uv": [0, 5]}
					]
				},
				{
					"name": "chest_ruff_top_left",
					"parent": "chest",
					"pivot": [3.5, 33.25, -1.5],
					"rotation": [0, 0, 5],
					"cubes": [
						{"origin": [3.5, 33.25, -4], "size": [2, 0, 5], "uv": [0, 0]}
					]
				},
				{
					"name": "chest_ruff_right_top",
					"parent": "chest",
					"pivot": [-3.5, 26.5, -1.5],
					"cubes": [
						{"origin": [-3.5, 23.5, -5], "size": [0, 3, 7], "uv": [47, 47]},
						{"origin": [-3.5, 23.5, -5], "size": [3, 3, 0], "inflate": 0.01, "uv": [28, 58]}
					]
				},
				{
					"name": "chest_ruff_right_bottom",
					"parent": "chest_ruff_right_top",
					"pivot": [-3.5, 23.5, -5],
					"rotation": [5, 0, 20],
					"cubes": [
						{"origin": [-3.5, 20.5, -4], "size": [0, 3, 6], "uv": [19, 46]}
					]
				},
				{
					"name": "chest_ruff_right_bottom2",
					"parent": "chest_ruff_right_bottom",
					"pivot": [-3.5, 20.5, -1.5],
					"rotation": [0, 0, 40],
					"cubes": [
						{"origin": [-3.5, 18.5, -3], "size": [0, 2, 4], "uv": [27, 5]}
					]
				},
				{
					"name": "chest_ruff_left_top",
					"parent": "chest",
					"pivot": [3.5, 26.5, -1.5],
					"cubes": [
						{"origin": [3.5, 23.5, -5], "size": [0, 3, 7], "uv": [19, 48]},
						{"origin": [0.5, 23.5, -5], "size": [3, 3, 0], "inflate": 0.01, "uv": [13, 66]}
					]
				},
				{
					"name": "chest_ruff_left_bottom",
					"parent": "chest_ruff_left_top",
					"pivot": [3.5, 23.5, -5],
					"rotation": [5, 0, -20],
					"cubes": [
						{"origin": [3.5, 20.5, -4], "size": [0, 3, 6], "uv": [27, 0]}
					]
				},
				{
					"name": "chest_ruff_left_bottom2",
					"parent": "chest_ruff_left_bottom",
					"pivot": [3.5, 20.5, -1.5],
					"rotation": [0, 0, -40],
					"cubes": [
						{"origin": [3.5, 18.5, -3], "size": [0, 2, 4], "uv": [27, 23]}
					]
				},
				{
					"name": "tail",
					"parent": "torso",
					"pivot": [0, 19, 2.25],
					"cubes": [
						{"origin": [-1.5, 16.5, 0.75], "size": [3, 4, 5], "uv": [54, 119]}
					]
				},
				{
					"name": "tail2",
					"parent": "tail",
					"pivot": [0, 18, 4.65],
					"cubes": [
						{"origin": [-3.5, 14.5, 4.65], "size": [7, 7, 6], "uv": [80, 25]}
					]
				},
				{
					"name": "tail3",
					"parent": "tail2",
					"pivot": [0, 18, 9.65],
					"cubes": [
						{"origin": [-4.5, 13.5, 9.65], "size": [9, 9, 12], "uv": [82, 0]}
					]
				},
				{
					"name": "tail4",
					"parent": "tail3",
					"pivot": [0, 18, 21.65],
					"cubes": [
						{"origin": [-3.5, 14.5, 20.65], "size": [7, 7, 6], "uv": [33, 108]}
					]
				},
				{
					"name": "tail5",
					"parent": "tail4",
					"pivot": [0, 18, 26.65],
					"cubes": [
						{"origin": [0, 14, 25.65], "size": [0, 8, 8], "pivot": [0, 18, 33.65], "rotation": [0, 0, 45], "uv": [78, -8]},
						{"origin": [0, 14, 25.65], "size": [0, 8, 8], "pivot": [0, 18, 33.65], "rotation": [0, 0, -45], "uv": [112, -8]}
					]
				},
				{
					"name": "leg_right_outer",
					"parent": "body",
					"pivot": [-2.5, 23.5, -1],
					"cubes": [
						{"origin": [-3, 17.5, -4.75], "size": [3, 6, 7], "inflate": 0.01, "uv": [43, 80]},
						{"origin": [-3, 16.5, -4.75], "size": [2, 7, 7], "pivot": [-3, 23.5, -0.75], "rotation": [0, 0, 16.5], "uv": [22, 83]}
					]
				},
				{
					"name": "leg_right_outer2",
					"parent": "leg_right_outer",
					"pivot": [-3, 17.5, -5],
					"cubes": [
						{"origin": [-5, 10.5, -5.5], "size": [5, 7, 9], "inflate": 0.01, "uv": [0, 50]},
						{"origin": [-5, 9.5, -5.5], "size": [2, 8, 9], "pivot": [-5, 17.5, -1.5], "rotation": [0, 0, 16.7], "uv": [56, 54]},
						{"origin": [-8, 3.5, -6.25], "size": [8, 7, 11], "inflate": 0.01, "uv": [0, 0]},
						{"origin": [-9, 0.5, -6.25], "size": [9, 3, 0], "pivot": [0, 3.5, -6.25], "rotation": [-30, 5, 0], "uv": [86, 21]},
						{"origin": [-9, 0.5, 4.75], "size": [9, 3, 0], "pivot": [0, 3.5, 4.75], "rotation": [30, -5, 0], "uv": [96, 89]}
					]
				},
				{
					"name": "leg_right_outer4",
					"parent": "leg_right_outer2",
					"pivot": [-7.5, 3.5, -5.75],
					"rotation": [0, 7.5, 5],
					"cubes": [
						{"origin": [-13.5, 3.5, -5.75], "size": [7, 4, 10], "inflate": 0.01, "uv": [28, 26]},
						{"origin": [-13.5, 5.5, -5.75], "size": [7, 2, 10], "pivot": [-13.5, 7.5, -1.25], "rotation": [0, 0, -15], "uv": [24, 40]},
						{"origin": [-16.5, 0.5, -5.75], "size": [9, 4, 0], "pivot": [-7.5, 3.5, -5.75], "rotation": [-25, 10, 2.5], "uv": [52, 8]},
						{"origin": [-16.5, 0.5, 3.75], "size": [9, 4, 0], "pivot": [-7.5, 3.5, 3.75], "rotation": [25, -10, 2.5], "uv": [47, 57]}
					]
				},
				{
					"name": "leg_right_outer5",
					"parent": "leg_right_outer4",
					"pivot": [-13.5, 4, -4.5],
					"rotation": [0, 5, 15],
					"cubes": [
						{"origin": [-17.5, 4, -4.5], "size": [4, 3, 7], "uv": [0, 83]}
					]
				},
				{
					"name": "leg_right_outer6",
					"parent": "leg_right_outer5",
					"pivot": [-17.5, 4.5, -3.25],
					"rotation": [0, 5, 25],
					"cubes": [
						{"origin": [-20.5, 4.5, -3.25], "size": [3, 2, 5], "uv": [39, 1]}
					]
				},
				{
					"name": "leg_right_outer7",
					"parent": "leg_right_outer6",
					"pivot": [-20.5, 5.5, -2.75],
					"rotation": [0, 10, 20],
					"cubes": [
						{"origin": [-24.5, 5.5, -2.75], "size": [4, 0, 4], "uv": [20, 40]}
					]
				},
				{
					"name": "leg_right",
					"parent": "leg_right_outer2",
					"pivot": [-2.5, 3.5, 0.5],
					"cubes": [
						{"origin": [-3.5, 1, -0.5], "size": [2, 5, 2], "uv": [0, 50]}
					]
				},
				{
					"name": "foot_right",
					"parent": "leg_right",
					"pivot": [-2.5, 2, 0.5],
					"cubes": [
						{"origin": [-4, 0, -2.15], "size": [3, 2, 4], "inflate": 0.01, "uv": [56, 80]}
					]
				},
				{
					"name": "foot_right2",
					"parent": "foot_right",
					"pivot": [-2.5, 0, -2.15],
					"cubes": [
						{"origin": [-4, 0, -4.15], "size": [3, 2, 2], "uv": [52, 32]}
					]
				},
				{
					"name": "leg_left_outer",
					"parent": "body",
					"pivot": [4, 23.5, -1],
					"cubes": [
						{"origin": [0, 17.5, -4.75], "size": [3, 6, 7], "inflate": 0.01, "uv": [106, 36]},
						{"origin": [1, 16.5, -4.75], "size": [2, 7, 7], "pivot": [3, 23.5, -0.75], "rotation": [0, 0, -16.5], "uv": [85, 85]}
					]
				},
				{
					"name": "leg_left_outer2",
					"parent": "leg_left_outer",
					"pivot": [3, 17.5, -5],
					"cubes": [
						{"origin": [0, 10.5, -5.5], "size": [5, 7, 9], "inflate": 0.01, "uv": [28, 52]},
						{"origin": [3, 9.5, -5.5], "size": [2, 8, 9], "pivot": [5, 17.5, -1.5], "rotation": [0, 0, -16.7], "uv": [0, 66]},
						{"origin": [0, 3.5, -6.25], "size": [8, 7, 11], "inflate": 0.01, "uv": [0, 18]},
						{"origin": [0, 0.5, -6.25], "size": [9, 3, 0], "pivot": [0, 3.5, -6.25], "rotation": [-30, -5, 0], "uv": [0, 102]},
						{"origin": [0, 0.5, 4.75], "size": [9, 3, 0], "pivot": [0, 3.5, 4.75], "rotation": [30, 5, 0], "uv": [96, 101]}
					]
				},
				{
					"name": "leg_left_outer4",
					"parent": "leg_left_outer2",
					"pivot": [7.5, 3.5, -5.75],
					"rotation": [0, -7.5, -5],
					"cubes": [
						{"origin": [6.5, 3.5, -5.75], "size": [7, 4, 10], "inflate": 0.01, "uv": [0, 36]},
						{"origin": [6.5, 5.5, -5.75], "size": [7, 2, 10], "pivot": [13.5, 7.5, -1.25], "rotation": [0, 0, 15], "uv": [48, 42]},
						{"origin": [7.5, 0.5, -5.75], "size": [9, 4, 0], "pivot": [7.5, 3.5, -5.75], "rotation": [-25, -10, -2.5], "uv": [104, 21]},
						{"origin": [7.5, 0.5, 3.75], "size": [9, 4, 0], "pivot": [7.5, 3.5, 3.75], "rotation": [25, 10, -2.5], "uv": [93, 56]}
					]
				},
				{
					"name": "leg_left_outer5",
					"parent": "leg_left_outer4",
					"pivot": [13.5, 4, -4.5],
					"rotation": [0, -10, -15],
					"cubes": [
						{"origin": [13.5, 4, -4.5], "size": [4, 3, 7], "uv": [63, 85]}
					]
				},
				{
					"name": "leg_left_outer6",
					"parent": "leg_left_outer5",
					"pivot": [17.5, 4.5, -3.25],
					"rotation": [0, -5, -25],
					"cubes": [
						{"origin": [17.5, 4.5, -3.25], "size": [3, 2, 5], "uv": [98, 94]}
					]
				},
				{
					"name": "leg_left_outer7",
					"parent": "leg_left_outer6",
					"pivot": [20.5, 5.5, -2.75],
					"rotation": [0, -10, -20],
					"cubes": [
						{"origin": [20.5, 5.5, -2.75], "size": [4, 0, 4], "uv": [44, 40]}
					]
				},
				{
					"name": "leg_left",
					"parent": "leg_left_outer2",
					"pivot": [2.5, 3.5, 0.5],
					"cubes": [
						{"origin": [1.5, 1, -0.5], "size": [2, 5, 2], "uv": [0, 66]}
					]
				},
				{
					"name": "foot_left",
					"parent": "leg_left",
					"pivot": [2.5, 2, 0.5],
					"cubes": [
						{"origin": [1, 0, -2.15], "size": [3, 2, 4], "inflate": 0.01, "uv": [15, 83]}
					]
				},
				{
					"name": "foot_left2",
					"parent": "foot_left",
					"pivot": [2.5, 0, -2.15],
					"cubes": [
						{"origin": [1, 0, -4.15], "size": [3, 2, 2], "uv": [33, 86]}
					]
				}
			]
		}
	]
}