{
	"format_version": "1.8.0",
	"animations": {
		"animation.bewear.blink": {
			"animation_length": 0.16667,
			"bones": {
				"eyelid_right": {
					"position": {
						"0.0": [0, 0, -0.1],
						"0.125": [0, 0, -0.1],
						"0.1667": [0, 0, 0]
					}
				},
				"eyelid_left": {
					"position": {
						"0.0": [0, 0, -0.1],
						"0.125": [0, 0, -0.1],
						"0.1667": [0, 0, 0]
					}
				}
			}
		},
		"animation.bewear.ground_idle": {
			"loop": true,
			"animation_length": 1.58333,
			"bones": {
				"arm_right": {
					"rotation": ["3*math.cos(q.anim_time*90*2.52-140)", "-(2*math.cos(q.anim_time*90*2.52-130))", "-55+0.5*math.sin(q.anim_time*90*2.52-140)"]
				},
				"arm_right2": {
					"rotation": [0, "-7.5-2*math.cos(q.anim_time*90*2.52-130)", 0]
				},
				"arm_right3": {
					"rotation": [0, -7.5, 0]
				},
				"arm_left": {
					"rotation": ["3*math.cos(q.anim_time*90*2.52-140)", "2*math.cos(q.anim_time*90*2.52-130)", "55+0.5*math.sin(q.anim_time*90*2.52-140)"]
				},
				"arm_left2": {
					"rotation": [0, "7.5+2*math.cos(q.anim_time*90*2.52-130)", 0]
				},
				"arm_left3": {
					"rotation": [0, 7.5, 0]
				},
				"tail": {
					"rotation": ["-4*math.sin(q.anim_time*90*2.52-40)", "10*math.cos(q.anim_time*90*2.52-40)", 0]
				},
				"tail2": {
					"rotation": [7.5, "5*math.cos(q.anim_time*90*2.52+130)", 0]
				},
				"torso": {
					"rotation": ["1*math.cos(q.anim_time*90*2.52-90)", 0, 0],
					"position": [0, "0.2*math.sin(q.anim_time*90*2.52-140)", 0]
				},
				"ear_right_upper": {
					"rotation": ["2+4*math.cos(q.anim_time*90*2.52-140)", 0, 0]
				},
				"ear_right_bottom": {
					"rotation": [0, -3, 0.02]
				},
				"head_ruff_right": {
					"rotation": ["2+3*math.cos(q.anim_time*90*2.52-140)", 0, 0]
				},
				"head_ruff_top": {
					"rotation": ["2*math.cos(q.anim_time*90*2.52-140)", 0, 0]
				},
				"head_ruff_left": {
					"rotation": ["2+3*math.cos(q.anim_time*90*2.52-140)", 0, 0]
				},
				"ear_left_upper": {
					"rotation": ["-1+4*math.cos(q.anim_time*90*2.52-140)", 0, 0]
				},
				"ear_left_bottom": {
					"rotation": [0, 2.99993, -0.02008]
				},
				"leg_right": {
					"rotation": ["-2-2*math.sin(q.anim_time*90*2.52)", 0, 0],
					"position": [0, "-0.2*math.sin(q.anim_time*90*2.52)", 0]
				},
				"leg_right2": {
					"rotation": ["4+4*math.sin(q.anim_time*90*2.52)", 0, 0]
				},
				"leg_left": {
					"rotation": ["-2-2*math.sin(q.anim_time*90*2.52)", 0, 0],
					"position": [0, "-0.2*math.sin(q.anim_time*90*2.52)", 0]
				},
				"leg_left2": {
					"rotation": ["4+4*math.sin(q.anim_time*90*2.52)", 0, 0]
				},
				"body": {
					"position": [0, -0.25, 0]
				}
			}
		},
		"animation.bewear.ground_walk": {
			"loop": true,
			"animation_length": 1,
			"bones": {
				"arm_right": {
					"rotation": ["3+3*math.cos(q.anim_time*90*8)", "10*math.cos(q.anim_time*90*4)", "-37+3*math.cos(q.anim_time*90*8)"],
					"position": {
						"0.0": [0, 0.5, 0],
						"0.5": [0, 0.5, 0],
						"1.0": [0, 0.5, 0]
					}
				},
				"arm_right2": {
					"rotation": [0, "-10-5*math.sin(q.anim_time*90*4-50)", 0]
				},
				"arm_right3": {
					"rotation": [0, -7.5, 0]
				},
				"arm_left": {
					"rotation": ["3+3*math.cos(q.anim_time*90*8)", "10*math.cos(q.anim_time*90*4)", "37+3*math.cos(q.anim_time*90*8)"],
					"position": {
						"0.0": [0, 0.5, 0],
						"0.5": [0, 0.5, 0],
						"1.0": [0, 0.5, 0]
					}
				},
				"arm_left2": {
					"rotation": [0, "10-5*math.sin(q.anim_time*90*4-50)", 0]
				},
				"arm_left3": {
					"rotation": {
						"0.0": [0, 7.5, 0],
						"0.5": [0, 7.5, 0],
						"1.0": [0, 7.5, 0]
					}
				},
				"tail": {
					"rotation": ["-12+5*math.cos(q.anim_time*90*8-120)", "10*math.cos(q.anim_time*90*4+120)", 0]
				},
				"tail2": {
					"rotation": [7.5, "-5*math.sin(q.anim_time*90*4-50)", 0]
				},
				"torso": {
					"rotation": ["6.5+2*math.cos(q.anim_time*90*8)", 0, 0],
					"position": [0, 0.2, 0]
				},
				"ear_right_upper": {
					"rotation": ["-5*math.sin(q.anim_time*90*8)", 0, "-5+3*math.sin(q.anim_time*90*8)"]
				},
				"ear_right_bottom": {
					"rotation": [0, 0, "-5+5*math.sin(q.anim_time*90*8)"]
				},
				"head_ruff_right": {
					"rotation": ["2+5*math.sin(q.anim_time*90*8)", 0, 0]
				},
				"head_ruff_top": {
					"rotation": ["2+5*math.cos(q.anim_time*90*8)", 0, 0]
				},
				"head_ruff_left": {
					"rotation": ["2+5*math.sin(q.anim_time*90*8)", 0, 0]
				},
				"ear_left_upper": {
					"rotation": ["-5*math.sin(q.anim_time*90*8)", 0, "-5-3*math.sin(q.anim_time*90*8)"]
				},
				"ear_left_bottom": {
					"rotation": [0, 0, "-5-5*math.sin(q.anim_time*90*8)"]
				},
				"leg_right": {
					"rotation": ["-5+20*math.sin(q.anim_time*90*4)", "10*math.sin(q.anim_time*90*4)", "-3*math.sin(q.anim_time*90*4)"],
					"position": [-0.4, "1-1*math.cos(q.anim_time*90*4)", "1*math.sin(q.anim_time*90*4)"]
				},
				"leg_right2": {
					"rotation": ["10+10*math.sin(q.anim_time*90*4)", 0, 0]
				},
				"leg_left": {
					"rotation": ["-20*math.sin(q.anim_time*90*4)", "10*math.sin(q.anim_time*90*4)", "-3*math.sin(q.anim_time*90*4)"],
					"position": [0.4, "1+1*math.cos(q.anim_time*90*4)", "-1*math.sin(q.anim_time*90*4)"]
				},
				"leg_left2": {
					"rotation": ["10-10*math.sin(q.anim_time*90*4)", 0, 0]
				},
				"body": {
					"rotation": [0, "-5*math.sin(q.anim_time*90*4)", "2*math.sin(q.anim_time*90*4)"],
					"position": [0, "-1+0.5*math.cos(q.anim_time*90*8)", 0]
				}
			}
		},
		"animation.bewear.ground_run": {
			"loop": true,
			"animation_length": 1.33333,
			"bones": {
				"body": {
					"rotation": [15, "5*math.cos(q.anim_time*90*6)", "2*math.sin(q.anim_time*90*6)"],
					"position": {
						"0.0": [0, "2.9+3*math.sin(q.anim_time*90*12-40)", 2],
						"0.25": [0, 0, 2],
						"0.2917": [0, "3+3*math.sin(q.anim_time*90*12-40)", 2],
						"0.5833": [0, 0, 2],
						"0.625": [0, "3+3*math.sin(q.anim_time*90*12-40)", 2],
						"0.9167": [0, 0, 2],
						"0.9583": [0, "3+3*math.sin(q.anim_time*90*12-40)", 2],
						"1.25": [0, 0, 2],
						"1.2917": [0, 0, 2],
						"1.3333": [0, "3+3*math.sin(q.anim_time*90*12-40)", 2]
					}
				},
				"ear_right_upper": {
					"rotation": ["-5+5*math.sin(q.anim_time*90*12)", 0, "-5-5*math.cos(q.anim_time*90*12)"],
					"position": [0, 0, -0.5]
				},
				"ear_right_bottom": {
					"rotation": [0, 0, "-5-5*math.cos(q.anim_time*90*12)"]
				},
				"head_ruff_right": {
					"rotation": ["-5+5*math.cos(q.anim_time*90*12)", 0, 0]
				},
				"head_ruff_top": {
					"rotation": ["-5-5*math.sin(q.anim_time*90*12)", 0, 0]
				},
				"head_ruff_left": {
					"rotation": ["-5+5*math.cos(q.anim_time*90*12)", 0, 0]
				},
				"ear_left_upper": {
					"rotation": ["-5+5*math.sin(q.anim_time*90*12)", 0, "-5+5*math.cos(q.anim_time*90*12)"],
					"position": [0, 0, -0.5]
				},
				"ear_left_bottom": {
					"rotation": [0, 0, "-5+5*math.cos(q.anim_time*90*12)"]
				},
				"arm_right": {
					"rotation": ["-10*math.cos(q.anim_time*90*12)", "-30*math.sin(q.anim_time*90*6)", -35],
					"position": [0, 0, "-1*math.sin(q.anim_time*90*6)"]
				},
				"arm_right2": {
					"rotation": [0, "-10+10*math.cos(q.anim_time*90*6)", 0]
				},
				"arm_left": {
					"rotation": ["-10*math.cos(q.anim_time*90*12)", "-30*math.sin(q.anim_time*90*6)", 35],
					"position": [0, 0, "1*math.sin(q.anim_time*90*6)"]
				},
				"arm_left2": {
					"rotation": [0, "10+10*math.cos(q.anim_time*90*6)", 0]
				},
				"tail": {
					"rotation": ["-10-10*math.cos(q.anim_time*90*12)", "10*math.sin(q.anim_time*90*6)", 0]
				},
				"tail2": {
					"rotation": ["-5*math.sin(q.anim_time*90*12)", "-10*math.cos(q.anim_time*90*6)", 0]
				},
				"leg_right": {
					"rotation": ["40*math.sin(q.anim_time*90*6)", 0, 0],
					"position": [0, "-2*math.sin(q.anim_time*90*6)", "2*math.sin(q.anim_time*90*6)"]
				},
				"leg_right2": {
					"rotation": {
						"0.0833": [1, 0, 0],
						"0.3333": [60, 0, 0],
						"0.5833": [0, 0, 0],
						"0.75": [0.9, 0, 0],
						"1.0": [59.9, 0, 0],
						"1.25": [0.8, 0, 0]
					}
				},
				"leg_left": {
					"rotation": ["-40*math.sin(q.anim_time*90*6)", 0, 0],
					"position": [0, "2*math.sin(q.anim_time*90*6)", "-2*math.sin(q.anim_time*90*6)"]
				},
				"leg_left2": {
					"rotation": {
						"0.0": [61, 0, 0],
						"0.25": [0, 0, 0],
						"0.4167": [0, 0, 0],
						"0.6667": [61, 0, 0],
						"0.9167": [0, 0, 0],
						"1.0833": [0, 0, 0],
						"1.3333": [60, 0, 0]
					}
				}
			}
		},
		"animation.bewear.battle_idle": {
			"loop": true,
			"animation_length": 2,
			"bones": {
				"body": {
					"position": ["0.5*math.sin(q.anim_time*90*2)", "-0.8+0.2*math.sin(q.anim_time*90*4+90)", 0]
				},
				"torso": {
					"rotation": ["6-1*math.cos(q.anim_time*90*4)", 0, 0]
				},
				"ear_right_upper": {
					"rotation": [0, 0, "2*math.sin(q.anim_time*90*4)"]
				},
				"ear_right_bottom": {
					"rotation": [0, 0, "2*math.cos(q.anim_time*90*4)"]
				},
				"head_ruff_right": {
					"rotation": [0, 0, "1*math.cos(q.anim_time*90*4)"]
				},
				"head_ruff_top": {
					"rotation": ["2*math.cos(q.anim_time*90*4)", 0, 0]
				},
				"head_ruff_left": {
					"rotation": [0, 0, "-1*math.cos(q.anim_time*90*4)"]
				},
				"ear_left_upper": {
					"rotation": [0, 0, "-2*math.sin(q.anim_time*90*4)"]
				},
				"ear_left_bottom": {
					"rotation": [0, 0, "-2*math.cos(q.anim_time*90*4)"]
				},
				"arm_right": {
					"rotation": [0, "-2*math.sin(q.anim_time*90*4+90)", "-32.5-2*math.cos(q.anim_time*90*4+90)"]
				},
				"arm_right2": {
					"rotation": [0, -30, 0]
				},
				"arm_left": {
					"rotation": [0, "2*math.sin(q.anim_time*90*4+90)", "35+2*math.cos(q.anim_time*90*4+90)"]
				},
				"arm_left2": {
					"rotation": [0, 30, 0]
				},
				"tail": {
					"rotation": ["5*math.sin(q.anim_time*90*4)", "-5*math.cos(q.anim_time*90*4)", 0]
				},
				"leg_right": {
					"rotation": ["-4.4+2*math.cos(q.anim_time*90*4)", 4.00934, "8-2*math.cos(q.anim_time*90*2+90)"],
					"position": [0, 0, 0]
				},
				"leg_right2": {
					"rotation": ["11-2.5*math.cos(q.anim_time*90*4)", 0, 0]
				},
				"leg_left": {
					"rotation": ["-12.25+1.5*math.cos(q.anim_time*90*4)", -13.38039, "-7.5-2*math.cos(q.anim_time*90*2+90)"],
					"position": [0, -0.7, 0]
				},
				"leg_left2": {
					"rotation": ["15-2*math.cos(q.anim_time*90*4)", 0, 0]
				}
			}
		},
		"animation.bewear.faint": {
			"loop": true,
			"animation_length": 2.75,
			"bones": {
				"body": {
					"position": {
						"0.0": [0, "1-1*math.cos(q.anim_time*90*8)", 0.1],
						"0.4583": [0, -2.65, -2.35],
						"0.625": [0, -2.22, -1.76],
						"0.7917": [0, -1.92, 0.57],
						"0.9167": [0, -1.7, 3.4],
						"1.0417": [0, "-3*math.cos(q.anim_time*90*4)", 8.3],
						"1.125": [0, -5.06, 11.3],
						"1.2083": [0, "-5+6*math.sin(q.anim_time*90*3)", 15.3],
						"1.5833": [0, -8.3, 22.7],
						"1.625": [0, -7.8, 22.7],
						"1.6667": [0, -8.05, 22.7],
						"1.75": [0, -7.8, 22.7]
					}
				},
				"arm_right": {
					"rotation": {
						"0.0": ["-20+20*math.cos(q.anim_time*90*4)", "20-20*math.cos(q.anim_time*90*4)", "-20-20*math.cos(q.anim_time*90*2)"],
						"0.6667": [-88.3576, -53.48863, 0.19707],
						"1.6667": [-88.36, -60.49, 0],
						"2.0833": [-88.45, -33.89, 6.73],
						"2.2917": [-88.52773, 17.50816, 23.21565]
					},
					"position": {
						"0.0": [0, 0, 0],
						"0.1667": [0, 0, 3],
						"0.375": [0, -3, 3],
						"0.6667": [-2, -4, -2],
						"1.625": [-0.25, -4, -2.09],
						"1.6667": [0, -4, "-5.8-5*math.cos(q.anim_time*90*1.5)"],
						"2.0833": [1.77, -4, 0.84],
						"2.1667": [2.4, -4, 1.6],
						"2.2917": [3.6, -4, 2.1],
						"2.5833": [3.6, -4, 2.1]
					}
				},
				"arm_left": {
					"rotation": {
						"0.0": ["-20+20*math.cos(q.anim_time*90*4)", "-20+20*math.cos(q.anim_time*90*4)", "20+20*math.cos(q.anim_time*90*4)"],
						"0.6667": [-88.3576, 53.4886, 0.8029],
						"1.5": [-88.36, 55.49, 1.8],
						"1.9167": [-88.36, 33.89, -6.2],
						"2.125": [-88.36, -17.5082, -22.2]
					},
					"position": {
						"0.0": [0, 0, 0],
						"0.1667": [0, -2, 3],
						"0.375": [0, -3, 3],
						"0.6667": [2, -4, -2],
						"1.5417": [0.4, -4, -2],
						"1.5833": [0.2, -4, "-6.1-5*math.cos(q.anim_time*90*1.5)"],
						"2.1667": [-3.6, -4, 1.8],
						"2.2917": [-3.6, -4, 2.1],
						"2.5833": [-3.6, -4, 1.7]
					}
				},
				"leg_left": {
					"rotation": {
						"0.0": ["-15+15*math.cos(q.anim_time*90*4)", 0, 0],
						"0.5": ["-17.3+15*math.cos(q.anim_time*90*4)", -5, 0],
						"0.7917": [-36.91, -10, 0],
						"1.2083": [-80, -14, 0],
						"1.375": [-120, -16, 0],
						"1.5": [-104.2, -16.4, 0],
						"1.5833": [-80, -17, 0],
						"1.7083": [-90, -17, 0],
						"1.8333": [-81, -17, 0]
					}
				},
				"leg_left2": {
					"rotation": {
						"0.0": [0, 0, 0],
						"0.4583": [31.7, 0, 0],
						"1.0": ["22+10*math.cos(q.anim_time*90*8)", 0, 0],
						"1.2083": [0, 0, 0]
					}
				},
				"torso": {
					"rotation": {
						"0.0": ["15*math.sin(q.anim_time*90*2)", 0.12, 0.47],
						"0.625": ["-2+15*math.sin(q.anim_time*90*2)", -1.88, 0.47],
						"0.6667": ["53-50*math.sin(q.anim_time*90*2)", -2, 0.44],
						"1.1667": [-77.2, -1.72, 0.09],
						"1.2917": [-91, -1, 0],
						"1.5417": [-85, -0.2, 0],
						"1.6667": [-90.5, 0, 0]
					}
				},
				"eyelid_right": {
					"position": {
						"0.0417": [0, 0, 0],
						"0.0833": [0, 0, -0.2],
						"0.5417": [0, 0, 0],
						"0.5833": [0, 0, -0.2],
						"0.7917": [0, 0, 0],
						"0.8333": [0, 0, -0.2]
					}
				},
				"eyelid_left": {
					"position": {
						"0.0417": [0, 0, 0],
						"0.0833": [0, 0, -0.2],
						"0.5417": [0, 0, 0],
						"0.5833": [0, 0, -0.2],
						"0.7917": [0, 0, 0],
						"0.8333": [0, 0, -0.2]
					}
				},
				"ear_right_upper": {
					"rotation": {
						"0.0": ["1*math.cos(q.anim_time*90*4)", 0, 0],
						"1.3333": ["6+20*math.cos(q.anim_time*90*4)", 0, 0],
						"1.4583": [-10.92, 0, 0],
						"1.5417": [2, 0, 0],
						"2.1667": [-8, 0, 0]
					}
				},
				"ear_left_upper": {
					"rotation": {
						"0.0": ["1*math.cos(q.anim_time*90*4)", 0, 0],
						"1.3333": ["6+20*math.cos(q.anim_time*90*4)", 0, 0],
						"1.4583": [-10.92, 0, 0],
						"1.5417": [2, 0, 0],
						"2.1667": [-7, 0, 0]
					}
				},
				"arm_right2": {
					"rotation": {
						"0.0": [0, 0, 0],
						"0.3333": [0, 0, 0],
						"0.375": [0, 0, "-28-40*math.cos(q.anim_time*90*4)"],
						"0.875": [0, 0, -80],
						"1.1667": [0, 0, -79.97],
						"1.2083": [0, 0, "-94.5-20*math.cos(q.anim_time*100*2)"],
						"1.5417": [0, 0, -77],
						"2.1667": [0, 0, "-23-20*math.sin(q.anim_time*90*3)"],
						"2.3333": [0, 0, "-3.9+20*math.sin(q.anim_time*90*6)"],
						"2.5833": [0, 0, -4.4]
					},
					"position": {
						"0.375": [0, 0, 0],
						"0.6667": [2, 2, 0],
						"1.625": [2, 2, 0],
						"2.2083": [0.8, 0, 0]
					}
				},
				"arm_left2": {
					"rotation": {
						"0.0": [0, 0, 0],
						"0.3333": [0, 0, 0],
						"0.375": [0, 0, "28+40*math.cos(q.anim_time*90*4)"],
						"0.9167": [0, 0, 80],
						"1.1667": [0, 0, 80.77],
						"1.2083": [0, 0, "90.3+20*math.cos(q.anim_time*100*2)"],
						"1.5833": [0, 0, 92],
						"2.0833": [0, 0, "19+20*math.sin(q.anim_time*90*3)"],
						"2.25": [0, 0, "22-20*math.sin(q.anim_time*90*6)"],
						"2.5": [0, 0, 4]
					},
					"position": {
						"0.375": [0, 0, 0],
						"0.6667": [-3, 2.6, 0],
						"1.625": [-3, 2.6, 0],
						"2.1667": [-1, 0, 0]
					}
				},
				"tail": {
					"rotation": {
						"0.0": [0, 0, 0],
						"0.375": ["-37+40*math.sin(q.anim_time*90*4-60)", 0, 0],
						"1.25": [82, 0, 0]
					}
				},
				"leg_right": {
					"rotation": {
						"0.0": [0, 0, 0],
						"0.375": [0, 4, 0],
						"0.7083": [14.7, 7, 0],
						"0.9167": [-5.3, 10, 0],
						"1.25": [-100, 13, 0],
						"1.3333": [-121.8, 16, 0],
						"1.4583": [-104, 16.4, 0],
						"1.5417": [-82.3, 17, 0],
						"1.6667": [-90.3, 17, 0],
						"1.7917": [-82.3, 17, 0]
					},
					"position": {
						"0.0": [0, 0, 0],
						"0.0417": [0, "-0.7+1*math.cos(q.anim_time*90*8)", 0],
						"0.2917": [0, 0.2, 0],
						"0.4167": [0, 1.3, 0],
						"0.5": [0, 2.48, 0],
						"0.7083": [0, 1.1, 0],
						"0.9583": [0, 1.2, 0],
						"1.2083": [0, -0.1, 0]
					}
				},
				"leg_right2": {
					"rotation": {
						"0.0": [0, 0, 0],
						"0.375": [11, 0, 0],
						"0.625": [35.5, 0, 0],
						"1.0417": [22.5, 0, 0],
						"1.2083": [0, 0, 0]
					}
				},
				"jaw": {
					"position": {
						"0.7083": [0, 0, 0],
						"0.75": [0, -3, 0]
					}
				},
				"tail2": {
					"rotation": {
						"0.0": [0, 0, 0],
						"0.375": ["-5+5*math.sin(q.anim_time*90*4-60)", 0, 0],
						"1.25": [16, 0, 0]
					}
				}
			}
		},
		"animation.bewear.sleep": {
			"loop": true,
			"animation_length": 3,
			"bones": {
				"body": {
					"rotation": [-90, "2.5+0.25*math.cos(q.anim_time*90*1.33-180)", -90],
					"position": [0, 7, -19]
				},
				"eyelid_right": {
					"position": [0, 0, -0.1]
				},
				"eyelid_left": {
					"position": [0, 0, -0.1]
				},
				"ear_right_upper": {
					"rotation": ["-19.6433+2*math.cos(q.anim_time*90*1.33-180)", 8.84096, "18.1846-1*math.cos(q.anim_time*90*1.33-180)"],
					"position": [0, 0, -1.4]
				},
				"head_ruff_right": {
					"rotation": [0, 0, "3*math.sin(q.anim_time*90*1.33-150)"]
				},
				"head_ruff_top": {
					"rotation": [0, 0, "3*math.sin(q.anim_time*90*1.33-180)"]
				},
				"head_ruff_left": {
					"rotation": [0, 0, "3*math.sin(q.anim_time*90*1.33-100)"]
				},
				"ear_left_upper": {
					"rotation": {
						"0.0": [-2, -12.5, "-10+2*math.sin(q.anim_time*90*1.33-180)"],
						"1.7917": [-2, -12.5, "-10+2*math.sin(q.anim_time*90*1.33-180)"],
						"1.8333": [-9, -12.5, "-10+2*math.sin(q.anim_time*90*1.33-180)"],
						"1.875": [-2, -12.5, "-10+2*math.sin(q.anim_time*90*1.33-180)"]
					}
				},
				"ear_left_bottom": {
					"rotation": ["4*math.sin(q.anim_time*90*1.33-180)", 0, "-2*math.sin(q.anim_time*90*1.33-180)"]
				},
				"arm_right": {
					"rotation": [-75.97091, -48.4076, -14.46375],
					"position": [0, 0, 0.4]
				},
				"arm_right2": {
					"rotation": ["-3.486-1*math.cos(q.anim_time*90*1.33-180)", -36.59157, "-30.5103+1*math.cos(q.anim_time*90*1.33-180)"],
					"position": [1.4, 0.8, 0]
				},
				"arm_right3": {
					"rotation": [0, 0, -10],
					"position": [0.6, 0, 0]
				},
				"arm_left": {
					"rotation": [-43.62226, 38.53064, "38.0292-1*math.sin(q.anim_time*90*1.33-180)"],
					"position": [0, -1.2, -0.9]
				},
				"arm_left2": {
					"rotation": [1.94269, 1.62091, "61.1138-1*math.sin(q.anim_time*90*1.33-180)"],
					"position": [-2.8, 2, 0]
				},
				"arm_left3": {
					"rotation": [0, 0, 13],
					"position": [-0.8, 0.1, 0]
				},
				"tail": {
					"rotation": ["15-1*math.cos(q.anim_time*90*1.33-180)", "-42.5-0.5*math.cos(q.anim_time*90*1.33-180)", 0],
					"position": [0, 0, -1.25]
				},
				"tail2": {
					"rotation": [0, "20-.05*math.cos(q.anim_time*90*1.33-180)", 0]
				},
				"leg_right": {
					"rotation": [-29.88555, -0.57002, "-1.9815+0.5*math.cos(q.anim_time*90*1.33-180)"],
					"position": [0, -1.4, -0.8]
				},
				"leg_right2": {
					"rotation": [42.5, 0, 0]
				},
				"leg_left": {
					"rotation": [30.90735, -27.79196, "25-1*math.sin(q.anim_time*90*1.33-180)"],
					"position": [-1.6, 0.5, -1.7]
				},
				"leg_left2": {
					"rotation": [20, 0, 0]
				}
			}
		},
		"animation.bewear.cry": {
			"animation_length": 1.5,
			"bones": {
				"head": {
					"rotation": {
						"0.0": {
							"post": [0, 0, 0],
							"lerp_mode": "catmullrom"
						},
						"0.0833": {
							"post": [-3.17215, 0, 0],
							"lerp_mode": "catmullrom"
						},
						"0.25": {
							"post": [5, 0, 0],
							"lerp_mode": "catmullrom"
						},
						"0.6667": {
							"post": [-4.35185, 0, 0],
							"lerp_mode": "catmullrom"
						},
						"1.125": {
							"post": [-4.35185, 0, 0],
							"lerp_mode": "catmullrom"
						},
						"1.5": {
							"post": [0, 0, 0],
							"lerp_mode": "catmullrom"
						}
					},
					"position": {
						"0.0": {
							"post": [0, 0, 0],
							"lerp_mode": "catmullrom"
						},
						"0.25": {
							"post": [0, -0.5, 0],
							"lerp_mode": "catmullrom"
						},
						"1.0417": {
							"post": [0, 0, 0],
							"lerp_mode": "catmullrom"
						}
					}
				},
				"jaw": {
					"position": {
						"0.375": [0, -3, 0.2],
						"0.4167": [0, -3, 0.1],
						"1.125": [0, -3, 0.1],
						"1.1667": [0, -3, 0.2]
					}
				},
				"torso": {
					"rotation": {
						"0.0": {
							"post": [0, 0, 0],
							"lerp_mode": "catmullrom"
						},
						"0.375": {
							"post": [2.5, 0, 0],
							"lerp_mode": "catmullrom"
						},
						"1.25": {
							"post": [0, 0, 0],
							"lerp_mode": "catmullrom"
						}
					}
				}
			},
			"sound_effects": {
				"0.0": {
					"effect": "bewear_ambient"
				}
			}
		}
	}
}