{
	"credit": "Made with Blockbench",
	"textures": {
		"39": "block/silverbottlecap"
	},
	"elements": [
		{
			"name": "bottlecap",
			"from": [7, 0, 7],
			"to": [9, 1, 9],
			"faces": {
				"north": {"uv": [2, 0, 4, 1], "texture": "#39"},
				"east": {"uv": [2, 1, 4, 2], "texture": "#39"},
				"south": {"uv": [2, 2, 4, 3], "texture": "#39"},
				"west": {"uv": [2, 3, 4, 4], "texture": "#39"},
				"up": {"uv": [2, 2, 0, 0], "texture": "#39"},
				"down": {"uv": [2, 2, 0, 4], "texture": "#39"}
			}
		},
		{
			"name": "bottlecap",
			"from": [9, 0, 5],
			"to": [11, 1, 7],
			"rotation": {"angle": 22.5, "axis": "y", "origin": [0, 0, 0]},
			"faces": {
				"north": {"uv": [2, 3, 4, 4], "texture": "#39"},
				"east": {"uv": [2, 0, 4, 1], "texture": "#39"},
				"south": {"uv": [2, 1, 4, 2], "texture": "#39"},
				"west": {"uv": [2, 2, 4, 3], "texture": "#39"},
				"up": {"uv": [2, 2, 0, 0], "rotation": 90, "texture": "#39"},
				"down": {"uv": [2, 2, 0, 4], "rotation": 270, "texture": "#39"}
			}
		},
		{
			"name": "bottlecap",
			"from": [2, 0, 1],
			"to": [4, 1, 3],
			"rotation": {"angle": -22.5, "axis": "y", "origin": [0, 0, 0]},
			"faces": {
				"north": {"uv": [2, 1, 4, 2], "texture": "#39"},
				"east": {"uv": [2, 2, 4, 3], "texture": "#39"},
				"south": {"uv": [2, 3, 4, 4], "texture": "#39"},
				"west": {"uv": [2, 0, 4, 1], "texture": "#39"},
				"up": {"uv": [2, 2, 0, 0], "rotation": 270, "texture": "#39"},
				"down": {"uv": [2, 2, 0, 4], "rotation": 90, "texture": "#39"}
			}
		}
	],
	"display": {
		"thirdperson_righthand": {
			"rotation": [0, -180, 0],
			"translation": [-2, 7.25, 0]
		},
		"thirdperson_lefthand": {
			"rotation": [0, -180, 0],
			"translation": [-2, 7.25, 0],
			"scale": [-1, 1, 1]
		},
		"firstperson_righthand": {
			"translation": [0, 7.25, 0]
		},
		"firstperson_lefthand": {
			"translation": [0, 7.25, 0]
		},
		"ground": {
			"translation": [0, 4.5, 0]
		},
		"gui": {
			"rotation": [25, 45, 0],
			"translation": [0, 7.75, 0],
			"scale": [1.25, 1.25, 1.25]
		},
		"head": {
			"translation": [0, 19.5, 0],
			"scale": [1.65, 1.65, 1.65]
		},
		"fixed": {
			"rotation": [-90, 0, 0],
			"translation": [0, 0, -12],
			"scale": [1.5, 1.5, 1.5]
		}
	}
}