{
	"format_version": "1.8.0",
	"animations": {
		"animation.tranquill.ground_idle": {
			"loop": true,
			"bones": {
				"toe_inner_left": {
					"rotation": [0, 5, 0]
				},
				"toe_outer_left": {
					"rotation": [0, -5, 0]
				},
				"tail": {
					"rotation": [50, 0, 0]
				},
				"hair": {
					"rotation": [15, 0, 0]
				},
				"wing_left": {
					"rotation": [173.06428, -69.8486, -82.7329],
					"position": [0, -2.5, -2]
				},
				"wing_left2": {
					"rotation": [-0.61072, 44.98912, -0.37494]
				},
				"wing_left3": {
					"rotation": [0, -30, 0]
				},
				"neck": {
					"rotation": [0, 0, 0]
				},
				"head": {
					"rotation": [0, 0, 0]
				},
				"wing_right": {
					"rotation": [173.06428, 69.84863, 82.73288],
					"position": [0, -2.5, -2]
				},
				"wing_right2": {
					"rotation": [-0.61072, -44.98912, 0.37494]
				},
				"wing_right3": {
					"rotation": [0, 30, 0]
				}
			}
		},
		"animation.tranquill.cry": {
			"animation_length": 1.5,
			"bones": {
				"neck": {
					"rotation": {
						"0.0": [0, 0, 0],
						"0.25": [10, 0, 0],
						"1.25": [10, 0, 0],
						"1.5": [0, 0, 0]
					}
				},
				"head": {
					"rotation": {
						"0.0": [0, 0, 0],
						"0.25": [-15, 0, 0],
						"1.25": [-15, 0, 0],
						"1.5": [0, 0, 0]
					}
				},
				"jaw": {
					"rotation": {
						"0.0": [0, 0, 0],
						"0.25": [42.5, 0, 0],
						"1.25": [42.5, 0, 0],
						"1.5": [0, 0, 0]
					}
				}
			}
		},
		"animation.tranquill.blink": {
			"animation_length": 0.1667,
			"bones": {
				"eyelid_left": {
					"position": {
						"0.0": [0.1, 0, 0],
						"0.125": [0.1, 0, 0],
						"0.1667": [0, 0, 0]
					}
				},
				"eyelid_right": {
					"position": {
						"0.0": [-0.1, 0, 0],
						"0.125": [-0.1, 0, 0],
						"0.1667": [0, 0, 0]
					}
				}
			}
		}
	}
}