{
	"format_version": "1.8.0",
	"animations": {
		"animation.servine.ground_idle": {
			"loop": true,
			"bones": {
				"back_leaf2": {
					"rotation": [-2.5, 0, 0]
				},
				"arm_left": {
					"rotation": [-237.22062, -69.95588, -264.8469]
				},
				"arm_right": {
					"rotation": [111.53755, 65.17944, -89.29051]
				},
				"neck_leaf_left3": {
					"rotation": [-7.41495, 5.81322, -6.92869]
				},
				"neck_leaf_left4": {
					"rotation": [-15.34721, -12.06754, 3.28396]
				},
				"neck_leaf_right3": {
					"rotation": [-10, 0, 0]
				},
				"neck_leaf_right4": {
					"rotation": [-17.64168, 7.15102, -2.26708]
				},
				"neck": {
					"rotation": ["-5+Math.cos((query.anim_time-0.4) * 90 * 2) * -2", 0, 0]
				},
				"head_rotation": {
					"rotation": ["7.5+Math.cos((query.anim_time-0.6) * 90 * 2) * 2", 0, 0]
				},
				"tail": {
					"rotation": ["8.1763+Math.cos((query.anim_time-0.6) * 90 * 2) * 2", -16.8109, -5.08952]
				},
				"tail2": {
					"rotation": ["7.5881+Math.cos((query.anim_time-0.8) * 90 * 2) * 3", -14.98539, -0.66963]
				},
				"back_leaf": {
					"rotation": [-7.5, 0, 0]
				},
				"tail_leaves": {
					"rotation": [30, 0, 0]
				},
				"tail_leaf_middle": {
					"rotation": [2.5, 0, 0]
				},
				"tail_leaf_middle2": {
					"rotation": [-5, 0, 0]
				},
				"tail_leaf_left2": {
					"rotation": [-7.5, 0, 0]
				},
				"tail_leaf_right2": {
					"rotation": [-10, 0, 0]
				},
				"leg_left": {
					"rotation": [-2.62116, -17.48281, 0.78795]
				},
				"leg_left2": {
					"rotation": [0, 0, -2.5]
				},
				"vine_left": {
					"rotation": [0, 0, -90],
					"position": [-1, 0, 0]
				},
				"vine_left2": {
					"position": [-4, 0, 0]
				},
				"vine_left3": {
					"position": [-4, 0, 0]
				},
				"vine_left4": {
					"position": [-4, 0, 0]
				},
				"vine_left5": {
					"position": [-4, 0, 0]
				},
				"vine_left6": {
					"position": [-4, 0, 0]
				},
				"vine_left7": {
					"position": [-4, 0, 0]
				},
				"vine_left_end": {
					"position": [-3, 0, 0]
				},
				"vine_right": {
					"rotation": [0, 0, 90],
					"position": [1, 0, 0]
				},
				"vine_right2": {
					"position": [4, 0, 0]
				},
				"vine_right3": {
					"position": [4, 0, 0]
				},
				"vine_right4": {
					"position": [4, 0, 0]
				},
				"vine_right5": {
					"position": [4, 0, 0]
				},
				"vine_right6": {
					"position": [4, 0, 0]
				},
				"vine_right7": {
					"position": [4, 0, 0]
				},
				"vine_right_end": {
					"position": [3, 0, 0]
				},
				"torso_bottom": {
					"rotation": ["0.0102+Math.cos((query.anim_time-0.3) * 90 * 2) * 2", 7.49841, 0.15476],
					"position": [0, "Math.cos((query.anim_time) * 90 * 2) * 0.2", 0]
				},
				"torso_top": {
					"rotation": ["Math.cos((query.anim_time-0.4) * 90 * 2) * 1", 0, 0]
				},
				"torso_top2": {
					"rotation": ["Math.cos((query.anim_time-0.6) * 90 * 2) * -2.9751", -1.29919, -2.13616]
				},
				"torso_top3": {
					"rotation": [0, 0, -5]
				}
			}
		},
		"animation.servine.ground_walk": {
			"loop": true,
			"animation_length": 1,
			"bones": {
				"torso_bottom": {
					"rotation": ["Math.cos((query.anim_time-0.3) * 90 * 4*2) * 2", 0, "Math.cos((query.anim_time-0.5) * 90 * 4) * 2"],
					"position": [0, "-0.5+Math.cos((query.anim_time) * 90 * 4*2) * 0.3", 0]
				},
				"torso_top": {
					"rotation": ["Math.cos((query.anim_time-0.4) * 90 * 4*2) * 2", 0, 0]
				},
				"torso_top2": {
					"rotation": ["Math.cos((query.anim_time-0.55) * 90 * 4*2) * 3", 0, 0]
				},
				"arm_left": {
					"rotation": ["84.0776+Math.cos((query.anim_time) * 90 * 4) * 20", -57.63879, 86.82195]
				},
				"arm_right": {
					"rotation": ["84.0776+Math.cos((query.anim_time) * 90 * 4) * -20", 57.63879, -86.82195]
				},
				"neck_leaf_right2": {
					"rotation": [0, 7.5, 0]
				},
				"neck_leaf_right3": {
					"rotation": [0, -32.5, 0]
				},
				"neck": {
					"rotation": ["Math.cos((query.anim_time-0.6) * 90 * 4*2) * -2", 0, 0]
				},
				"vine_left": {
					"rotation": [0, 0, -90]
				},
				"vine_left2": {
					"rotation": [0, 0, -180]
				},
				"vine_left3": {
					"rotation": [0, 0, -180]
				},
				"vine_left4": {
					"rotation": [0, 0, -180]
				},
				"vine_left5": {
					"rotation": [0, 0, -180]
				},
				"vine_left6": {
					"rotation": [0, 0, -180]
				},
				"vine_left7": {
					"rotation": [0, 0, -180]
				},
				"vine_left_end": {
					"rotation": [0, 0, -180]
				},
				"vine_right": {
					"rotation": [0, 0, 90]
				},
				"vine_right2": {
					"rotation": [0, 0, 180]
				},
				"vine_right3": {
					"rotation": [0, 0, 180]
				},
				"vine_right4": {
					"rotation": [0, 0, 180]
				},
				"vine_right5": {
					"rotation": [0, 0, 180]
				},
				"vine_right6": {
					"rotation": [0, 0, 180]
				},
				"vine_right7": {
					"rotation": [0, 0, 180]
				},
				"vine_right_end": {
					"rotation": [0, 0, 180]
				},
				"head_rotation": {
					"rotation": ["Math.cos((query.anim_time-0.6) * 90 * 4*2) * 4", 0, 0]
				},
				"tail": {
					"rotation": ["Math.cos((query.anim_time-0.2) * 90 * 4*2) * -4", 0, 0]
				},
				"tail2": {
					"rotation": ["17.5+Math.cos((query.anim_time-0.3) * 90 * 4*2) * -3", 0, 0]
				},
				"tail_leaves": {
					"rotation": ["17.5+Math.cos((query.anim_time-0.4) * 90 * 4*2) * -3", 0, 0]
				},
				"tail_leaf_middle2": {
					"rotation": [12.5, 0, 0]
				},
				"tail_leaf_left2": {
					"rotation": [12.5, 0, 0]
				},
				"tail_leaf_right2": {
					"rotation": [12.5, 0, 0]
				},
				"leg_left": {
					"rotation": {
						"0.0": [-52.5, 0, 0],
						"0.0833": [-47.14, 0, 0],
						"0.2917": [-7.5, 0, 0],
						"0.4583": [14.64, 0, 0],
						"0.5833": [22.5, 0, 0],
						"0.6667": [14.64, 0, 0],
						"0.7917": [-8, 0, 0],
						"0.875": [-45, 0, 0],
						"1.0": [-52.5, 0, 0]
					}
				},
				"leg_left2": {
					"rotation": {
						"0.0": [20, 0, 0],
						"0.125": [2.86, 0, 0],
						"0.2917": [-2.5, 0, 0],
						"0.5833": [7.5, 0, 0],
						"0.7083": [41.5, 0, 0],
						"0.7917": [47.5, 0, 0],
						"0.875": [44, 0, 0],
						"1.0": [20, 0, 0]
					}
				},
				"leg_right": {
					"rotation": {
						"0.0": [17.26, 0, 0],
						"0.0833": [22.5, 0, 0],
						"0.1667": [14.64, 0, 0],
						"0.2917": [-8, 0, 0],
						"0.375": [-45, 0, 0],
						"0.5": [-52.5, 0, 0],
						"0.5833": [-47.14, 0, 0],
						"0.7917": [-7.5, 0, 0],
						"0.9583": [14.64, 0, 0],
						"1.0": [17.26, 0, 0]
					}
				},
				"foot_left": {
					"rotation": {
						"0.0": [12.5, 0, 0],
						"0.4167": [-5, 0, 0],
						"0.7917": [12.5, 0, 0],
						"1.0": [12.5, 0, 0]
					}
				},
				"leg_right2": {
					"rotation": {
						"0.0": [4.64, 0, 0],
						"0.0833": [7.5, 0, 0],
						"0.2083": [41.5, 0, 0],
						"0.2917": [47.5, 0, 0],
						"0.375": [44, 0, 0],
						"0.5": [20, 0, 0],
						"0.625": [2.86, 0, 0],
						"0.7917": [-2.5, 0, 0],
						"1.0": [4.64, 0, 0]
					}
				},
				"foot_right": {
					"rotation": {
						"0.0": [-1.11, 0, 0],
						"0.2917": [12.5, 0, 0],
						"0.5": [12.5, 0, 0],
						"0.9167": [-5, 0, 0],
						"1.0": [-1.11, 0, 0]
					}
				}
			}
		},
		"animation.servine.sleep": {
			"loop": true,
			"bones": {
				"body": {
					"position": [0, -5, 0]
				},
				"torso_top2": {
					"rotation": ["-25+Math.cos((query.anim_time) * 90 * 1) * 2", 0, 0]
				},
				"arm_left": {
					"rotation": [90, -55, 105]
				},
				"arm_right": {
					"rotation": [90, 55, -105]
				},
				"torso_top3": {
					"rotation": ["Math.cos((query.anim_time-0.2) * 90 * 1) * -3", -10, 0]
				},
				"neck": {
					"rotation": [50.98084, -11.43563, -9.77243],
					"position": [0, 0, 2]
				},
				"vine_left": {
					"rotation": [0, -30, -90]
				},
				"vine_left2": {
					"rotation": [0, 0, 180]
				},
				"vine_left3": {
					"rotation": [0, 0, -180]
				},
				"vine_left4": {
					"rotation": [0, 0, 180]
				},
				"vine_left5": {
					"rotation": [0, 0, -180]
				},
				"vine_left6": {
					"rotation": [0, 0, 180]
				},
				"vine_left7": {
					"rotation": [0, 0, -180]
				},
				"vine_left_end": {
					"rotation": [0, 0, 180]
				},
				"vine_right": {
					"rotation": [0, 30, 90]
				},
				"vine_right2": {
					"rotation": [0, 0, -180]
				},
				"vine_right3": {
					"rotation": [0, 0, 180]
				},
				"vine_right4": {
					"rotation": [0, 0, -180]
				},
				"vine_right5": {
					"rotation": [0, 0, 180]
				},
				"vine_right6": {
					"rotation": [0, 0, -180]
				},
				"vine_right7": {
					"rotation": [0, 0, 180]
				},
				"vine_right_end": {
					"rotation": [0, 0, -180]
				},
				"head_rotation": {
					"rotation": [16.33844, 8.64738, -15.27269]
				},
				"eyelid_left": {
					"position": [0.1, 0, 0]
				},
				"eyelid_right": {
					"position": [-0.1, 0, 0]
				},
				"tail": {
					"rotation": [-15, "65+Math.cos((query.anim_time) * 90 * 1) * 2", 0]
				},
				"tail2": {
					"rotation": [-30, 70, 0]
				},
				"tail_leaves": {
					"rotation": [-2.51152, -0.54094, 2.44081]
				},
				"tail_leaf_middle2": {
					"rotation": [20, 0, 0]
				},
				"tail_leaf_left2": {
					"rotation": [20, 0, 0]
				},
				"tail_leaf_right2": {
					"rotation": [20, 0, 0]
				},
				"leg_left": {
					"rotation": [-100.12407, -27.72304, 13.63244],
					"position": [0, 1, 0]
				},
				"leg_right": {
					"rotation": [-100.12407, 27.72304, -13.63244],
					"position": [0, 1, 0]
				}
			}
		},
		"animation.servine.blink": {
			"animation_length": 0.125,
			"bones": {
				"eyelid_left": {
					"position": {
						"0.0": [0.1, 0, 0],
						"0.0833": [0, 0, 0]
					}
				},
				"eyelid_right": {
					"position": {
						"0.0": [-0.1, 0, 0],
						"0.0833": [0, 0, 0]
					}
				}
			}
		}
	}
}