{
	"credit": "Eiko",
	"textures": {
		"particle": "block/quartz_pillar",
		"slats": "block/quartz_pillar",
		"frame": "block/quartz_block_side"
	},
	"elements": [
		{
			"from": [0, 6, -5.3],
			"to": [2, 8, 10.7],
			"rotation": {"angle": 0, "axis": "y", "origin": [0, 0, -5.3]},
			"faces": {
				"north": {"uv": [14, 4, 16, 6], "texture": "#frame"},
				"east": {"uv": [0, 5, 16, 7], "texture": "#frame"},
				"south": {"uv": [7, 8, 9, 10], "texture": "#frame"},
				"west": {"uv": [0, 9, 16, 11], "texture": "#frame"},
				"up": {"uv": [0, 7, 16, 9], "rotation": 90, "texture": "#frame"},
				"down": {"uv": [0, 11, 16, 13], "rotation": 90, "texture": "#frame"}
			}
		},
		{
			"from": [10.5, 6.5, -3.3],
			"to": [13.5, 7.5, 8.7],
			"rotation": {"angle": 0, "axis": "y", "origin": [0, 0, -5.3]},
			"faces": {
				"north": {"uv": [9, 12, 12, 13], "texture": "#slats"},
				"east": {"uv": [4, 1, 5, 13], "rotation": 90, "texture": "#slats"},
				"south": {"uv": [4, 1, 7, 2], "texture": "#slats"},
				"west": {"uv": [8, 1, 9, 13], "rotation": 90, "texture": "#slats"},
				"up": {"uv": [5, 1, 8, 13], "texture": "#slats"},
				"down": {"uv": [9, 1, 12, 13], "texture": "#slats"}
			}
		},
		{
			"from": [6.5, 6.5, -3.3],
			"to": [9.5, 7.5, 8.7],
			"rotation": {"angle": 0, "axis": "y", "origin": [0, 0, -5.3]},
			"faces": {
				"north": {"uv": [9, 12, 12, 13], "texture": "#slats"},
				"east": {"uv": [4, 1, 5, 13], "rotation": 90, "texture": "#slats"},
				"south": {"uv": [4, 1, 7, 2], "texture": "#slats"},
				"west": {"uv": [8, 1, 9, 13], "rotation": 90, "texture": "#slats"},
				"up": {"uv": [5, 1, 8, 13], "texture": "#slats"},
				"down": {"uv": [9, 1, 12, 13], "texture": "#slats"}
			}
		},
		{
			"from": [2.5, 6.5, -3.3],
			"to": [5.5, 7.5, 8.7],
			"rotation": {"angle": 0, "axis": "y", "origin": [0, 0, -5.3]},
			"faces": {
				"north": {"uv": [9, 12, 12, 13], "texture": "#slats"},
				"east": {"uv": [4, 1, 5, 13], "rotation": 90, "texture": "#slats"},
				"south": {"uv": [4, 1, 7, 2], "texture": "#slats"},
				"west": {"uv": [8, 1, 9, 13], "rotation": 90, "texture": "#slats"},
				"up": {"uv": [5, 1, 8, 13], "texture": "#slats"},
				"down": {"uv": [9, 1, 12, 13], "texture": "#slats"}
			}
		},
		{
			"from": [2, 6, -5.3],
			"to": [14, 8, -3.3],
			"rotation": {"angle": 0, "axis": "y", "origin": [0, 0, -5.3]},
			"faces": {
				"north": {"uv": [2, 4, 14, 6], "texture": "#frame"},
				"east": {"uv": [12, 10, 14, 12], "texture": "#frame"},
				"south": {"uv": [2, 8, 14, 10], "texture": "#frame"},
				"west": {"uv": [2, 4, 4, 6], "texture": "#frame"},
				"up": {"uv": [2, 6, 14, 8], "texture": "#frame"},
				"down": {"uv": [2, 10, 14, 12], "texture": "#frame"}
			}
		},
		{
			"from": [2, 6, 8.7],
			"to": [14, 8, 10.7],
			"rotation": {"angle": 0, "axis": "y", "origin": [0, 0, 8.7]},
			"faces": {
				"north": {"uv": [2, 4, 14, 6], "texture": "#frame"},
				"east": {"uv": [12, 10, 14, 12], "texture": "#frame"},
				"south": {"uv": [2, 8, 14, 10], "texture": "#frame"},
				"west": {"uv": [2, 4, 4, 6], "texture": "#frame"},
				"up": {"uv": [2, 6, 14, 8], "texture": "#frame"},
				"down": {"uv": [2, 10, 14, 12], "texture": "#frame"}
			}
		},
		{
			"from": [14, 6, -5.3],
			"to": [16, 8, 10.7],
			"rotation": {"angle": 0, "axis": "y", "origin": [0, 0, -5.3]},
			"faces": {
				"north": {"uv": [0, 4, 2, 6], "texture": "#frame"},
				"east": {"uv": [0, 5, 16, 7], "texture": "#frame"},
				"south": {"uv": [7, 8, 9, 10], "texture": "#frame"},
				"west": {"uv": [0, 9, 16, 11], "texture": "#frame"},
				"up": {"uv": [0, 7, 16, 9], "rotation": 90, "texture": "#frame"},
				"down": {"uv": [0, 11, 16, 13], "rotation": 90, "texture": "#frame"}
			}
		},
		{
			"from": [0, 8, -6.3],
			"to": [2, 24, -4.3],
			"rotation": {"angle": -45, "axis": "x", "origin": [8, 8, -4.3]},
			"faces": {
				"north": {"uv": [0, 11, 16, 13], "rotation": 270, "texture": "#frame"},
				"east": {"uv": [0, 5, 16, 7], "rotation": 270, "texture": "#frame"},
				"south": {"uv": [0, 7, 16, 9], "rotation": 90, "texture": "#frame"},
				"west": {"uv": [0, 9, 16, 11], "rotation": 90, "texture": "#frame"},
				"up": {"uv": [14, 4, 16, 6], "rotation": 180, "texture": "#frame"},
				"down": {"uv": [7, 8, 9, 10], "texture": "#frame"}
			}
		},
		{
			"from": [10.5, 10, -5.8],
			"to": [13.5, 22, -4.8],
			"rotation": {"angle": -45, "axis": "x", "origin": [8, 8, -4.3]},
			"faces": {
				"north": {"uv": [9, 1, 12, 13], "rotation": 180, "texture": "#slats"},
				"east": {"uv": [4, 1, 5, 13], "texture": "#slats"},
				"south": {"uv": [5, 1, 8, 13], "texture": "#slats"},
				"west": {"uv": [8, 1, 9, 13], "rotation": 180, "texture": "#slats"},
				"up": {"uv": [9, 12, 12, 13], "rotation": 180, "texture": "#slats"},
				"down": {"uv": [4, 1, 7, 2], "texture": "#slats"}
			}
		},
		{
			"from": [6.5, 10, -5.8],
			"to": [9.5, 22, -4.8],
			"rotation": {"angle": -45, "axis": "x", "origin": [8, 8, -4.3]},
			"faces": {
				"north": {"uv": [9, 1, 12, 13], "rotation": 180, "texture": "#slats"},
				"east": {"uv": [4, 1, 5, 13], "texture": "#slats"},
				"south": {"uv": [5, 1, 8, 13], "texture": "#slats"},
				"west": {"uv": [8, 1, 9, 13], "rotation": 180, "texture": "#slats"},
				"up": {"uv": [9, 12, 12, 13], "rotation": 180, "texture": "#slats"},
				"down": {"uv": [4, 1, 7, 2], "texture": "#slats"}
			}
		},
		{
			"from": [2.5, 10, -5.8],
			"to": [5.5, 22, -4.8],
			"rotation": {"angle": -45, "axis": "x", "origin": [8, 8, -4.3]},
			"faces": {
				"north": {"uv": [9, 1, 12, 13], "rotation": 180, "texture": "#slats"},
				"east": {"uv": [4, 1, 5, 13], "texture": "#slats"},
				"south": {"uv": [5, 1, 8, 13], "texture": "#slats"},
				"west": {"uv": [8, 1, 9, 13], "rotation": 180, "texture": "#slats"},
				"up": {"uv": [9, 12, 12, 13], "rotation": 180, "texture": "#slats"},
				"down": {"uv": [4, 1, 7, 2], "texture": "#slats"}
			}
		},
		{
			"from": [2, 22, -6.3],
			"to": [14, 24, -4.3],
			"rotation": {"angle": -45, "axis": "x", "origin": [8, 8, -4.3]},
			"faces": {
				"north": {"uv": [2, 10, 14, 12], "rotation": 180, "texture": "#frame"},
				"east": {"uv": [12, 10, 14, 12], "rotation": 270, "texture": "#frame"},
				"south": {"uv": [2, 6, 14, 8], "texture": "#frame"},
				"west": {"uv": [2, 4, 4, 6], "rotation": 90, "texture": "#frame"},
				"up": {"uv": [2, 4, 14, 6], "rotation": 180, "texture": "#frame"},
				"down": {"uv": [2, 8, 14, 10], "texture": "#frame"}
			}
		},
		{
			"from": [2, 8, -6.3],
			"to": [14, 10, -4.3],
			"rotation": {"angle": -45, "axis": "x", "origin": [8, 8, -4.3]},
			"faces": {
				"north": {"uv": [2, 10, 14, 12], "rotation": 180, "texture": "#frame"},
				"east": {"uv": [12, 10, 14, 12], "rotation": 270, "texture": "#frame"},
				"south": {"uv": [2, 6, 14, 8], "texture": "#frame"},
				"west": {"uv": [2, 4, 4, 6], "rotation": 90, "texture": "#frame"},
				"up": {"uv": [2, 4, 14, 6], "rotation": 180, "texture": "#frame"},
				"down": {"uv": [2, 8, 14, 10], "texture": "#frame"}
			}
		},
		{
			"from": [14, 8, -6.3],
			"to": [16, 24, -4.3],
			"rotation": {"angle": -45, "axis": "x", "origin": [8, 8, -4.3]},
			"faces": {
				"north": {"uv": [0, 11, 16, 13], "rotation": 270, "texture": "#frame"},
				"east": {"uv": [0, 5, 16, 7], "rotation": 270, "texture": "#frame"},
				"south": {"uv": [0, 7, 16, 9], "rotation": 90, "texture": "#frame"},
				"west": {"uv": [0, 9, 16, 11], "rotation": 90, "texture": "#frame"},
				"up": {"uv": [14, 4, 16, 6], "rotation": 180, "texture": "#frame"},
				"down": {"uv": [7, 8, 9, 10], "texture": "#frame"}
			}
		},
		{
			"from": [14, 6, 9.7],
			"to": [16, 8, 18.7],
			"rotation": {"angle": 45, "axis": "x", "origin": [8, 6, 9.7]},
			"faces": {
				"north": {"uv": [14, 5, 16, 7], "rotation": 180, "texture": "#frame"},
				"east": {"uv": [0, 5, 9, 7], "texture": "#frame"},
				"south": {"uv": [0, 5, 2, 7], "texture": "#frame"},
				"west": {"uv": [0, 9, 9, 11], "texture": "#frame"},
				"up": {"uv": [0, 7, 9, 9], "rotation": 90, "texture": "#frame"},
				"down": {"uv": [0, 11, 9, 13], "rotation": 90, "texture": "#frame"}
			}
		},
		{
			"from": [0, 6, 9.7],
			"to": [2, 8, 18.7],
			"rotation": {"angle": 45, "axis": "x", "origin": [8, 6, 9.7]},
			"faces": {
				"north": {"uv": [14, 5, 16, 7], "texture": "#frame"},
				"east": {"uv": [0, 5, 9, 7], "texture": "#frame"},
				"south": {"uv": [0, 5, 2, 7], "texture": "#frame"},
				"west": {"uv": [0, 9, 9, 11], "texture": "#frame"},
				"up": {"uv": [0, 7, 9, 9], "rotation": 90, "texture": "#frame"},
				"down": {"uv": [0, 11, 9, 13], "rotation": 90, "texture": "#frame"}
			}
		},
		{
			"from": [10.5, 6.5, 11.7],
			"to": [13.5, 7.5, 15.7],
			"rotation": {"angle": 45, "axis": "x", "origin": [8, 6, 9.7]},
			"faces": {
				"north": {"uv": [9, 7, 12, 8], "texture": "#slats"},
				"east": {"uv": [4, 1, 5, 5], "rotation": 90, "texture": "#slats"},
				"south": {"uv": [4, 1, 7, 2], "texture": "#slats"},
				"west": {"uv": [8, 1, 9, 5], "rotation": 90, "texture": "#slats"},
				"up": {"uv": [5, 1, 8, 5], "texture": "#slats"},
				"down": {"uv": [9, 1, 12, 5], "texture": "#slats"}
			}
		},
		{
			"from": [6.5, 6.5, 11.7],
			"to": [9.5, 7.5, 15.7],
			"rotation": {"angle": 45, "axis": "x", "origin": [8, 6, 9.7]},
			"faces": {
				"north": {"uv": [9, 7, 12, 8], "texture": "#slats"},
				"east": {"uv": [4, 1, 5, 5], "rotation": 90, "texture": "#slats"},
				"south": {"uv": [4, 1, 7, 2], "texture": "#slats"},
				"west": {"uv": [8, 1, 9, 5], "rotation": 90, "texture": "#slats"},
				"up": {"uv": [5, 1, 8, 5], "texture": "#slats"},
				"down": {"uv": [9, 1, 12, 5], "texture": "#slats"}
			}
		},
		{
			"from": [2.5, 6.5, 11.7],
			"to": [5.5, 7.5, 15.7],
			"rotation": {"angle": 45, "axis": "x", "origin": [8, 6, 9.7]},
			"faces": {
				"north": {"uv": [9, 7, 12, 8], "texture": "#slats"},
				"east": {"uv": [4, 1, 5, 5], "rotation": 90, "texture": "#slats"},
				"south": {"uv": [4, 1, 7, 2], "texture": "#slats"},
				"west": {"uv": [8, 1, 9, 5], "rotation": 90, "texture": "#slats"},
				"up": {"uv": [5, 1, 8, 5], "texture": "#slats"},
				"down": {"uv": [9, 1, 12, 5], "texture": "#slats"}
			}
		},
		{
			"from": [2, 6, 9.7],
			"to": [14, 8, 11.7],
			"rotation": {"angle": 45, "axis": "x", "origin": [8, 6, 9.7]},
			"faces": {
				"north": {"uv": [2, 4, 14, 6], "texture": "#frame"},
				"east": {"uv": [12, 10, 14, 12], "texture": "#frame"},
				"south": {"uv": [2, 8, 14, 10], "texture": "#frame"},
				"west": {"uv": [2, 4, 4, 6], "texture": "#frame"},
				"up": {"uv": [2, 6, 14, 8], "texture": "#frame"},
				"down": {"uv": [2, 10, 14, 12], "texture": "#frame"}
			}
		},
		{
			"from": [2, 6, 14.7],
			"to": [14, 8, 16.7],
			"rotation": {"angle": 45, "axis": "x", "origin": [8, 6, 9.7]},
			"faces": {
				"north": {"uv": [2, 4, 14, 6], "texture": "#frame"},
				"east": {"uv": [12, 10, 14, 12], "texture": "#frame"},
				"south": {"uv": [2, 8, 14, 10], "texture": "#frame"},
				"west": {"uv": [2, 4, 4, 6], "texture": "#frame"},
				"up": {"uv": [2, 6, 14, 8], "texture": "#frame"},
				"down": {"uv": [2, 10, 14, 12], "texture": "#frame"}
			}
		},
		{
			"from": [0, -3, -6.3],
			"to": [2, 6, -4.3],
			"rotation": {"angle": 45, "axis": "x", "origin": [8, 6, -4.3]},
			"faces": {
				"north": {"uv": [7, 7, 16, 9], "rotation": 90, "texture": "#frame"},
				"east": {"uv": [7, 9, 16, 11], "rotation": 90, "texture": "#frame"},
				"south": {"uv": [7, 11, 16, 13], "rotation": 90, "texture": "#frame"},
				"west": {"uv": [7, 5, 16, 7], "rotation": 90, "texture": "#frame"},
				"up": {"uv": [0, 5, 2, 7], "texture": "#frame"},
				"down": {"uv": [14, 5, 16, 7], "rotation": 180, "texture": "#frame"}
			}
		},
		{
			"from": [14, -3, -6.3],
			"to": [16, 6, -4.3],
			"rotation": {"angle": 45, "axis": "x", "origin": [8, 6, -4.3]},
			"faces": {
				"north": {"uv": [7, 7, 16, 9], "rotation": 90, "texture": "#frame"},
				"east": {"uv": [7, 9, 16, 11], "rotation": 90, "texture": "#frame"},
				"south": {"uv": [7, 11, 16, 13], "rotation": 90, "texture": "#frame"},
				"west": {"uv": [7, 5, 16, 7], "rotation": 270, "texture": "#frame"},
				"up": {"uv": [14, 5, 16, 7], "texture": "#frame"},
				"down": {"uv": [0, 5, 2, 7], "rotation": 180, "texture": "#frame"}
			}
		},
		{
			"from": [2, 4, -6.3],
			"to": [14, 6, -4.3],
			"rotation": {"angle": 45, "axis": "x", "origin": [8, 6, -4.3]},
			"faces": {
				"north": {"uv": [2, 6, 14, 8], "texture": "#frame"},
				"east": {"uv": [2, 4, 4, 6], "rotation": 90, "texture": "#frame"},
				"south": {"uv": [2, 10, 14, 12], "rotation": 180, "texture": "#frame"},
				"west": {"uv": [12, 10, 14, 12], "rotation": 270, "texture": "#frame"},
				"up": {"uv": [2, 4, 14, 6], "texture": "#frame"},
				"down": {"uv": [2, 8, 14, 10], "rotation": 180, "texture": "#frame"}
			}
		},
		{
			"from": [2, -3, -6.3],
			"to": [14, -1, -4.3],
			"rotation": {"angle": 45, "axis": "x", "origin": [8, 6, -4.3]},
			"faces": {
				"north": {"uv": [2, 6, 14, 8], "texture": "#frame"},
				"east": {"uv": [2, 4, 4, 6], "rotation": 90, "texture": "#frame"},
				"south": {"uv": [2, 10, 14, 12], "rotation": 180, "texture": "#frame"},
				"west": {"uv": [12, 10, 14, 12], "rotation": 270, "texture": "#frame"},
				"up": {"uv": [2, 4, 14, 6], "texture": "#frame"},
				"down": {"uv": [2, 8, 14, 10], "rotation": 180, "texture": "#frame"}
			}
		}
	],
	"groups": [
		{
			"name": "Seat",
			"origin": [0, 0, 0],
			"color": 0,
			"children": [0, 1, 2, 3, 4, 5, 6]
		},
		{
			"name": "Backrest",
			"origin": [0, 0, 0],
			"color": 0,
			"children": [7, 8, 9, 10, 11, 12, 13]
		},
		{
			"name": "Footrest",
			"origin": [0, 0, 0],
			"color": 0,
			"children": [14, 15, 16, 17, 18, 19, 20]
		},
		{
			"name": "Leg",
			"origin": [0, 0, 0],
			"color": 0,
			"children": [21, 22, 23, 24]
		}
	]
}