{
	"format_version": "1.12.0",
	"minecraft:geometry": [
		{
			"description": {
				"identifier": "geometry.xerneas_active",
				"texture_width": 256,
				"texture_height": 128,
				"visible_bounds_width": 6,
				"visible_bounds_height": 6.5,
				"visible_bounds_offset": [0, 2.75, 0]
			},
			"bones": [
				{
					"name": "xerneas",
					"pivot": [0, 0, 0]
				},
				{
					"name": "body",
					"parent": "xerneas",
					"pivot": [1, 31.5, -3]
				},
				{
					"name": "torso",
					"parent": "body",
					"pivot": [0.5, 31.45, 8.25],
					"cubes": [
						{"origin": [-3, 27.75, -1], "size": [6, 7, 13], "uv": [0, 34]},
						{"origin": [-4, 27, -13], "size": [8, 8, 12], "uv": [24, 14]}
					]
				},
				{
					"name": "tail",
					"parent": "torso",
					"pivot": [0, 34.25, 11.5],
					"cubes": [
						{"origin": [0, 24.75, 11], "size": [0, 10, 20], "uv": [0, 83]}
					]
				},
				{
					"name": "chest_left",
					"parent": "torso",
					"pivot": [0.62605, 30.45228, -13],
					"rotation": [0, 17.5, -10],
					"cubes": [
						{"origin": [0.6, 28.1, -13], "size": [5, 6, 2], "uv": [72, 70]}
					]
				},
				{
					"name": "chest_left2",
					"parent": "chest_left",
					"pivot": [5.62605, 28.20228, -11.5],
					"rotation": [0, 7.5, -25],
					"cubes": [
						{"origin": [5.6, 28.35, -12.5], "size": [4, 5, 1], "uv": [52, 34]}
					]
				},
				{
					"name": "chest_left3",
					"parent": "chest_left2",
					"pivot": [9.62605, 28.45228, -12],
					"rotation": [0, 7.5, -25],
					"cubes": [
						{"origin": [9.6, 28.6, -12], "size": [6, 4, 0], "uv": [86, 74]}
					]
				},
				{
					"name": "chest_right",
					"parent": "torso",
					"pivot": [-0.62605, 30.45228, -13],
					"rotation": [0, -17.5, 10],
					"cubes": [
						{"origin": [-5.6, 28.1, -13], "size": [5, 6, 2], "uv": [52, 18]}
					]
				},
				{
					"name": "chest_right2",
					"parent": "chest_right",
					"pivot": [-5.62605, 28.20228, -11.5],
					"rotation": [0, -7.5, 25],
					"cubes": [
						{"origin": [-9.6, 28.35, -12.5], "size": [4, 5, 1], "uv": [33, 34]}
					]
				},
				{
					"name": "chest_right3",
					"parent": "chest_right2",
					"pivot": [-9.62605, 28.45228, -12],
					"rotation": [0, -7.5, 25],
					"cubes": [
						{"origin": [-15.6, 28.6, -12], "size": [6, 4, 0], "uv": [74, 66]}
					]
				},
				{
					"name": "neck",
					"parent": "torso",
					"pivot": [0, 33.65, -12.25],
					"cubes": [
						{"origin": [-2, 33.15, -13.25], "size": [4, 16, 4], "uv": [34, 52]}
					]
				},
				{
					"name": "head",
					"parent": "neck",
					"pivot": [0, 46.9, -11.75],
					"cubes": [
						{"origin": [-3, 46.5, -17.75], "size": [6, 6, 10], "uv": [0, 0]},
						{"origin": [2, 51.25, -17.75], "size": [0, 3, 2], "pivot": [2, 51.25, -16.75], "rotation": [40, 0, 0], "uv": [20, 24]},
						{"origin": [-2, 51.25, -17.75], "size": [0, 3, 2], "pivot": [-2, 51.25, -16.75], "rotation": [40, 0, 0], "uv": [8, 24]},
						{"origin": [-2, 47.75, -21.75], "size": [4, 3, 4], "uv": [8, 26]}
					]
				},
				{
					"name": "antlers_left",
					"parent": "head",
					"pivot": [0, 49.65, -14.05]
				},
				{
					"name": "antler_left",
					"parent": "antlers_left",
					"pivot": [2.25, 53.5, -14.3],
					"rotation": [0, 0, 20],
					"cubes": [
						{"origin": [1.75, 52, -14.3], "size": [2, 6, 2], "inflate": 0.004, "uv": [32, 88]}
					]
				},
				{
					"name": "antler_left2",
					"parent": "antler_left",
					"pivot": [1.75, 58, -13.3],
					"rotation": [0, 0, 37.5],
					"cubes": [
						{"origin": [1.75, 58, -14.3], "size": [2, 8, 2], "inflate": 0.003, "uv": [86, 22]},
						{"origin": [0.25, 58.5, -13.3], "size": [2, 7, 0], "uv": [96, 0]}
					]
				},
				{
					"name": "antler_left3",
					"parent": "antler_left2",
					"pivot": [1.75, 66, -13.3],
					"rotation": [0, 0, 27.5],
					"cubes": [
						{"origin": [1.75, 66, -14.3], "size": [2, 10, 2], "inflate": 0.002, "uv": [80, 0]},
						{"origin": [3.25, 66.5, -13.3], "size": [2, 9, 0], "uv": [92, 8]}
					]
				},
				{
					"name": "antler_left4",
					"parent": "antler_left3",
					"pivot": [3.75, 76, -13.3],
					"rotation": [0, 0, -22.5],
					"cubes": [
						{"origin": [1.75, 76, -14.3], "size": [2, 14, 2], "inflate": 0.001, "uv": [64, 72]}
					]
				},
				{
					"name": "light8",
					"parent": "antler_left4",
					"pivot": [1.75, 78, -13.3],
					"rotation": [0, 0, -35],
					"cubes": [
						{"origin": [1.75, 78, -13.3], "size": [2, 5, 0], "uv": [38, 123]},
						{"origin": [1.75, 83, -13.3], "size": [1, 6, 0], "pivot": [1.75, 83, -13.3], "rotation": [0, 0, 22.5], "uv": [39, 117]}
					]
				},
				{
					"name": "antler_left5",
					"parent": "antler_left4",
					"pivot": [3.75, 86, -13.3],
					"rotation": [0, 0, -17.5]
				},
				{
					"name": "antler_left6",
					"parent": "antlers_left",
					"pivot": [2.25, 53.5, -12.8],
					"rotation": [-3.45118, -9.39129, 20.28356],
					"cubes": [
						{"origin": [1.75, 52, -12.8], "size": [2, 6, 2], "inflate": 0.004, "uv": [24, 88]}
					]
				},
				{
					"name": "antler_left7",
					"parent": "antler_left6",
					"pivot": [1.75, 58, -11.8],
					"rotation": [0, 0, 37.5],
					"cubes": [
						{"origin": [1.75, 58, -12.8], "size": [2, 8, 2], "inflate": 0.003, "uv": [8, 86]},
						{"origin": [0.25, 58.5, -11.8], "size": [2, 7, 0], "uv": [0, 96]}
					]
				},
				{
					"name": "antler_left8",
					"parent": "antler_left7",
					"pivot": [1.75, 66, -11.8],
					"rotation": [0, 0, 27.5],
					"cubes": [
						{"origin": [1.75, 66, -12.8], "size": [2, 10, 2], "inflate": 0.002, "uv": [24, 76]},
						{"origin": [3.25, 66.5, -11.8], "size": [2, 9, 0], "uv": [73, 90]}
					]
				},
				{
					"name": "antler_left9",
					"parent": "antler_left8",
					"pivot": [3.75, 76, -11.8],
					"rotation": [0, 0, -22.5],
					"cubes": [
						{"origin": [1.75, 76, -12.8], "size": [2, 14, 2], "inflate": 0.001, "uv": [42, 72]}
					]
				},
				{
					"name": "light7",
					"parent": "antler_left9",
					"pivot": [1.75, 78, -11.8],
					"rotation": [0, 0, -35],
					"cubes": [
						{"origin": [1.75, 78, -11.8], "size": [2, 5, 0], "uv": [48, 123]},
						{"origin": [1.75, 83, -11.8], "size": [1, 6, 0], "pivot": [1.75, 83, -11.8], "rotation": [0, 0, 22.5], "uv": [49, 117]}
					]
				},
				{
					"name": "antler_left10",
					"parent": "antler_left9",
					"pivot": [3.75, 86, -11.8],
					"rotation": [0, 0, -17.5]
				},
				{
					"name": "antler_left11",
					"parent": "antlers_left",
					"pivot": [1.98953, 53.5, -11.32279],
					"rotation": [-7.09597, -18.74724, 21.17283],
					"cubes": [
						{"origin": [1.48953, 52, -11.32279], "size": [2, 6, 2], "inflate": 0.004, "uv": [16, 88]}
					]
				},
				{
					"name": "antler_left12",
					"parent": "antler_left11",
					"pivot": [1.48953, 58, -10.32279],
					"rotation": [0, 0, 37.5],
					"cubes": [
						{"origin": [1.48953, 58, -11.32279], "size": [2, 8, 2], "inflate": 0.003, "uv": [0, 86]},
						{"origin": [-0.01047, 58.5, -10.32279], "size": [2, 7, 0], "uv": [84, 94]}
					]
				},
				{
					"name": "antler_left13",
					"parent": "antler_left12",
					"pivot": [1.48953, 66, -10.32279],
					"rotation": [0, 0, 27.5],
					"cubes": [
						{"origin": [1.48953, 66, -11.32279], "size": [2, 10, 2], "inflate": 0.002, "uv": [78, 28]},
						{"origin": [2.98953, 66.5, -10.32279], "size": [2, 9, 0], "uv": [69, 90]}
					]
				},
				{
					"name": "antler_left14",
					"parent": "antler_left13",
					"pivot": [3.48953, 76, -10.32279],
					"rotation": [0, 0, -22.5],
					"cubes": [
						{"origin": [1.48953, 76, -11.32279], "size": [2, 14, 2], "inflate": 0.001, "uv": [34, 72]}
					]
				},
				{
					"name": "light6",
					"parent": "antler_left14",
					"pivot": [1.48953, 78, -10.32279],
					"rotation": [0, 0, -35],
					"cubes": [
						{"origin": [1.48953, 78, -10.32279], "size": [2, 5, 0], "uv": [58, 123]},
						{"origin": [1.48953, 83, -10.32279], "size": [1, 6, 0], "pivot": [1.48953, 83, -10.32279], "rotation": [0, 0, 22.5], "uv": [59, 117]}
					]
				},
				{
					"name": "antler_left15",
					"parent": "antler_left14",
					"pivot": [3.48953, 86, -10.32279],
					"rotation": [0, 0, -17.5]
				},
				{
					"name": "antler_left16",
					"parent": "antlers_left",
					"pivot": [1.4765, 53.5, -9.91325],
					"rotation": [-11.17023, -28.02432, 22.79588],
					"cubes": [
						{"origin": [0.9765, 52, -9.91325], "size": [2, 6, 2], "inflate": 0.004, "uv": [88, 0]}
					]
				},
				{
					"name": "antler_left17",
					"parent": "antler_left16",
					"pivot": [0.9765, 58, -8.91325],
					"rotation": [0, 0, 37.5],
					"cubes": [
						{"origin": [0.9765, 58, -9.91325], "size": [2, 8, 2], "inflate": 0.003, "uv": [84, 12]},
						{"origin": [-0.5235, 58.5, -8.91325], "size": [2, 7, 0], "uv": [94, 83]}
					]
				},
				{
					"name": "antler_left18",
					"parent": "antler_left17",
					"pivot": [0.9765, 66, -8.91325],
					"rotation": [0, 0, 27.5],
					"cubes": [
						{"origin": [0.9765, 66, -9.91325], "size": [2, 10, 2], "inflate": 0.002, "uv": [72, 78]},
						{"origin": [2.4765, 66.5, -8.91325], "size": [2, 9, 0], "uv": [90, 48]}
					]
				},
				{
					"name": "antler_left19",
					"parent": "antler_left18",
					"pivot": [2.9765, 76, -8.91325],
					"rotation": [0, 0, -22.5],
					"cubes": [
						{"origin": [0.9765, 76, -9.91325], "size": [2, 14, 2], "inflate": 0.001, "uv": [72, 0]}
					]
				},
				{
					"name": "light",
					"parent": "antler_left19",
					"pivot": [0.9765, 78, -8.91325],
					"rotation": [0, 0, -35],
					"cubes": [
						{"origin": [0.9765, 78, -8.91325], "size": [2, 5, 0], "uv": [68, 123]},
						{"origin": [0.9765, 83, -8.91325], "size": [1, 6, 0], "pivot": [0.9765, 83, -8.91325], "rotation": [0, 0, 22.5], "uv": [69, 117]}
					]
				},
				{
					"name": "antler_left20",
					"parent": "antler_left19",
					"pivot": [2.9765, 86, -8.91325],
					"rotation": [0, 0, -17.5]
				},
				{
					"name": "antlers_right",
					"parent": "head",
					"pivot": [0, 49.65, -14.05]
				},
				{
					"name": "antler_right",
					"parent": "antlers_right",
					"pivot": [-2.25, 53.5, -14.3],
					"rotation": [0, 0, -20],
					"cubes": [
						{"origin": [-3.75, 52, -14.3], "size": [2, 6, 2], "inflate": 0.004, "uv": [86, 86]}
					]
				},
				{
					"name": "antler_right2",
					"parent": "antler_right",
					"pivot": [-1.75, 58, -13.3],
					"rotation": [0, 0, -37.5],
					"cubes": [
						{"origin": [-3.75, 58, -14.3], "size": [2, 8, 2], "inflate": 0.003, "uv": [82, 50]},
						{"origin": [-2.25, 58.5, -13.3], "size": [2, 7, 0], "uv": [64, 94]}
					]
				},
				{
					"name": "antler_right3",
					"parent": "antler_right2",
					"pivot": [-1.75, 66, -13.3],
					"rotation": [0, 0, -27.5],
					"cubes": [
						{"origin": [-3.75, 66, -14.3], "size": [2, 10, 2], "inflate": 0.002, "uv": [76, 16]},
						{"origin": [-5.25, 66.5, -13.3], "size": [2, 9, 0], "uv": [48, 90]}
					]
				},
				{
					"name": "antler_right4",
					"parent": "antler_right3",
					"pivot": [-3.75, 76, -13.3],
					"rotation": [0, 0, 22.5],
					"cubes": [
						{"origin": [-3.75, 76, -14.3], "size": [2, 14, 2], "inflate": 0.001, "uv": [70, 34]}
					]
				},
				{
					"name": "light5",
					"parent": "antler_right4",
					"pivot": [-1.75, 78, -13.3],
					"rotation": [0, 0, 35],
					"cubes": [
						{"origin": [-3.75, 78, -13.3], "size": [2, 5, 0], "uv": [43, 123]},
						{"origin": [-2.75, 83, -13.3], "size": [1, 6, 0], "pivot": [-1.75, 83, -13.3], "rotation": [0, 0, -22.5], "uv": [44, 117]}
					]
				},
				{
					"name": "antler_right5",
					"parent": "antler_right4",
					"pivot": [-3.75, 86, -13.3],
					"rotation": [0, 0, 17.5]
				},
				{
					"name": "antler_right6",
					"parent": "antlers_right",
					"pivot": [-2.25, 53.5, -12.8],
					"rotation": [-3.45118, 9.39129, -20.28356],
					"cubes": [
						{"origin": [-3.75, 52, -12.8], "size": [2, 6, 2], "inflate": 0.004, "uv": [86, 66]}
					]
				},
				{
					"name": "antler_right7",
					"parent": "antler_right6",
					"pivot": [-1.75, 58, -11.8],
					"rotation": [0, 0, -37.5],
					"cubes": [
						{"origin": [-3.75, 58, -12.8], "size": [2, 8, 2], "inflate": 0.003, "uv": [80, 78]},
						{"origin": [-2.25, 58.5, -11.8], "size": [2, 7, 0], "uv": [94, 63]}
					]
				},
				{
					"name": "antler_right8",
					"parent": "antler_right7",
					"pivot": [-1.75, 66, -11.8],
					"rotation": [0, 0, -27.5],
					"cubes": [
						{"origin": [-3.75, 66, -12.8], "size": [2, 10, 2], "inflate": 0.002, "uv": [16, 76]},
						{"origin": [-5.25, 66.5, -11.8], "size": [2, 9, 0], "uv": [80, 88]}
					]
				},
				{
					"name": "antler_right9",
					"parent": "antler_right8",
					"pivot": [-3.75, 76, -11.8],
					"rotation": [0, 0, 22.5],
					"cubes": [
						{"origin": [-3.75, 76, -12.8], "size": [2, 14, 2], "inflate": 0.001, "uv": [8, 70]}
					]
				},
				{
					"name": "light4",
					"parent": "antler_right9",
					"pivot": [-1.75, 78, -11.8],
					"rotation": [0, 0, 35],
					"cubes": [
						{"origin": [-3.75, 78, -11.8], "size": [2, 5, 0], "uv": [53, 123]},
						{"origin": [-2.75, 83, -11.8], "size": [1, 6, 0], "pivot": [-1.75, 83, -11.8], "rotation": [0, 0, -22.5], "uv": [54, 117]}
					]
				},
				{
					"name": "antler_right10",
					"parent": "antler_right9",
					"pivot": [-3.75, 86, -11.8],
					"rotation": [0, 0, 17.5]
				},
				{
					"name": "antler_right11",
					"parent": "antlers_right",
					"pivot": [-1.98953, 53.5, -11.32279],
					"rotation": [-7.09597, 18.74724, -21.17283],
					"cubes": [
						{"origin": [-3.48953, 52, -11.32279], "size": [2, 6, 2], "inflate": 0.004, "uv": [86, 40]}
					]
				},
				{
					"name": "antler_right12",
					"parent": "antler_right11",
					"pivot": [-1.48953, 58, -10.32279],
					"rotation": [0, 0, -37.5],
					"cubes": [
						{"origin": [-3.48953, 58, -11.32279], "size": [2, 8, 2], "inflate": 0.003, "uv": [78, 40]},
						{"origin": [-1.98953, 58.5, -10.32279], "size": [2, 7, 0], "uv": [94, 22]}
					]
				},
				{
					"name": "antler_right13",
					"parent": "antler_right12",
					"pivot": [-1.48953, 66, -10.32279],
					"rotation": [0, 0, -27.5],
					"cubes": [
						{"origin": [-3.48953, 66, -11.32279], "size": [2, 10, 2], "inflate": 0.002, "uv": [74, 50]},
						{"origin": [-4.98953, 66.5, -10.32279], "size": [2, 9, 0], "uv": [58, 40]}
					]
				},
				{
					"name": "antler_right14",
					"parent": "antler_right13",
					"pivot": [-3.48953, 76, -10.32279],
					"rotation": [0, 0, 22.5],
					"cubes": [
						{"origin": [-3.48953, 76, -11.32279], "size": [2, 14, 2], "inflate": 0.001, "uv": [0, 70]}
					]
				},
				{
					"name": "light3",
					"parent": "antler_right14",
					"pivot": [-1.48953, 78, -10.32279],
					"rotation": [0, 0, 35],
					"cubes": [
						{"origin": [-3.48953, 78, -10.32279], "size": [2, 5, 0], "uv": [63, 123]},
						{"origin": [-2.48953, 83, -10.32279], "size": [1, 6, 0], "pivot": [-1.48953, 83, -10.32279], "rotation": [0, 0, -22.5], "uv": [64, 117]}
					]
				},
				{
					"name": "antler_right15",
					"parent": "antler_right14",
					"pivot": [-3.48953, 86, -10.32279],
					"rotation": [0, 0, 17.5]
				},
				{
					"name": "antler_right16",
					"parent": "antlers_right",
					"pivot": [-1.4765, 53.5, -9.91325],
					"rotation": [-11.17023, 28.02432, -22.79588],
					"cubes": [
						{"origin": [-2.9765, 52, -9.91325], "size": [2, 6, 2], "inflate": 0.004, "uv": [86, 32]}
					]
				},
				{
					"name": "antler_right17",
					"parent": "antler_right16",
					"pivot": [-0.9765, 58, -8.91325],
					"rotation": [0, 0, -37.5],
					"cubes": [
						{"origin": [-2.9765, 58, -9.91325], "size": [2, 8, 2], "inflate": 0.003, "uv": [0, 0]},
						{"origin": [-1.4765, 58.5, -8.91325], "size": [2, 7, 0], "uv": [33, 40]}
					]
				},
				{
					"name": "antler_right18",
					"parent": "antler_right17",
					"pivot": [-0.9765, 66, -8.91325],
					"rotation": [0, 0, -27.5],
					"cubes": [
						{"origin": [-2.9765, 66, -9.91325], "size": [2, 10, 2], "inflate": 0.002, "uv": [25, 34]},
						{"origin": [-4.4765, 66.5, -8.91325], "size": [2, 9, 0], "uv": [8, 33]}
					]
				},
				{
					"name": "antler_right19",
					"parent": "antler_right18",
					"pivot": [-2.9765, 76, -8.91325],
					"rotation": [0, 0, 22.5],
					"cubes": [
						{"origin": [-2.9765, 76, -9.91325], "size": [2, 14, 2], "inflate": 0.001, "uv": [68, 18]}
					]
				},
				{
					"name": "light2",
					"parent": "antler_right19",
					"pivot": [-0.9765, 78.15, -8.91325],
					"rotation": [0, 0, 35],
					"cubes": [
						{"origin": [-2.9765, 78, -8.91325], "size": [2, 5, 0], "uv": [73, 123]},
						{"origin": [-1.9765, 83, -8.91325], "size": [1, 6, 0], "pivot": [-0.9765, 83, -8.91325], "rotation": [0, 0, -22.5], "uv": [74, 117]}
					]
				},
				{
					"name": "antler_right20",
					"parent": "antler_right19",
					"pivot": [-2.9765, 86, -8.91325],
					"rotation": [0, 0, 17.5]
				},
				{
					"name": "ear_left",
					"parent": "head",
					"pivot": [3, 49.65, -14.25],
					"rotation": [0, -20, 0],
					"cubes": [
						{"origin": [3, 48, -14.25], "size": [6, 3, 3], "uv": [32, 6]},
						{"origin": [9, 48, -13.75], "size": [6, 2, 2], "inflate": -0.001, "pivot": [9, 48, -12.25], "rotation": [0, 0, -55], "uv": [74, 62]}
					]
				},
				{
					"name": "ear_right",
					"parent": "head",
					"pivot": [-3, 49.65, -14.25],
					"rotation": [0, 20, 0],
					"cubes": [
						{"origin": [-9, 48, -14.25], "size": [6, 3, 3], "uv": [22, 0]},
						{"origin": [-15, 48, -13.75], "size": [6, 2, 2], "inflate": -0.001, "pivot": [-9, 48, -12.25], "rotation": [0, 0, 55], "uv": [40, 0]}
					]
				},
				{
					"name": "jaw",
					"parent": "head",
					"pivot": [0, 47.75, -17.75],
					"cubes": [
						{"origin": [-1, 46.75, -19.75], "size": [2, 1, 2], "uv": [22, 6]}
					]
				},
				{
					"name": "eye_left",
					"parent": "head",
					"pivot": [2.51, 50, -16.26],
					"cubes": [
						{"origin": [2.01, 49, -17.76], "size": [1, 2, 3], "uv": [92, 29]}
					]
				},
				{
					"name": "eyelid_left",
					"parent": "eye_left",
					"pivot": [2.51, 50, -16.26],
					"cubes": [
						{"origin": [1.91, 49, -17.66], "size": [1, 2, 3], "inflate": 0.01, "uv": [92, 17]}
					]
				},
				{
					"name": "eye_right",
					"parent": "head",
					"pivot": [-2.51, 50, -16.26],
					"cubes": [
						{"origin": [-3.01, 49, -17.76], "size": [1, 2, 3], "uv": [91, 91]}
					]
				},
				{
					"name": "eyelid_right",
					"parent": "eye_right",
					"pivot": [-2.41, 50, -16.16],
					"cubes": [
						{"origin": [-2.91, 49, -17.66], "size": [1, 2, 3], "inflate": 0.01, "uv": [88, 78]}
					]
				},
				{
					"name": "leg_front_right",
					"parent": "body",
					"pivot": [-3.25, 29.75, -10],
					"cubes": [
						{"origin": [-5.25, 21.75, -12], "size": [4, 12, 4], "uv": [0, 54]}
					]
				},
				{
					"name": "leg_front_right2",
					"parent": "leg_front_right",
					"pivot": [-2.75, 21.75, -11.5],
					"cubes": [
						{"origin": [-4.25, 4, -11.5], "size": [2, 18, 2], "uv": [56, 68]},
						{"origin": [-3.75, 1.875, -12], "size": [1, 3, 3], "pivot": [-2.75, 3.375, -10.5], "rotation": [-45, 0, 0], "uv": [61, 88]},
						{"origin": [-4.75, 0, -11], "size": [3, 22, 0], "pivot": [-2.75, 15, -11], "rotation": [2.08, 0, 0], "uv": [50, 68]}
					]
				},
				{
					"name": "leg_front_left",
					"parent": "body",
					"pivot": [3.25, 29.75, -10],
					"cubes": [
						{"origin": [1.25, 21.75, -12], "size": [4, 12, 4], "uv": [50, 52]}
					]
				},
				{
					"name": "leg_front_left2",
					"parent": "leg_front_left",
					"pivot": [2.75, 21.75, -11.5],
					"cubes": [
						{"origin": [2.25, 4, -11.5], "size": [2, 18, 2], "uv": [62, 32]},
						{"origin": [2.75, 1.875, -12], "size": [1, 3, 3], "pivot": [2.75, 3.375, -10.5], "rotation": [-45, 0, 0], "uv": [53, 88]},
						{"origin": [1.75, 0, -11], "size": [3, 22, 0], "pivot": [2.75, 15, -11], "rotation": [2.08, 0, 0], "uv": [22, 54]}
					]
				},
				{
					"name": "leg_back_right",
					"parent": "body",
					"pivot": [-3.5, 31.25, 8.25],
					"cubes": [
						{"origin": [-5.5, 21.25, 5.25], "size": [4, 12, 6], "uv": [52, 0]}
					]
				},
				{
					"name": "leg_back_right2",
					"parent": "leg_back_right",
					"pivot": [-2.75, 21.25, 11.75],
					"cubes": [
						{"origin": [-4, 1.375, 9.25], "size": [1, 3, 3], "pivot": [-3, 2.875, 10.75], "rotation": [-45, 0, 0], "uv": [88, 57]},
						{"origin": [-5, -0.5, 10.25], "size": [3, 22, 0], "pivot": [-3, 14.5, 10.25], "rotation": [2.08, 0, 0], "uv": [28, 54]},
						{"origin": [-4.5, 3.5, 9.75], "size": [2, 18, 2], "uv": [66, 52]}
					]
				},
				{
					"name": "leg_back_left",
					"parent": "body",
					"pivot": [3.5, 31.25, 8.25],
					"cubes": [
						{"origin": [1.5, 21.25, 5.25], "size": [4, 12, 6], "uv": [38, 34]}
					]
				},
				{
					"name": "leg_back_left2",
					"parent": "leg_back_left",
					"pivot": [2.75, 21.25, 11.75],
					"cubes": [
						{"origin": [3, 1.375, 9.25], "size": [1, 3, 3], "pivot": [3, 2.875, 10.75], "rotation": [-45, 0, 0], "uv": [40, 88]},
						{"origin": [2, -0.5, 10.25], "size": [3, 22, 0], "pivot": [3, 14.5, 10.25], "rotation": [2.08, 0, 0], "uv": [16, 54]},
						{"origin": [2.5, 3.5, 9.75], "size": [2, 18, 2], "uv": [0, 26]}
					]
				}
			]
		}
	]
}