{
	"format_version": "1.8.0",
	"animations": {
		"animation.boltund.ground_idle": {
			"loop": true,
			"bones": {
				"tail2": {
					"rotation": [-62.5, 0, 0]
				},
				"tail3": {
					"rotation": [45, 0, 0]
				},
				"tail4": {
					"rotation": [32.5, 0, 0]
				},
				"neck": {
					"rotation": [17.5, 0, 0]
				},
				"head": {
					"rotation": [-17.5, 0, 0]
				},
				"ear_left": {
					"rotation": [0, 7.5, 0],
					"position": [0.125, 0, 0]
				},
				"ear_right": {
					"rotation": [0, -7.5, 0],
					"position": [-0.125, 0, 0]
				}
			}
		},
		"animation.boltund.pose": {
			"loop": true,
			"bones": {
				"torso": {
					"rotation": [10, 0, 0]
				},
				"chest": {
					"rotation": [-2.5, 0, 0]
				},
				"leg_front_left": {
					"rotation": [42.22968, -13.41978, -18.24687]
				},
				"neck": {
					"rotation": [22.5, 0, 0]
				},
				"head": {
					"rotation": [-20, 0, 0]
				},
				"jaw": {
					"rotation": [25, 0, 0]
				},
				"ear_left": {
					"rotation": [2.5, 0, 0]
				},
				"tail2": {
					"rotation": [-20, 0, 0]
				},
				"tail3": {
					"rotation": [12.5, 0, 0]
				},
				"tail4": {
					"rotation": [20, 0, 0]
				},
				"leg_back_left": {
					"rotation": [42.48247, 0.85481, -2.34941]
				},
				"foot_back_left": {
					"rotation": [55, 0, 0]
				},
				"leg_front_left2": {
					"rotation": [-107.5, 0, 0]
				},
				"foot_front_left": {
					"rotation": [147.5, 0, 0]
				},
				"ear_right": {
					"rotation": [2.5, 0, 0]
				},
				"leg_back_right": {
					"rotation": [42.47528, -1.34295, 2.10886]
				},
				"foot_back_right": {
					"rotation": [55, 0, 0]
				},
				"leg_front_right": {
					"rotation": [-9.96271, 0.86717, 4.92442]
				},
				"leg_front_right2": {
					"rotation": [-5, 0, 0]
				},
				"foot_front_right": {
					"rotation": [-7.5, 0, 0]
				}
			}
		},
		"animation.boltund.blink": {
			"animation_length": 0.16667,
			"bones": {
				"eyelid_left": {
					"position": {
						"0.125": [0.1, 0, -0.1],
						"0.1667": [0, 0, 0]
					}
				},
				"eyelid_right": {
					"position": {
						"0.125": [-0.1, 0, -0.1],
						"0.1667": [0, 0, 0]
					}
				}
			}
		}
	}
}